{
    "command": "./json_workload_generator.py ./spark_bdb_profiles.json workloads/workload_bigdata_seed3_jobs150.json 32 --indent 4 --random_seed 3 --job_number 150 --job_log_size_sigma 3 --job_iarrival_lambda 40 --job_iarrival_k 1 --maximum_power_of_two 4 --minimum_power_of_two 2",
    "date": "2017-04-21 10:24:11.987779",
    "description": "Namespace(indent=4, inputJSON=<_io.TextIOWrapper name='./spark_bdb_profiles.json' mode='r' encoding='UTF-8'>, job_iarrival_k=1.0, job_iarrival_lambda=40.0, job_log_size_mu=1, job_log_size_sigma=3.0, job_number=150, maximum_job_length=None, maximum_power_of_two=4, minimum_power_of_two=2, outputJSON=<_io.TextIOWrapper name='workloads/workload_bigdata_seed3_jobs150.json' mode='w' encoding='UTF-8'>, random_seed=3, resourcesNumber=32, serial_job_probability=0.25)",
    "jobs": [
        {
            "id": 0,
            "profile": "Grep_large",
            "res": 16,
            "subtime": 6.945571390029571
        },
        {
            "id": 1,
            "profile": "Kmeans_small",
            "res": 8,
            "subtime": 67.32431293168491
        },
        {
            "id": 2,
            "profile": "Grep_large",
            "res": 16,
            "subtime": 161.1447560923747
        },
        {
            "id": 3,
            "profile": "WordCount_small",
            "res": 4,
            "subtime": 183.42943590148104
        },
        {
            "id": 4,
            "profile": "Grep_small",
            "res": 4,
            "subtime": 202.40949027085935
        },
        {
            "id": 5,
            "profile": "Kmeans_medium",
            "res": 8,
            "subtime": 213.3183480844502
        },
        {
            "id": 6,
            "profile": "WordCount_medium",
            "res": 8,
            "subtime": 221.43171142423955
        },
        {
            "id": 7,
            "profile": "Kmeans_medium",
            "res": 8,
            "subtime": 309.6152560171175
        },
        {
            "id": 8,
            "profile": "WordCount_small",
            "res": 4,
            "subtime": 364.3217397834184
        },
        {
            "id": 9,
            "profile": "WordCount_small",
            "res": 4,
            "subtime": 374.3014037280599
        },
        {
            "id": 10,
            "profile": "WordCount_small",
            "res": 4,
            "subtime": 376.3502662252246
        },
        {
            "id": 11,
            "profile": "Kmeans_small",
            "res": 8,
            "subtime": 391.9604906737649
        },
        {
            "id": 12,
            "profile": "Kmeans_large",
            "res": 8,
            "subtime": 407.0694186170131
        },
        {
            "id": 13,
            "profile": "WordCount_small",
            "res": 4,
            "subtime": 464.1613433115789
        },
        {
            "id": 14,
            "profile": "Grep_small",
            "res": 4,
            "subtime": 494.86215622487157
        },
        {
            "id": 15,
            "profile": "WordCount_small",
            "res": 4,
            "subtime": 538.914181375172
        },
        {
            "id": 16,
            "profile": "Grep_small",
            "res": 4,
            "subtime": 546.0115242361122
        },
        {
            "id": 17,
            "profile": "WordCount_medium",
            "res": 8,
            "subtime": 666.3982949554564
        },
        {
            "id": 18,
            "profile": "WordCount_large",
            "res": 16,
            "subtime": 725.9233262825638
        },
        {
            "id": 19,
            "profile": "WordCount_small",
            "res": 4,
            "subtime": 760.6726195678899
        },
        {
            "id": 20,
            "profile": "WordCount_medium",
            "res": 8,
            "subtime": 874.0767554126762
        },
        {
            "id": 21,
            "profile": "Grep_small",
            "res": 4,
            "subtime": 922.9713418790734
        },
        {
            "id": 22,
            "profile": "WordCount_small",
            "res": 4,
            "subtime": 938.1601662476604
        },
        {
            "id": 23,
            "profile": "Kmeans_medium",
            "res": 8,
            "subtime": 1028.5802998245067
        },
        {
            "id": 24,
            "profile": "Grep_medium",
            "res": 8,
            "subtime": 1134.8494433496278
        },
        {
            "id": 25,
            "profile": "Grep_small",
            "res": 4,
            "subtime": 1135.7485550901783
        },
        {
            "id": 26,
            "profile": "Grep_small",
            "res": 4,
            "subtime": 1146.8083646270807
        },
        {
            "id": 27,
            "profile": "Grep_small",
            "res": 4,
            "subtime": 1214.232898798165
        },
        {
            "id": 28,
            "profile": "Grep_small",
            "res": 4,
            "subtime": 1242.5268216029076
        },
        {
            "id": 29,
            "profile": "WordCount_large",
            "res": 16,
            "subtime": 1304.694744557006
        },
        {
            "id": 30,
            "profile": "Kmeans_large",
            "res": 8,
            "subtime": 1343.6506987211153
        },
        {
            "id": 31,
            "profile": "WordCount_small",
            "res": 4,
            "subtime": 1364.2748400716544
        },
        {
            "id": 32,
            "profile": "Grep_small",
            "res": 4,
            "subtime": 1395.2649289061994
        },
        {
            "id": 33,
            "profile": "WordCount_small",
            "res": 4,
            "subtime": 1417.2511660025446
        },
        {
            "id": 34,
            "profile": "Grep_small",
            "res": 4,
            "subtime": 1432.868115252196
        },
        {
            "id": 35,
            "profile": "Grep_small",
            "res": 4,
            "subtime": 1446.6830316945911
        },
        {
            "id": 36,
            "profile": "Grep_small",
            "res": 4,
            "subtime": 1501.6247517206275
        },
        {
            "id": 37,
            "profile": "Grep_small",
            "res": 4,
            "subtime": 1519.4583825740492
        },
        {
            "id": 38,
            "profile": "Grep_large",
            "res": 16,
            "subtime": 1639.3763230219004
        },
        {
            "id": 39,
            "profile": "WordCount_small",
            "res": 4,
            "subtime": 1661.0427449028941
        },
        {
            "id": 40,
            "profile": "WordCount_small",
            "res": 4,
            "subtime": 1679.5911852981255
        },
        {
            "id": 41,
            "profile": "Grep_large",
            "res": 16,
            "subtime": 1700.8239162585878
        },
        {
            "id": 42,
            "profile": "WordCount_large",
            "res": 16,
            "subtime": 1762.4055107508166
        },
        {
            "id": 43,
            "profile": "Grep_small",
            "res": 4,
            "subtime": 1791.3326962982694
        },
        {
            "id": 44,
            "profile": "Grep_small",
            "res": 4,
            "subtime": 1799.0108947912345
        },
        {
            "id": 45,
            "profile": "Kmeans_large",
            "res": 8,
            "subtime": 1893.3737414282407
        },
        {
            "id": 46,
            "profile": "WordCount_small",
            "res": 4,
            "subtime": 1918.9746769324374
        },
        {
            "id": 47,
            "profile": "WordCount_small",
            "res": 4,
            "subtime": 2026.9731203565386
        },
        {
            "id": 48,
            "profile": "Grep_large",
            "res": 16,
            "subtime": 2062.682534849198
        },
        {
            "id": 49,
            "profile": "Grep_small",
            "res": 4,
            "subtime": 2093.639017545227
        },
        {
            "id": 50,
            "profile": "Grep_large",
            "res": 16,
            "subtime": 2162.4218038730337
        },
        {
            "id": 51,
            "profile": "WordCount_medium",
            "res": 8,
            "subtime": 2240.3696656352963
        },
        {
            "id": 52,
            "profile": "Grep_medium",
            "res": 8,
            "subtime": 2251.1776687473175
        },
        {
            "id": 53,
            "profile": "Grep_large",
            "res": 16,
            "subtime": 2285.781883918138
        },
        {
            "id": 54,
            "profile": "WordCount_small",
            "res": 4,
            "subtime": 2302.3341995227006
        },
        {
            "id": 55,
            "profile": "WordCount_small",
            "res": 4,
            "subtime": 2371.7925571357673
        },
        {
            "id": 56,
            "profile": "Grep_small",
            "res": 4,
            "subtime": 2385.7948189700305
        },
        {
            "id": 57,
            "profile": "WordCount_small",
            "res": 4,
            "subtime": 2394.531812336202
        },
        {
            "id": 58,
            "profile": "Grep_small",
            "res": 4,
            "subtime": 2399.6067730187665
        },
        {
            "id": 59,
            "profile": "WordCount_large",
            "res": 16,
            "subtime": 2480.7688227697968
        },
        {
            "id": 60,
            "profile": "Grep_medium",
            "res": 8,
            "subtime": 2506.8871616844613
        },
        {
            "id": 61,
            "profile": "WordCount_small",
            "res": 4,
            "subtime": 2542.1281502876623
        },
        {
            "id": 62,
            "profile": "Kmeans_medium",
            "res": 8,
            "subtime": 2546.4142929544473
        },
        {
            "id": 63,
            "profile": "WordCount_large",
            "res": 16,
            "subtime": 2589.8419454851987
        },
        {
            "id": 64,
            "profile": "Grep_small",
            "res": 4,
            "subtime": 2597.6704380034994
        },
        {
            "id": 65,
            "profile": "WordCount_small",
            "res": 4,
            "subtime": 2702.158076479886
        },
        {
            "id": 66,
            "profile": "Grep_small",
            "res": 4,
            "subtime": 2712.402367829743
        },
        {
            "id": 67,
            "profile": "Grep_medium",
            "res": 8,
            "subtime": 2740.0877593411874
        },
        {
            "id": 68,
            "profile": "WordCount_small",
            "res": 4,
            "subtime": 2740.910034593685
        },
        {
            "id": 69,
            "profile": "WordCount_small",
            "res": 4,
            "subtime": 2785.8949494491544
        },
        {
            "id": 70,
            "profile": "Kmeans_small",
            "res": 8,
            "subtime": 2819.1774368084934
        },
        {
            "id": 71,
            "profile": "WordCount_small",
            "res": 4,
            "subtime": 2857.1279067828073
        },
        {
            "id": 72,
            "profile": "Grep_small",
            "res": 4,
            "subtime": 2955.7398763092665
        },
        {
            "id": 73,
            "profile": "Grep_small",
            "res": 4,
            "subtime": 3002.6479706870664
        },
        {
            "id": 74,
            "profile": "Grep_large",
            "res": 16,
            "subtime": 3015.89386192339
        },
        {
            "id": 75,
            "profile": "WordCount_large",
            "res": 16,
            "subtime": 3015.9604090639095
        },
        {
            "id": 76,
            "profile": "WordCount_small",
            "res": 4,
            "subtime": 3028.303378593857
        },
        {
            "id": 77,
            "profile": "WordCount_large",
            "res": 16,
            "subtime": 3045.152070057843
        },
        {
            "id": 78,
            "profile": "WordCount_large",
            "res": 16,
            "subtime": 3077.63032471338
        },
        {
            "id": 79,
            "profile": "WordCount_small",
            "res": 4,
            "subtime": 3130.254282260162
        },
        {
            "id": 80,
            "profile": "Grep_large",
            "res": 16,
            "subtime": 3137.951938650781
        },
        {
            "id": 81,
            "profile": "Grep_large",
            "res": 16,
            "subtime": 3181.7862144231403
        },
        {
            "id": 82,
            "profile": "Grep_small",
            "res": 4,
            "subtime": 3197.582747178924
        },
        {
            "id": 83,
            "profile": "WordCount_large",
            "res": 16,
            "subtime": 3208.6348150674444
        },
        {
            "id": 84,
            "profile": "Grep_large",
            "res": 16,
            "subtime": 3247.962042421723
        },
        {
            "id": 85,
            "profile": "WordCount_small",
            "res": 4,
            "subtime": 3278.142963458048
        },
        {
            "id": 86,
            "profile": "Kmeans_medium",
            "res": 8,
            "subtime": 3301.300198377522
        },
        {
            "id": 87,
            "profile": "Kmeans_medium",
            "res": 8,
            "subtime": 3362.4082138256986
        },
        {
            "id": 88,
            "profile": "WordCount_large",
            "res": 16,
            "subtime": 3379.2216690801483
        },
        {
            "id": 89,
            "profile": "Kmeans_small",
            "res": 8,
            "subtime": 3397.6967960423744
        },
        {
            "id": 90,
            "profile": "WordCount_small",
            "res": 4,
            "subtime": 3553.773345717277
        },
        {
            "id": 91,
            "profile": "WordCount_small",
            "res": 4,
            "subtime": 3554.2576595499695
        },
        {
            "id": 92,
            "profile": "Grep_small",
            "res": 4,
            "subtime": 3557.206319270361
        },
        {
            "id": 93,
            "profile": "Grep_large",
            "res": 16,
            "subtime": 3572.6615384495917
        },
        {
            "id": 94,
            "profile": "Kmeans_medium",
            "res": 8,
            "subtime": 3573.499204892583
        },
        {
            "id": 95,
            "profile": "Grep_small",
            "res": 4,
            "subtime": 3592.4147167718206
        },
        {
            "id": 96,
            "profile": "WordCount_small",
            "res": 4,
            "subtime": 3592.7216054465375
        },
        {
            "id": 97,
            "profile": "Kmeans_large",
            "res": 8,
            "subtime": 3597.1062098408825
        },
        {
            "id": 98,
            "profile": "WordCount_large",
            "res": 16,
            "subtime": 3630.6432987953785
        },
        {
            "id": 99,
            "profile": "WordCount_small",
            "res": 4,
            "subtime": 3643.913798132176
        },
        {
            "id": 100,
            "profile": "WordCount_medium",
            "res": 8,
            "subtime": 3650.9213269954494
        },
        {
            "id": 101,
            "profile": "Kmeans_medium",
            "res": 8,
            "subtime": 3689.977433391872
        },
        {
            "id": 102,
            "profile": "Kmeans_medium",
            "res": 8,
            "subtime": 3696.8136976238466
        },
        {
            "id": 103,
            "profile": "Grep_medium",
            "res": 8,
            "subtime": 3712.6752234998557
        },
        {
            "id": 104,
            "profile": "Kmeans_medium",
            "res": 8,
            "subtime": 3713.7261245558598
        },
        {
            "id": 105,
            "profile": "WordCount_medium",
            "res": 8,
            "subtime": 3717.841284726747
        },
        {
            "id": 106,
            "profile": "WordCount_small",
            "res": 4,
            "subtime": 3731.892021196569
        },
        {
            "id": 107,
            "profile": "Grep_small",
            "res": 4,
            "subtime": 3772.5574730808758
        },
        {
            "id": 108,
            "profile": "Kmeans_large",
            "res": 8,
            "subtime": 3779.1521453821206
        },
        {
            "id": 109,
            "profile": "WordCount_small",
            "res": 4,
            "subtime": 3850.05898117406
        },
        {
            "id": 110,
            "profile": "Grep_small",
            "res": 4,
            "subtime": 3866.9971737466994
        },
        {
            "id": 111,
            "profile": "WordCount_small",
            "res": 4,
            "subtime": 3915.213096516011
        },
        {
            "id": 112,
            "profile": "WordCount_medium",
            "res": 8,
            "subtime": 3917.486329802533
        },
        {
            "id": 113,
            "profile": "WordCount_medium",
            "res": 8,
            "subtime": 3934.755861903348
        },
        {
            "id": 114,
            "profile": "Kmeans_medium",
            "res": 8,
            "subtime": 3935.534548036917
        },
        {
            "id": 115,
            "profile": "Kmeans_small",
            "res": 8,
            "subtime": 4058.3042815627714
        },
        {
            "id": 116,
            "profile": "Grep_large",
            "res": 16,
            "subtime": 4069.2649750787577
        },
        {
            "id": 117,
            "profile": "Grep_small",
            "res": 4,
            "subtime": 4075.5227265749713
        },
        {
            "id": 118,
            "profile": "WordCount_large",
            "res": 16,
            "subtime": 4113.7130987605315
        },
        {
            "id": 119,
            "profile": "Grep_large",
            "res": 16,
            "subtime": 4139.214049435937
        },
        {
            "id": 120,
            "profile": "WordCount_small",
            "res": 4,
            "subtime": 4311.062446718117
        },
        {
            "id": 121,
            "profile": "Grep_medium",
            "res": 8,
            "subtime": 4320.742063830218
        },
        {
            "id": 122,
            "profile": "Kmeans_large",
            "res": 8,
            "subtime": 4398.752763781224
        },
        {
            "id": 123,
            "profile": "Kmeans_large",
            "res": 8,
            "subtime": 4409.128265219349
        },
        {
            "id": 124,
            "profile": "Kmeans_medium",
            "res": 8,
            "subtime": 4500.0279275467665
        },
        {
            "id": 125,
            "profile": "WordCount_medium",
            "res": 8,
            "subtime": 4601.486236046369
        },
        {
            "id": 126,
            "profile": "Kmeans_small",
            "res": 8,
            "subtime": 4632.28452400739
        },
        {
            "id": 127,
            "profile": "WordCount_large",
            "res": 16,
            "subtime": 4635.244969054983
        },
        {
            "id": 128,
            "profile": "Grep_large",
            "res": 16,
            "subtime": 4754.384969535184
        },
        {
            "id": 129,
            "profile": "Kmeans_small",
            "res": 8,
            "subtime": 4760.073405131732
        },
        {
            "id": 130,
            "profile": "Kmeans_medium",
            "res": 8,
            "subtime": 4797.737539678492
        },
        {
            "id": 131,
            "profile": "WordCount_small",
            "res": 4,
            "subtime": 4908.6690730018945
        },
        {
            "id": 132,
            "profile": "WordCount_small",
            "res": 4,
            "subtime": 4908.949812077045
        },
        {
            "id": 133,
            "profile": "Grep_large",
            "res": 16,
            "subtime": 4940.265494347942
        },
        {
            "id": 134,
            "profile": "WordCount_small",
            "res": 4,
            "subtime": 4941.945506417619
        },
        {
            "id": 135,
            "profile": "WordCount_small",
            "res": 4,
            "subtime": 4951.441765433218
        },
        {
            "id": 136,
            "profile": "WordCount_small",
            "res": 4,
            "subtime": 5037.858580500893
        },
        {
            "id": 137,
            "profile": "Grep_small",
            "res": 4,
            "subtime": 5061.631972091006
        },
        {
            "id": 138,
            "profile": "Kmeans_medium",
            "res": 8,
            "subtime": 5115.899513963448
        },
        {
            "id": 139,
            "profile": "WordCount_small",
            "res": 4,
            "subtime": 5128.1160544473005
        },
        {
            "id": 140,
            "profile": "Kmeans_large",
            "res": 8,
            "subtime": 5146.575743223129
        },
        {
            "id": 141,
            "profile": "WordCount_small",
            "res": 4,
            "subtime": 5171.203978912252
        },
        {
            "id": 142,
            "profile": "Grep_medium",
            "res": 8,
            "subtime": 5182.295237050469
        },
        {
            "id": 143,
            "profile": "Grep_small",
            "res": 4,
            "subtime": 5202.42814552753
        },
        {
            "id": 144,
            "profile": "Grep_large",
            "res": 16,
            "subtime": 5214.600366422529
        },
        {
            "id": 145,
            "profile": "WordCount_large",
            "res": 16,
            "subtime": 5243.888592851034
        },
        {
            "id": 146,
            "profile": "WordCount_medium",
            "res": 8,
            "subtime": 5269.501066531526
        },
        {
            "id": 147,
            "profile": "Grep_small",
            "res": 4,
            "subtime": 5390.960822485951
        },
        {
            "id": 148,
            "profile": "WordCount_small",
            "res": 4,
            "subtime": 5410.359607460139
        },
        {
            "id": 149,
            "profile": "Grep_small",
            "res": 4,
            "subtime": 5485.624244630141
        }
    ],
    "nb_res": 32,
    "profiles": {
        "Grep_large": {
            "application_name": "Grep",
            "application_parameters": "word result{job_id}",
            "application_type": "MicroBenchmarks",
            "data_size": 256,
            "framework_type": "Spark",
            "nb_executor": 16,
            "user": "mmercier"
        },
        "Grep_medium": {
            "application_name": "Grep",
            "application_parameters": "word result{job_id}",
            "application_type": "MicroBenchmarks",
            "data_size": 128,
            "framework_type": "Spark",
            "nb_executor": 8,
            "user": "mmercier"
        },
        "Grep_small": {
            "application_name": "Grep",
            "application_parameters": "word result{job_id}",
            "application_type": "MicroBenchmarks",
            "data_size": 64,
            "framework_type": "Spark",
            "nb_executor": 4,
            "user": "mmercier"
        },
        "Kmeans_large": {
            "application_name": "Kmeans",
            "application_parameters": "4 3",
            "application_type": "SNS-Kmeans",
            "data_size": 256,
            "framework_type": "Spark",
            "nb_executor": 8,
            "user": "mmercier"
        },
        "Kmeans_medium": {
            "application_name": "Kmeans",
            "application_parameters": "4 3",
            "application_type": "SNS-Kmeans",
            "data_size": 128,
            "framework_type": "Spark",
            "nb_executor": 8,
            "user": "mmercier"
        },
        "Kmeans_small": {
            "application_name": "Kmeans",
            "application_parameters": "4 3",
            "application_type": "SNS-Kmeans",
            "data_size": 64,
            "framework_type": "Spark",
            "nb_executor": 8,
            "user": "mmercier"
        },
        "WordCount_large": {
            "application_name": "WordCount",
            "application_parameters": "result{job_id}",
            "application_type": "MicroBenchmarks",
            "data_size": 256,
            "framework_type": "Spark",
            "nb_executor": 16,
            "user": "mmercier"
        },
        "WordCount_medium": {
            "application_name": "WordCount",
            "application_parameters": "result{job_id}",
            "application_type": "MicroBenchmarks",
            "data_size": 128,
            "framework_type": "Spark",
            "nb_executor": 8,
            "user": "mmercier"
        },
        "WordCount_small": {
            "application_name": "WordCount",
            "application_parameters": "result{job_id}",
            "application_type": "MicroBenchmarks",
            "data_size": 64,
            "framework_type": "Spark",
            "nb_executor": 4,
            "user": "mmercier"
        }
    }
}