{
  "description": "This experiment is generating datasets for bebida",
  "grid5000_site": "Nancy",
  "resources": "nodes=6",
  "walltime": "4:00:00",
  "kadeploy_env": "bebida-master",
  "data_dir": "/data/mmercier_1296525",
  "workloads": [
    "/home/mmercier/bebida/experiments/run_big_data_workload/workloads/workload_bigdata_seed1_jobs50.json"
  ]
}
