batsim_id,spark_app_id
workload_bigdata_seed2_jobs25#0,application_1499413782246_0021
workload_bigdata_seed2_jobs25#1,application_1499413782246_0022
workload_bigdata_seed2_jobs25#2,application_1499413782246_0023
workload_bigdata_seed2_jobs25#3,application_1499413782246_0024
workload_bigdata_seed2_jobs25#4,application_1499413782246_0025
workload_bigdata_seed2_jobs25#5,application_1499413782246_0026
workload_bigdata_seed2_jobs25#6,application_1499413782246_0027
workload_bigdata_seed2_jobs25#7,application_1499413782246_0028
workload_bigdata_seed2_jobs25#8,application_1499413782246_0029
workload_bigdata_seed2_jobs25#9,application_1499413782246_0030
workload_bigdata_seed2_jobs25#10,application_1499413782246_0031
workload_bigdata_seed2_jobs25#11,application_1499413782246_0032
workload_bigdata_seed2_jobs25#12,application_1499413782246_0033
workload_bigdata_seed2_jobs25#13,application_1499413782246_0034
workload_bigdata_seed2_jobs25#14,application_1499413782246_0035
workload_bigdata_seed2_jobs25#15,application_1499413782246_0036
workload_bigdata_seed2_jobs25#16,application_1499413782246_0037
