

 NAS Parallel Benchmarks 3.3 -- IS Benchmark

 Size:  2147483648  (class D)
 Iterations:   10
 Number of processes:     32

   iteration
        1
        2
        3
        4
        5
        6
        7
        8
        9
        10


 IS Benchmark Completed
 Class           =                        D
 Size            =               2147483648
 Iterations      =                       10
 Time in seconds =                   110.10
 Total processes =                       32
 Compiled procs  =                       32
 Mop/s total     =                   195.05
 Mop/s/process   =                     6.10
 Operation type  =              keys ranked
 Verification    =               SUCCESSFUL
 Version         =                    3.3.1
 Compile date    =              23 May 2017

 Compile options:
    MPICC        = mpicc
    CLINK        = $(MPICC)
    CMPI_LIB     = -L/usr/local/lib -lmpi
    CMPI_INC     = -I/usr/local/include
    CFLAGS       = -O
    CLINKFLAGS   = -O


 Please send feedbacks and/or the results of this run to:

 NPB Development Team
 npb@nas.nasa.gov


