2018-12-06 15:46:04,072 -    INFO - Start the replay for workload: workload_bigdata_one_time_each
2018-12-06 15:46:04,093 -    INFO - /opt/spark/bin/spark-submit --master yarn --deploy-mode client --num-executors 4 --class cn.ac.ict.bigdatabench.KMeans /opt/BigDataBench_V3.2.5_Spark/JAR_FILE/bigdatabench-spark_1.3.0-hadoop_1.0.4.jar /user/mmercier/data-SNS-Kmeans-32 4 3
2018-12-06 15:46:04,095 -    INFO - Started Spark submit process for job:workload_bigdata_one_time_each#7
2018-12-06 15:46:18,577 -    INFO - Application id: application_1544104813447_0001
2018-12-06 16:11:04,194 -    INFO - /opt/spark/bin/spark-submit --master yarn --deploy-mode client --num-executors 8 --class cn.ac.ict.bigdatabench.KMeans /opt/BigDataBench_V3.2.5_Spark/JAR_FILE/bigdatabench-spark_1.3.0-hadoop_1.0.4.jar /user/mmercier/data-SNS-Kmeans-64 4 3
2018-12-06 16:11:04,197 -    INFO - Started Spark submit process for job:workload_bigdata_one_time_each#8
2018-12-06 16:11:16,087 -    INFO - Application id: application_1544104813447_0002
2018-12-06 16:19:58,624 -    INFO - Process is finished for Application: application_1544104813447_0001
2018-12-06 16:19:58,624 -    INFO - Waiting completion for Application id: application_1544104813447_0001
2018-12-06 16:20:06,280 -    INFO - Gathering information for Application id: application_1544104813447_0001
2018-12-06 16:20:11,389 -    INFO - Info gathering is finished for Application: application_1544104813447_0001 
2018-12-06 16:36:04,161 -    INFO - /opt/spark/bin/spark-submit --master yarn --deploy-mode client --num-executors 16 --class cn.ac.ict.bigdatabench.KMeans /opt/BigDataBench_V3.2.5_Spark/JAR_FILE/bigdatabench-spark_1.3.0-hadoop_1.0.4.jar /user/mmercier/data-SNS-Kmeans-128 4 3
2018-12-06 16:36:04,165 -    INFO - Started Spark submit process for job:workload_bigdata_one_time_each#9
2018-12-06 16:36:19,041 -    INFO - Application id: application_1544104813447_0003
2018-12-06 16:55:24,934 -    INFO - Process is finished for Application: application_1544104813447_0002
2018-12-06 16:55:24,934 -    INFO - Waiting completion for Application id: application_1544104813447_0002
2018-12-06 16:55:29,969 -    INFO - Gathering information for Application id: application_1544104813447_0002
2018-12-06 16:55:34,209 -    INFO - Info gathering is finished for Application: application_1544104813447_0002 
2018-12-06 17:01:56,469 -    INFO - Process is finished for Application: application_1544104813447_0003
2018-12-06 17:01:56,469 -    INFO - Waiting completion for Application id: application_1544104813447_0003
2018-12-06 17:02:11,556 -    INFO - Gathering information for Application id: application_1544104813447_0003
2018-12-06 17:02:26,431 -    INFO - Info gathering is finished for Application: application_1544104813447_0003 
2018-12-06 17:02:26,432 -    INFO - End of the replay for workload: workload_bigdata_one_time_each
