%!PS-Adobe-2.0 EPSF-2.0
%%Title: /home/mmercier/Projects/bebida/presentation/img/actors.dia
%%Creator: Dia v0.97+git
%%CreationDate: Wed Nov 15 13:11:00 2017
%%For: mmercier
%%Orientation: Portrait
%%Magnification: 1.0000
%%BoundingBox: 0 0 291 305
%%BeginSetup
%%EndSetup
%%EndComments
%%BeginProlog
[ /.notdef /.notdef /.notdef /.notdef /.notdef /.notdef /.notdef /.notdef /.notdef /.notdef
/.notdef /.notdef /.notdef /.notdef /.notdef /.notdef /.notdef /.notdef /.notdef /.notdef
/.notdef /.notdef /.notdef /.notdef /.notdef /.notdef /.notdef /.notdef /.notdef /.notdef
/.notdef /.notdef /space /exclam /quotedbl /numbersign /dollar /percent /ampersand /quoteright
/parenleft /parenright /asterisk /plus /comma /hyphen /period /slash /zero /one
/two /three /four /five /six /seven /eight /nine /colon /semicolon
/less /equal /greater /question /at /A /B /C /D /E
/F /G /H /I /J /K /L /M /N /O
/P /Q /R /S /T /U /V /W /X /Y
/Z /bracketleft /backslash /bracketright /asciicircum /underscore /quoteleft /a /b /c
/d /e /f /g /h /i /j /k /l /m
/n /o /p /q /r /s /t /u /v /w
/x /y /z /braceleft /bar /braceright /asciitilde /.notdef /.notdef /.notdef
/.notdef /.notdef /.notdef /.notdef /.notdef /.notdef /.notdef /.notdef /.notdef /.notdef
/.notdef /.notdef /.notdef /.notdef /.notdef /.notdef /.notdef /.notdef /.notdef /.notdef
/.notdef /.notdef /.notdef /.notdef /.notdef /.notdef /.notdef /.notdef /.notdef /.notdef
/space /exclamdown /cent /sterling /currency /yen /brokenbar /section /dieresis /copyright
/ordfeminine /guillemotleft /logicalnot /hyphen /registered /macron /degree /plusminus /twosuperior /threesuperior
/acute /mu /paragraph /periodcentered /cedilla /onesuperior /ordmasculine /guillemotright /onequarter /onehalf
/threequarters /questiondown /Agrave /Aacute /Acircumflex /Atilde /Adieresis /Aring /AE /Ccedilla
/Egrave /Eacute /Ecircumflex /Edieresis /Igrave /Iacute /Icircumflex /Idieresis /Eth /Ntilde
/Ograve /Oacute /Ocircumflex /Otilde /Odieresis /multiply /Oslash /Ugrave /Uacute /Ucircumflex
/Udieresis /Yacute /Thorn /germandbls /agrave /aacute /acircumflex /atilde /adieresis /aring
/ae /ccedilla /egrave /eacute /ecircumflex /edieresis /igrave /iacute /icircumflex /idieresis
/eth /ntilde /ograve /oacute /ocircumflex /otilde /odieresis /divide /oslash /ugrave
/uacute /ucircumflex /udieresis /yacute /thorn /ydieresis] /isolatin1encoding exch def
/cp {closepath} bind def
/c {curveto} bind def
/f {fill} bind def
/a {arc} bind def
/ef {eofill} bind def
/ex {exch} bind def
/gr {grestore} bind def
/gs {gsave} bind def
/sa {save} bind def
/rs {restore} bind def
/l {lineto} bind def
/m {moveto} bind def
/rm {rmoveto} bind def
/n {newpath} bind def
/s {stroke} bind def
/sh {show} bind def
/slc {setlinecap} bind def
/slj {setlinejoin} bind def
/slw {setlinewidth} bind def
/srgb {setrgbcolor} bind def
/rot {rotate} bind def
/sc {scale} bind def
/sd {setdash} bind def
/ff {findfont} bind def
/sf {setfont} bind def
/scf {scalefont} bind def
/sw {stringwidth pop} bind def
/tr {translate} bind def

/ellipsedict 8 dict def
ellipsedict /mtrx matrix put
/ellipse
{ ellipsedict begin
   /endangle exch def
   /startangle exch def
   /yrad exch def
   /xrad exch def
   /y exch def
   /x exch def   /savematrix mtrx currentmatrix def
   x y tr xrad yrad sc
   0 0 1 startangle endangle arc
   savematrix setmatrix
   end
} def

/mergeprocs {
dup length
3 -1 roll
dup
length
dup
5 1 roll
3 -1 roll
add
array cvx
dup
3 -1 roll
0 exch
putinterval
dup
4 2 roll
putinterval
} bind def
/dpi_x 300 def
/dpi_y 300 def
/conicto {
    /to_y exch def
    /to_x exch def
    /conic_cntrl_y exch def
    /conic_cntrl_x exch def
    currentpoint
    /p0_y exch def
    /p0_x exch def
    /p1_x p0_x conic_cntrl_x p0_x sub 2 3 div mul add def
    /p1_y p0_y conic_cntrl_y p0_y sub 2 3 div mul add def
    /p2_x p1_x to_x p0_x sub 1 3 div mul add def
    /p2_y p1_y to_y p0_y sub 1 3 div mul add def
    p1_x p1_y p2_x p2_y to_x to_y curveto
} bind def
/start_ol { gsave 1.1 dpi_x div dup scale} bind def
/end_ol { closepath fill grestore } bind def
28.346000 -28.346000 scale
-18.925000 -17.741722 translate
%%EndProlog


0.100000 slw
[] 0 sd
1.000000 1.000000 1.000000 srgb
n 21.750000 9.824999 2.775000 2.775000 0 360 ellipse f
0.062745 0.400000 0.623529 srgb
n 21.750000 9.824999 2.775000 2.775000 0 360 ellipse cp s
0.050000 slw
[] 0 sd
1.000000 1.000000 1.000000 srgb
n 22.850002 9.025003 0.712499 0.503464 0 360 ellipse f
0.062745 0.400000 0.623529 srgb
n 22.850002 9.025003 0.712499 0.503464 0 360 ellipse cp s
0.050000 slw
[] 0 sd
1.000000 1.000000 1.000000 srgb
n 20.925006 9.025003 0.712499 0.344366 0 360 ellipse f
0.062745 0.400000 0.623529 srgb
n 20.925006 9.025003 0.712499 0.344366 0 360 ellipse cp s
0.050000 slw
[] 0 sd
0 slj
0 slc
n 21.750000 9.824999 m 21.750000 9.824999 21.750000 9.824999 21.750000 9.824999 c s
0.050000 slw
[] 0 sd
0 slj
0 slc
n 21.007977 10.978032 m 21.502950 11.508360 22.441584 10.978032 22.740384 10.978032 c s
0.100000 slw
[] 0 sd
1.000000 1.000000 1.000000 srgb
n 26.341431 10.647577 2.775000 2.775000 0 360 ellipse f
1.000000 0.784314 0.211765 srgb
n 26.341431 10.647577 2.775000 2.775000 0 360 ellipse cp s
0.050000 slw
[] 0 sd
1.000000 1.000000 1.000000 srgb
n 27.441433 9.847580 0.712499 0.503464 0 360 ellipse f
1.000000 0.784314 0.211765 srgb
n 27.441433 9.847580 0.712499 0.503464 0 360 ellipse cp s
0.050000 slw
[] 0 sd
1.000000 1.000000 1.000000 srgb
n 25.516437 9.847580 0.712499 0.344366 0 360 ellipse f
1.000000 0.784314 0.211765 srgb
n 25.516437 9.847580 0.712499 0.344366 0 360 ellipse cp s
0.050000 slw
[] 0 sd
0 slj
0 slc
n 26.341431 10.647577 m 26.341431 10.647577 26.341431 10.647577 26.341431 10.647577 c s
0.050000 slw
[] 0 sd
0 slj
0 slc
n 25.599408 11.800609 m 26.094381 12.330938 27.033014 11.800609 27.331814 11.800609 c s
0.100000 slw
[] 0 sd
1.000000 1.000000 1.000000 srgb
n 23.528922 14.916722 2.775000 2.775000 0 360 ellipse f
0.000000 0.376471 0.000000 srgb
n 23.528922 14.916722 2.775000 2.775000 0 360 ellipse cp s
0.050000 slw
[] 0 sd
1.000000 1.000000 1.000000 srgb
n 24.628924 14.116725 0.712499 0.503464 0 360 ellipse f
0.000000 0.376471 0.000000 srgb
n 24.628924 14.116725 0.712499 0.503464 0 360 ellipse cp s
0.050000 slw
[] 0 sd
1.000000 1.000000 1.000000 srgb
n 22.703928 14.116725 0.712499 0.344366 0 360 ellipse f
0.000000 0.376471 0.000000 srgb
n 22.703928 14.116725 0.712499 0.344366 0 360 ellipse cp s
0.050000 slw
[] 0 sd
0 slj
0 slc
n 23.528922 14.916722 m 23.528922 14.916722 23.528922 14.916722 23.528922 14.916722 c s
0.050000 slw
[] 0 sd
0 slj
0 slc
n 22.786899 16.069754 m 23.281872 16.600082 24.220505 16.069754 24.519305 16.069754 c s
showpage
