%!PS-Adobe-2.0 EPSF-2.0
%%Title: /home/mercierm/Images/my-thesis-images/two-level-scheduler.dia
%%Creator: Dia v0.97.3
%%CreationDate: Mon Nov 14 14:40:28 2016
%%For: mercierm
%%Orientation: Portrait
%%Magnification: 1.0000
%%BoundingBox: 0 0 1734 458
%%BeginSetup
%%EndSetup
%%EndComments
%%BeginProlog
[ /.notdef /.notdef /.notdef /.notdef /.notdef /.notdef /.notdef /.notdef /.notdef /.notdef
/.notdef /.notdef /.notdef /.notdef /.notdef /.notdef /.notdef /.notdef /.notdef /.notdef
/.notdef /.notdef /.notdef /.notdef /.notdef /.notdef /.notdef /.notdef /.notdef /.notdef
/.notdef /.notdef /space /exclam /quotedbl /numbersign /dollar /percent /ampersand /quoteright
/parenleft /parenright /asterisk /plus /comma /hyphen /period /slash /zero /one
/two /three /four /five /six /seven /eight /nine /colon /semicolon
/less /equal /greater /question /at /A /B /C /D /E
/F /G /H /I /J /K /L /M /N /O
/P /Q /R /S /T /U /V /W /X /Y
/Z /bracketleft /backslash /bracketright /asciicircum /underscore /quoteleft /a /b /c
/d /e /f /g /h /i /j /k /l /m
/n /o /p /q /r /s /t /u /v /w
/x /y /z /braceleft /bar /braceright /asciitilde /.notdef /.notdef /.notdef
/.notdef /.notdef /.notdef /.notdef /.notdef /.notdef /.notdef /.notdef /.notdef /.notdef
/.notdef /.notdef /.notdef /.notdef /.notdef /.notdef /.notdef /.notdef /.notdef /.notdef
/.notdef /.notdef /.notdef /.notdef /.notdef /.notdef /.notdef /.notdef /.notdef /.notdef
/space /exclamdown /cent /sterling /currency /yen /brokenbar /section /dieresis /copyright
/ordfeminine /guillemotleft /logicalnot /hyphen /registered /macron /degree /plusminus /twosuperior /threesuperior
/acute /mu /paragraph /periodcentered /cedilla /onesuperior /ordmasculine /guillemotright /onequarter /onehalf
/threequarters /questiondown /Agrave /Aacute /Acircumflex /Atilde /Adieresis /Aring /AE /Ccedilla
/Egrave /Eacute /Ecircumflex /Edieresis /Igrave /Iacute /Icircumflex /Idieresis /Eth /Ntilde
/Ograve /Oacute /Ocircumflex /Otilde /Odieresis /multiply /Oslash /Ugrave /Uacute /Ucircumflex
/Udieresis /Yacute /Thorn /germandbls /agrave /aacute /acircumflex /atilde /adieresis /aring
/ae /ccedilla /egrave /eacute /ecircumflex /edieresis /igrave /iacute /icircumflex /idieresis
/eth /ntilde /ograve /oacute /ocircumflex /otilde /odieresis /divide /oslash /ugrave
/uacute /ucircumflex /udieresis /yacute /thorn /ydieresis] /isolatin1encoding exch def
/cp {closepath} bind def
/c {curveto} bind def
/f {fill} bind def
/a {arc} bind def
/ef {eofill} bind def
/ex {exch} bind def
/gr {grestore} bind def
/gs {gsave} bind def
/sa {save} bind def
/rs {restore} bind def
/l {lineto} bind def
/m {moveto} bind def
/rm {rmoveto} bind def
/n {newpath} bind def
/s {stroke} bind def
/sh {show} bind def
/slc {setlinecap} bind def
/slj {setlinejoin} bind def
/slw {setlinewidth} bind def
/srgb {setrgbcolor} bind def
/rot {rotate} bind def
/sc {scale} bind def
/sd {setdash} bind def
/ff {findfont} bind def
/sf {setfont} bind def
/scf {scalefont} bind def
/sw {stringwidth pop} bind def
/tr {translate} bind def

/ellipsedict 8 dict def
ellipsedict /mtrx matrix put
/ellipse
{ ellipsedict begin
   /endangle exch def
   /startangle exch def
   /yrad exch def
   /xrad exch def
   /y exch def
   /x exch def   /savematrix mtrx currentmatrix def
   x y tr xrad yrad sc
   0 0 1 startangle endangle arc
   savematrix setmatrix
   end
} def

/mergeprocs {
dup length
3 -1 roll
dup
length
dup
5 1 roll
3 -1 roll
add
array cvx
dup
3 -1 roll
0 exch
putinterval
dup
4 2 roll
putinterval
} bind def
/dpi_x 300 def
/dpi_y 300 def
/conicto {
    /to_y exch def
    /to_x exch def
    /conic_cntrl_y exch def
    /conic_cntrl_x exch def
    currentpoint
    /p0_y exch def
    /p0_x exch def
    /p1_x p0_x conic_cntrl_x p0_x sub 2 3 div mul add def
    /p1_y p0_y conic_cntrl_y p0_y sub 2 3 div mul add def
    /p2_x p1_x to_x p0_x sub 1 3 div mul add def
    /p2_y p1_y to_y p0_y sub 1 3 div mul add def
    p1_x p1_y p2_x p2_y to_x to_y curveto
} bind def
/start_ol { gsave 1.1 dpi_x div dup scale} bind def
/end_ol { closepath fill grestore } bind def
28.346000 -28.346000 scale
-12.925000 -20.075000 translate
%%EndProlog


0.150000 slw
[] 0 sd
[] 0 sd
1 slj
0.862745 0.945098 0.992157 srgb
n 13.700000 14.000000 m 13.700000 20.000000 l 28.240000 20.000000 l 28.240000 14.000000 l f
n 13.700000 14.700000 m 13.700000 14.700000 0.700000 0.700000 180.000000 270.000000 ellipse f
n 28.240000 14.700000 m 28.240000 14.700000 0.700000 0.700000 270.000000 360.000000 ellipse f
n 13.000000 14.700000 m 13.000000 19.300000 l 28.940000 19.300000 l 28.940000 14.700000 l f
n 13.700000 19.300000 m 13.700000 19.300000 0.700000 0.700000 90.000000 180.000000 ellipse f
n 28.240000 19.300000 m 28.240000 19.300000 0.700000 0.700000 0.000000 90.000000 ellipse f
0.321569 0.670588 0.854902 srgb
n 13.700000 14.000000 m 28.240000 14.000000 l s
n 13.700000 20.000000 m 28.240000 20.000000 l s
n 13.700000 14.700000 0.700000 0.700000 180.000000 270.000000 ellipse s
n 28.240000 14.700000 0.700000 0.700000 270.000000 360.000000 ellipse s
n 13.000000 14.700000 m 13.000000 19.300000 l s
n 28.940000 14.700000 m 28.940000 19.300000 l s
n 13.700000 19.300000 0.700000 0.700000 90.000000 180.000000 ellipse s
n 28.240000 19.300000 0.700000 0.700000 0.000000 90.000000 ellipse s
0.192157 0.564706 0.764706 srgb
gsave 18.525000 17.703700 translate 0.035278 -0.035278 scale
start_ol
5700 5278 moveto
6285 5129 6697 4715 conicto
7110 4301 7725 3062 conicto
9248 0 lineto
7620 0 lineto
6285 2830 lineto
5708 4038 5246 4387 conicto
4785 4736 4043 4736 conicto
2595 4736 lineto
2595 0 lineto
1073 0 lineto
1073 11200 lineto
4193 11200 lineto
6038 11200 7020 10366 conicto
8003 9532 8003 7953 conicto
8003 6841 7399 6138 conicto
6795 5436 5700 5278 conicto
2595 9984 moveto
2595 5952 lineto
4253 5952 lineto
5340 5952 5872 6446 conicto
6405 6941 6405 7960 conicto
6405 8942 5839 9463 conicto
5273 9984 4193 9984 conicto
2595 9984 lineto
end_ol grestore 
gsave 19.746358 17.703700 translate 0.035278 -0.035278 scale
start_ol
818 512 moveto
818 2304 lineto
1500 1664 2227 1344 conicto
2955 1024 3735 1024 conicto
4808 1024 5231 1593 conicto
5655 2163 5655 3714 conicto
5655 9920 lineto
2798 9920 lineto
2798 11200 lineto
7170 11200 lineto
7170 3714 lineto
7170 1579 6379 693 conicto
5588 -192 3735 -192 conicto
3015 -192 2302 -20 conicto
1590 152 818 512 conicto
end_ol grestore 
gsave 20.967716 17.703700 translate 0.035278 -0.035278 scale
start_ol
645 11200 moveto
2670 11200 lineto
4605 5481 lineto
6555 11200 lineto
8588 11200 lineto
8588 0 lineto
7185 0 lineto
7185 9891 lineto
5190 3968 lineto
4043 3968 lineto
2040 9891 lineto
2040 0 lineto
645 0 lineto
645 11200 lineto
end_ol grestore 
gsave 22.189074 17.703700 translate 0.035278 -0.035278 scale
start_ol
7590 10816 moveto
7590 9280 lineto
6900 9724 6206 9950 conicto
5513 10176 4808 10176 conicto
3735 10176 3112 9679 conicto
2490 9182 2490 8337 conicto
2490 7597 2899 7208 conicto
3308 6820 4425 6558 conicto
5220 6378 lineto
6795 6011 7515 5224 conicto
8235 4438 8235 3082 conicto
8235 1486 7245 647 conicto
6255 -192 4365 -192 conicto
3578 -192 2783 -16 conicto
1988 160 1185 512 conicto
1185 2112 lineto
2048 1549 2816 1286 conicto
3585 1024 4365 1024 conicto
5513 1024 6150 1539 conicto
6788 2055 6788 2981 conicto
6788 3825 6349 4269 conicto
5911 4713 4823 4954 conicto
4013 5140 lineto
2453 5491 1748 6199 conicto
1043 6908 1043 8102 conicto
1043 9594 2051 10493 conicto
3060 11392 4733 11392 conicto
5378 11392 6090 11248 conicto
6803 11104 7590 10816 conicto
end_ol grestore 
0.150000 slw
[] 0 sd
[] 0 sd
1 slj
0.862745 0.945098 0.992157 srgb
n 33.700000 14.000000 m 33.700000 19.775000 l 49.105000 19.775000 l 49.105000 14.000000 l f
n 33.700000 14.700000 m 33.700000 14.700000 0.700000 0.700000 180.000000 270.000000 ellipse f
n 49.105000 14.700000 m 49.105000 14.700000 0.700000 0.700000 270.000000 360.000000 ellipse f
n 33.000000 14.700000 m 33.000000 19.075000 l 49.805000 19.075000 l 49.805000 14.700000 l f
n 33.700000 19.075000 m 33.700000 19.075000 0.700000 0.700000 90.000000 180.000000 ellipse f
n 49.105000 19.075000 m 49.105000 19.075000 0.700000 0.700000 0.000000 90.000000 ellipse f
0.321569 0.670588 0.854902 srgb
n 33.700000 14.000000 m 49.105000 14.000000 l s
n 33.700000 19.775000 m 49.105000 19.775000 l s
n 33.700000 14.700000 0.700000 0.700000 180.000000 270.000000 ellipse s
n 49.105000 14.700000 0.700000 0.700000 270.000000 360.000000 ellipse s
n 33.000000 14.700000 m 33.000000 19.075000 l s
n 49.805000 14.700000 m 49.805000 19.075000 l s
n 33.700000 19.075000 0.700000 0.700000 90.000000 180.000000 ellipse s
n 49.105000 19.075000 0.700000 0.700000 0.000000 90.000000 ellipse s
0.192157 0.564706 0.764706 srgb
gsave 38.957500 17.591200 translate 0.035278 -0.035278 scale
start_ol
2768 5376 moveto
2768 1216 lineto
4560 1216 lineto
5880 1216 6442 1683 conicto
7005 2151 7005 3224 conicto
7005 4334 6412 4855 conicto
5820 5376 4560 5376 conicto
2768 5376 lineto
2768 9984 moveto
2768 6592 lineto
4530 6592 lineto
5625 6592 6116 7014 conicto
6608 7436 6608 8378 conicto
6608 9230 6124 9607 conicto
5640 9984 4530 9984 conicto
2768 9984 lineto
1245 11200 moveto
4560 11200 lineto
6278 11200 7208 10460 conicto
8138 9720 8138 8368 conicto
8138 7344 7647 6753 conicto
7156 6163 6173 6014 conicto
7276 5848 7902 5069 conicto
8528 4290 8528 3086 conicto
8528 1558 7530 779 conicto
6533 0 4560 0 conicto
1245 0 lineto
1245 11200 lineto
end_ol grestore 
gsave 40.178858 17.591200 translate 0.035278 -0.035278 scale
start_ol
3270 1216 moveto
5183 1216 5940 2164 conicto
6698 3112 6698 5589 conicto
6698 8088 5944 9036 conicto
5190 9984 3270 9984 conicto
2550 9984 lineto
2550 1216 lineto
3270 1216 lineto
3300 11200 moveto
5865 11200 7080 9834 conicto
8295 8469 8295 5589 conicto
8295 2723 7080 1361 conicto
5865 0 3300 0 conicto
1028 0 lineto
1028 11200 lineto
3300 11200 lineto
end_ol grestore 
gsave 41.400216 17.591200 translate 0.035278 -0.035278 scale
start_ol
4620 9870 moveto
3023 4160 lineto
6218 4160 lineto
4620 9870 lineto
3705 11200 moveto
5543 11200 lineto
8970 0 lineto
7403 0 lineto
6578 2944 lineto
2655 2944 lineto
1845 0 lineto
278 0 lineto
3705 11200 lineto
end_ol grestore 
gsave 42.621574 17.591200 translate 0.035278 -0.035278 scale
start_ol
1748 11200 moveto
8340 11200 lineto
8340 9920 lineto
3270 9920 lineto
3270 6592 lineto
7868 6592 lineto
7868 5312 lineto
3270 5312 lineto
3270 0 lineto
1748 0 lineto
1748 11200 lineto
end_ol grestore 
0.150000 slw
[] 0 sd
[] 0 sd
1 slj
0.862745 0.945098 0.992157 srgb
n 23.700000 4.000000 m 23.700000 10.000000 l 38.240000 10.000000 l 38.240000 4.000000 l f
n 23.700000 4.700000 m 23.700000 4.700000 0.700000 0.700000 180.000000 270.000000 ellipse f
n 38.240000 4.700000 m 38.240000 4.700000 0.700000 0.700000 270.000000 360.000000 ellipse f
n 23.000000 4.700000 m 23.000000 9.300000 l 38.940000 9.300000 l 38.940000 4.700000 l f
n 23.700000 9.300000 m 23.700000 9.300000 0.700000 0.700000 90.000000 180.000000 ellipse f
n 38.240000 9.300000 m 38.240000 9.300000 0.700000 0.700000 0.000000 90.000000 ellipse f
0.321569 0.670588 0.854902 srgb
n 23.700000 4.000000 m 38.240000 4.000000 l s
n 23.700000 10.000000 m 38.240000 10.000000 l s
n 23.700000 4.700000 0.700000 0.700000 180.000000 270.000000 ellipse s
n 38.240000 4.700000 0.700000 0.700000 270.000000 360.000000 ellipse s
n 23.000000 4.700000 m 23.000000 9.300000 l s
n 38.940000 4.700000 m 38.940000 9.300000 l s
n 23.700000 9.300000 0.700000 0.700000 90.000000 180.000000 ellipse s
n 38.240000 9.300000 0.700000 0.700000 0.000000 90.000000 ellipse s
0.192157 0.564706 0.764706 srgb
gsave 28.525000 6.433750 translate 0.035278 -0.035278 scale
start_ol
645 11200 moveto
2670 11200 lineto
4605 5481 lineto
6555 11200 lineto
8588 11200 lineto
8588 0 lineto
7185 0 lineto
7185 9891 lineto
5190 3968 lineto
4043 3968 lineto
2040 9891 lineto
2040 0 lineto
645 0 lineto
645 11200 lineto
end_ol grestore 
gsave 29.746358 6.433750 translate 0.035278 -0.035278 scale
start_ol
8340 4520 moveto
8340 3840 lineto
2363 3840 lineto
2363 3795 lineto
2363 2440 3079 1700 conicto
3796 960 5101 960 conicto
5761 960 6481 1166 conicto
7201 1372 8018 1792 conicto
8018 448 lineto
7231 128 6499 -32 conicto
5768 -192 5086 -192 conicto
3128 -192 2025 975 conicto
923 2142 923 4192 conicto
923 6190 2003 7383 conicto
3083 8576 4883 8576 conicto
6488 8576 7414 7489 conicto
8340 6402 8340 4520 conicto
6960 4928 moveto
6930 6150 6386 6787 conicto
5843 7424 4823 7424 conicto
3825 7424 3180 6760 conicto
2535 6097 2415 4921 conicto
6960 4928 lineto
end_ol grestore 
gsave 30.967716 6.433750 translate 0.035278 -0.035278 scale
start_ol
4605 10752 moveto
4605 8384 lineto
7740 8384 lineto
7740 7296 lineto
4605 7296 lineto
4605 2748 lineto
4605 1821 4957 1454 conicto
5310 1088 6188 1088 conicto
7740 1088 lineto
7740 0 lineto
6053 0 lineto
4500 0 3862 618 conicto
3225 1236 3225 2748 conicto
3225 7296 lineto
983 7296 lineto
983 8384 lineto
3225 8384 lineto
3225 10752 lineto
4605 10752 lineto
end_ol grestore 
gsave 32.189074 6.433750 translate 0.035278 -0.035278 scale
start_ol
5265 4224 moveto
4808 4224 lineto
3601 4224 2989 3803 conicto
2378 3382 2378 2547 conicto
2378 1795 2835 1377 conicto
3293 960 4103 960 conicto
5243 960 5895 1746 conicto
6547 2532 6555 3918 conicto
6555 4224 lineto
5265 4224 lineto
7943 4798 moveto
7943 0 lineto
6555 0 lineto
6555 1266 lineto
6113 518 5441 163 conicto
4770 -192 3810 -192 conicto
2528 -192 1763 529 conicto
998 1251 998 2463 conicto
998 3861 1939 4586 conicto
2881 5312 4703 5312 conicto
6555 5312 lineto
6555 5531 lineto
6547 6526 6045 6975 conicto
5543 7424 4440 7424 conicto
3735 7424 3015 7228 conicto
2295 7033 1613 6656 conicto
1613 8064 lineto
2378 8320 3079 8448 conicto
3781 8576 4441 8576 conicto
5483 8576 6222 8271 conicto
6961 7966 7418 7356 conicto
7703 6984 7823 6437 conicto
7943 5891 7943 4798 conicto
end_ol grestore 
gsave 25.468750 8.973750 translate 0.035278 -0.035278 scale
start_ol
7590 10816 moveto
7590 9280 lineto
6900 9724 6206 9950 conicto
5513 10176 4808 10176 conicto
3735 10176 3112 9679 conicto
2490 9182 2490 8337 conicto
2490 7597 2899 7208 conicto
3308 6820 4425 6558 conicto
5220 6378 lineto
6795 6011 7515 5224 conicto
8235 4438 8235 3082 conicto
8235 1486 7245 647 conicto
6255 -192 4365 -192 conicto
3578 -192 2783 -16 conicto
1988 160 1185 512 conicto
1185 2112 lineto
2048 1549 2816 1286 conicto
3585 1024 4365 1024 conicto
5513 1024 6150 1539 conicto
6788 2055 6788 2981 conicto
6788 3825 6349 4269 conicto
5911 4713 4823 4954 conicto
4013 5140 lineto
2453 5491 1748 6199 conicto
1043 6908 1043 8102 conicto
1043 9594 2051 10493 conicto
3060 11392 4733 11392 conicto
5378 11392 6090 11248 conicto
6803 11104 7590 10816 conicto
end_ol grestore 
gsave 26.690108 8.973750 translate 0.035278 -0.035278 scale
start_ol
7958 448 moveto
7403 128 6814 -32 conicto
6226 -192 5611 -192 conicto
3661 -192 2562 971 conicto
1463 2134 1463 4192 conicto
1463 6250 2562 7413 conicto
3661 8576 5611 8576 conicto
6218 8576 6795 8435 conicto
7373 8295 7958 8000 conicto
7958 6528 lineto
7411 7001 6859 7212 conicto
6308 7424 5611 7424 conicto
4313 7424 3615 6586 conicto
2918 5748 2918 4192 conicto
2918 2643 3619 1801 conicto
4321 960 5611 960 conicto
6331 960 6901 1178 conicto
7471 1397 7958 1856 conicto
7958 448 lineto
end_ol grestore 
gsave 27.911466 8.973750 translate 0.035278 -0.035278 scale
start_ol
7883 5175 moveto
7883 0 lineto
6495 0 lineto
6495 5175 lineto
6495 6301 6097 6830 conicto
5700 7360 4853 7360 conicto
3885 7360 3364 6677 conicto
2843 5995 2843 4720 conicto
2843 0 lineto
1463 0 lineto
1463 11648 lineto
2843 11648 lineto
2843 7099 lineto
3211 7826 3841 8201 conicto
4471 8576 5333 8576 conicto
6616 8576 7249 7731 conicto
7883 6887 7883 5175 conicto
end_ol grestore 
gsave 29.132824 8.973750 translate 0.035278 -0.035278 scale
start_ol
8340 4520 moveto
8340 3840 lineto
2363 3840 lineto
2363 3795 lineto
2363 2440 3079 1700 conicto
3796 960 5101 960 conicto
5761 960 6481 1166 conicto
7201 1372 8018 1792 conicto
8018 448 lineto
7231 128 6499 -32 conicto
5768 -192 5086 -192 conicto
3128 -192 2025 975 conicto
923 2142 923 4192 conicto
923 6190 2003 7383 conicto
3083 8576 4883 8576 conicto
6488 8576 7414 7489 conicto
8340 6402 8340 4520 conicto
6960 4928 moveto
6930 6150 6386 6787 conicto
5843 7424 4823 7424 conicto
3825 7424 3180 6760 conicto
2535 6097 2415 4921 conicto
6960 4928 lineto
end_ol grestore 
gsave 30.354182 8.973750 translate 0.035278 -0.035278 scale
start_ol
6435 7319 moveto
6435 11648 lineto
7815 11648 lineto
7815 0 lineto
6435 0 lineto
6435 1065 lineto
6090 451 5516 129 conicto
4943 -192 4193 -192 conicto
2670 -192 1796 982 conicto
923 2157 923 4222 conicto
923 6257 1800 7416 conicto
2678 8576 4193 8576 conicto
4950 8576 5527 8254 conicto
6105 7933 6435 7319 conicto
2378 4192 moveto
2378 2591 2888 1775 conicto
3398 960 4395 960 conicto
5393 960 5914 1783 conicto
6435 2606 6435 4192 conicto
6435 5786 5914 6605 conicto
5393 7424 4395 7424 conicto
3398 7424 2888 6608 conicto
2378 5793 2378 4192 conicto
end_ol grestore 
gsave 31.575540 8.973750 translate 0.035278 -0.035278 scale
start_ol
1463 3209 moveto
1463 8384 lineto
2843 8384 lineto
2843 3209 lineto
2843 2083 3244 1553 conicto
3645 1024 4485 1024 conicto
5460 1024 5977 1706 conicto
6495 2389 6495 3664 conicto
6495 8384 lineto
7883 8384 lineto
7883 0 lineto
6495 0 lineto
6495 1300 lineto
6128 565 5494 186 conicto
4860 -192 4013 -192 conicto
2723 -192 2093 652 conicto
1463 1497 1463 3209 conicto
end_ol grestore 
gsave 32.796898 8.973750 translate 0.035278 -0.035278 scale
start_ol
4793 2957 moveto
4793 2030 5134 1559 conicto
5476 1088 6143 1088 conicto
7755 1088 lineto
7755 0 lineto
6008 0 lineto
4771 0 4092 772 conicto
3413 1544 3413 2957 conicto
3413 10560 lineto
1200 10560 lineto
1200 11648 lineto
4793 11648 lineto
4793 2957 lineto
end_ol grestore 
gsave 34.018256 8.973750 translate 0.035278 -0.035278 scale
start_ol
8340 4520 moveto
8340 3840 lineto
2363 3840 lineto
2363 3795 lineto
2363 2440 3079 1700 conicto
3796 960 5101 960 conicto
5761 960 6481 1166 conicto
7201 1372 8018 1792 conicto
8018 448 lineto
7231 128 6499 -32 conicto
5768 -192 5086 -192 conicto
3128 -192 2025 975 conicto
923 2142 923 4192 conicto
923 6190 2003 7383 conicto
3083 8576 4883 8576 conicto
6488 8576 7414 7489 conicto
8340 6402 8340 4520 conicto
6960 4928 moveto
6930 6150 6386 6787 conicto
5843 7424 4823 7424 conicto
3825 7424 3180 6760 conicto
2535 6097 2415 4921 conicto
6960 4928 lineto
end_ol grestore 
gsave 35.239614 8.973750 translate 0.035278 -0.035278 scale
start_ol
8663 6656 moveto
8221 6991 7763 7143 conicto
7306 7296 6758 7296 conicto
5468 7296 4785 6492 conicto
4103 5688 4103 4170 conicto
4103 0 lineto
2715 0 lineto
2715 8384 lineto
4103 8384 lineto
4103 6743 lineto
4448 7630 5164 8103 conicto
5881 8576 6863 8576 conicto
7373 8576 7815 8451 conicto
8258 8327 8663 8064 conicto
8663 6656 lineto
end_ol grestore 
0.150000 slw
[] 0 sd
[] 0 sd
0 slc
n 34.212327 10.072946 m 38.276698 13.924992 l s
0.150000 slw
[] 0 sd
[] 0 sd
0 slc
n 27.894744 10.075256 m 24.045256 13.924744 l s
0.150000 slw
[] 0 sd
[] 0 sd
1 slj
0.862745 0.945098 0.992157 srgb
n 56.310900 14.000000 m 56.310900 19.775000 l 71.715900 19.775000 l 71.715900 14.000000 l f
n 56.310900 14.700000 m 56.310900 14.700000 0.700000 0.700000 180.000000 270.000000 ellipse f
n 71.715900 14.700000 m 71.715900 14.700000 0.700000 0.700000 270.000000 360.000000 ellipse f
n 55.610900 14.700000 m 55.610900 19.075000 l 72.415900 19.075000 l 72.415900 14.700000 l f
n 56.310900 19.075000 m 56.310900 19.075000 0.700000 0.700000 90.000000 180.000000 ellipse f
n 71.715900 19.075000 m 71.715900 19.075000 0.700000 0.700000 0.000000 90.000000 ellipse f
0.321569 0.670588 0.854902 srgb
n 56.310900 14.000000 m 71.715900 14.000000 l s
n 56.310900 19.775000 m 71.715900 19.775000 l s
n 56.310900 14.700000 0.700000 0.700000 180.000000 270.000000 ellipse s
n 71.715900 14.700000 0.700000 0.700000 270.000000 360.000000 ellipse s
n 55.610900 14.700000 m 55.610900 19.075000 l s
n 72.415900 14.700000 m 72.415900 19.075000 l s
n 56.310900 19.075000 0.700000 0.700000 90.000000 180.000000 ellipse s
n 71.715900 19.075000 0.700000 0.700000 0.000000 90.000000 ellipse s
0.192157 0.564706 0.764706 srgb
gsave 61.568400 17.591200 translate 0.035278 -0.035278 scale
start_ol
2768 5376 moveto
2768 1216 lineto
4560 1216 lineto
5880 1216 6442 1683 conicto
7005 2151 7005 3224 conicto
7005 4334 6412 4855 conicto
5820 5376 4560 5376 conicto
2768 5376 lineto
2768 9984 moveto
2768 6592 lineto
4530 6592 lineto
5625 6592 6116 7014 conicto
6608 7436 6608 8378 conicto
6608 9230 6124 9607 conicto
5640 9984 4530 9984 conicto
2768 9984 lineto
1245 11200 moveto
4560 11200 lineto
6278 11200 7208 10460 conicto
8138 9720 8138 8368 conicto
8138 7344 7647 6753 conicto
7156 6163 6173 6014 conicto
7276 5848 7902 5069 conicto
8528 4290 8528 3086 conicto
8528 1558 7530 779 conicto
6533 0 4560 0 conicto
1245 0 lineto
1245 11200 lineto
end_ol grestore 
gsave 62.789758 17.591200 translate 0.035278 -0.035278 scale
start_ol
3270 1216 moveto
5183 1216 5940 2164 conicto
6698 3112 6698 5589 conicto
6698 8088 5944 9036 conicto
5190 9984 3270 9984 conicto
2550 9984 lineto
2550 1216 lineto
3270 1216 lineto
3300 11200 moveto
5865 11200 7080 9834 conicto
8295 8469 8295 5589 conicto
8295 2723 7080 1361 conicto
5865 0 3300 0 conicto
1028 0 lineto
1028 11200 lineto
3300 11200 lineto
end_ol grestore 
gsave 64.011116 17.591200 translate 0.035278 -0.035278 scale
start_ol
4620 9870 moveto
3023 4160 lineto
6218 4160 lineto
4620 9870 lineto
3705 11200 moveto
5543 11200 lineto
8970 0 lineto
7403 0 lineto
6578 2944 lineto
2655 2944 lineto
1845 0 lineto
278 0 lineto
3705 11200 lineto
end_ol grestore 
gsave 65.232474 17.591200 translate 0.035278 -0.035278 scale
start_ol
1748 11200 moveto
8340 11200 lineto
8340 9920 lineto
3270 9920 lineto
3270 6592 lineto
7868 6592 lineto
7868 5312 lineto
3270 5312 lineto
3270 0 lineto
1748 0 lineto
1748 11200 lineto
end_ol grestore 
0.150000 slw
[] 0 sd
[] 0 sd
0 slc
n 64.000000 10.000000 m 64.013400 14.000000 l s
0.150000 slw
[] 0 sd
[] 0 sd
1 slj
0.862745 0.945098 0.992157 srgb
n 54.700000 4.000000 m 54.700000 10.000000 l 73.300000 10.000000 l 73.300000 4.000000 l f
n 54.700000 4.700000 m 54.700000 4.700000 0.700000 0.700000 180.000000 270.000000 ellipse f
n 73.300000 4.700000 m 73.300000 4.700000 0.700000 0.700000 270.000000 360.000000 ellipse f
n 54.000000 4.700000 m 54.000000 9.300000 l 74.000000 9.300000 l 74.000000 4.700000 l f
n 54.700000 9.300000 m 54.700000 9.300000 0.700000 0.700000 90.000000 180.000000 ellipse f
n 73.300000 9.300000 m 73.300000 9.300000 0.700000 0.700000 0.000000 90.000000 ellipse f
0.321569 0.670588 0.854902 srgb
n 54.700000 4.000000 m 73.300000 4.000000 l s
n 54.700000 10.000000 m 73.300000 10.000000 l s
n 54.700000 4.700000 0.700000 0.700000 180.000000 270.000000 ellipse s
n 73.300000 4.700000 0.700000 0.700000 270.000000 360.000000 ellipse s
n 54.000000 4.700000 m 54.000000 9.300000 l s
n 74.000000 4.700000 m 74.000000 9.300000 l s
n 54.700000 9.300000 0.700000 0.700000 90.000000 180.000000 ellipse s
n 73.300000 9.300000 0.700000 0.700000 0.000000 90.000000 ellipse s
0.192157 0.564706 0.764706 srgb
gsave 59.721250 6.404160 translate 0.035278 -0.035278 scale
start_ol
5700 5278 moveto
6285 5129 6697 4715 conicto
7110 4301 7725 3062 conicto
9248 0 lineto
7620 0 lineto
6285 2830 lineto
5708 4038 5246 4387 conicto
4785 4736 4043 4736 conicto
2595 4736 lineto
2595 0 lineto
1073 0 lineto
1073 11200 lineto
4193 11200 lineto
6038 11200 7020 10366 conicto
8003 9532 8003 7953 conicto
8003 6841 7399 6138 conicto
6795 5436 5700 5278 conicto
2595 9984 moveto
2595 5952 lineto
4253 5952 lineto
5340 5952 5872 6446 conicto
6405 6941 6405 7960 conicto
6405 8942 5839 9463 conicto
5273 9984 4193 9984 conicto
2595 9984 lineto
end_ol grestore 
gsave 60.942608 6.404160 translate 0.035278 -0.035278 scale
start_ol
818 512 moveto
818 2304 lineto
1500 1664 2227 1344 conicto
2955 1024 3735 1024 conicto
4808 1024 5231 1593 conicto
5655 2163 5655 3714 conicto
5655 9920 lineto
2798 9920 lineto
2798 11200 lineto
7170 11200 lineto
7170 3714 lineto
7170 1579 6379 693 conicto
5588 -192 3735 -192 conicto
3015 -192 2302 -20 conicto
1590 152 818 512 conicto
end_ol grestore 
gsave 62.163966 6.404160 translate 0.035278 -0.035278 scale
start_ol
645 11200 moveto
2670 11200 lineto
4605 5481 lineto
6555 11200 lineto
8588 11200 lineto
8588 0 lineto
7185 0 lineto
7185 9891 lineto
5190 3968 lineto
4043 3968 lineto
2040 9891 lineto
2040 0 lineto
645 0 lineto
645 11200 lineto
end_ol grestore 
gsave 63.385324 6.404160 translate 0.035278 -0.035278 scale
start_ol
7590 10816 moveto
7590 9280 lineto
6900 9724 6206 9950 conicto
5513 10176 4808 10176 conicto
3735 10176 3112 9679 conicto
2490 9182 2490 8337 conicto
2490 7597 2899 7208 conicto
3308 6820 4425 6558 conicto
5220 6378 lineto
6795 6011 7515 5224 conicto
8235 4438 8235 3082 conicto
8235 1486 7245 647 conicto
6255 -192 4365 -192 conicto
3578 -192 2783 -16 conicto
1988 160 1185 512 conicto
1185 2112 lineto
2048 1549 2816 1286 conicto
3585 1024 4365 1024 conicto
5513 1024 6150 1539 conicto
6788 2055 6788 2981 conicto
6788 3825 6349 4269 conicto
5911 4713 4823 4954 conicto
4013 5140 lineto
2453 5491 1748 6199 conicto
1043 6908 1043 8102 conicto
1043 9594 2051 10493 conicto
3060 11392 4733 11392 conicto
5378 11392 6090 11248 conicto
6803 11104 7590 10816 conicto
end_ol grestore 
gsave 64.606682 6.404160 translate 0.035278 -0.035278 scale
start_ol
end_ol grestore 
gsave 65.828040 6.404160 translate 0.035278 -0.035278 scale
start_ol
5265 4224 moveto
4808 4224 lineto
3601 4224 2989 3803 conicto
2378 3382 2378 2547 conicto
2378 1795 2835 1377 conicto
3293 960 4103 960 conicto
5243 960 5895 1746 conicto
6547 2532 6555 3918 conicto
6555 4224 lineto
5265 4224 lineto
7943 4798 moveto
7943 0 lineto
6555 0 lineto
6555 1266 lineto
6113 518 5441 163 conicto
4770 -192 3810 -192 conicto
2528 -192 1763 529 conicto
998 1251 998 2463 conicto
998 3861 1939 4586 conicto
2881 5312 4703 5312 conicto
6555 5312 lineto
6555 5531 lineto
6547 6526 6045 6975 conicto
5543 7424 4440 7424 conicto
3735 7424 3015 7228 conicto
2295 7033 1613 6656 conicto
1613 8064 lineto
2378 8320 3079 8448 conicto
3781 8576 4441 8576 conicto
5483 8576 6222 8271 conicto
6961 7966 7418 7356 conicto
7703 6984 7823 6437 conicto
7943 5891 7943 4798 conicto
end_ol grestore 
gsave 67.049398 6.404160 translate 0.035278 -0.035278 scale
start_ol
7298 8064 moveto
7298 6720 lineto
6706 7072 6106 7248 conicto
5506 7424 4883 7424 conicto
3946 7424 3484 7120 conicto
3023 6816 3023 6194 conicto
3023 5631 3368 5353 conicto
3713 5076 5085 4813 conicto
5640 4708 lineto
6668 4515 7196 3936 conicto
7725 3357 7725 2429 conicto
7725 1196 6840 502 conicto
5955 -192 4380 -192 conicto
3758 -192 3075 -64 conicto
2393 64 1598 320 conicto
1598 1728 lineto
2370 1344 3075 1152 conicto
3780 960 4410 960 conicto
5325 960 5827 1326 conicto
6330 1692 6330 2350 conicto
6330 3296 4493 3658 conicto
4433 3673 lineto
3915 3777 lineto
2723 4009 2175 4559 conicto
1628 5110 1628 6060 conicto
1628 7266 2445 7921 conicto
3263 8576 4778 8576 conicto
5453 8576 6075 8448 conicto
6698 8320 7298 8064 conicto
end_ol grestore 
gsave 55.442500 8.944160 translate 0.035278 -0.035278 scale
start_ol
645 11200 moveto
2670 11200 lineto
4605 5481 lineto
6555 11200 lineto
8588 11200 lineto
8588 0 lineto
7185 0 lineto
7185 9891 lineto
5190 3968 lineto
4043 3968 lineto
2040 9891 lineto
2040 0 lineto
645 0 lineto
645 11200 lineto
end_ol grestore 
gsave 56.663858 8.944160 translate 0.035278 -0.035278 scale
start_ol
8340 4520 moveto
8340 3840 lineto
2363 3840 lineto
2363 3795 lineto
2363 2440 3079 1700 conicto
3796 960 5101 960 conicto
5761 960 6481 1166 conicto
7201 1372 8018 1792 conicto
8018 448 lineto
7231 128 6499 -32 conicto
5768 -192 5086 -192 conicto
3128 -192 2025 975 conicto
923 2142 923 4192 conicto
923 6190 2003 7383 conicto
3083 8576 4883 8576 conicto
6488 8576 7414 7489 conicto
8340 6402 8340 4520 conicto
6960 4928 moveto
6930 6150 6386 6787 conicto
5843 7424 4823 7424 conicto
3825 7424 3180 6760 conicto
2535 6097 2415 4921 conicto
6960 4928 lineto
end_ol grestore 
gsave 57.885216 8.944160 translate 0.035278 -0.035278 scale
start_ol
4605 10752 moveto
4605 8384 lineto
7740 8384 lineto
7740 7296 lineto
4605 7296 lineto
4605 2748 lineto
4605 1821 4957 1454 conicto
5310 1088 6188 1088 conicto
7740 1088 lineto
7740 0 lineto
6053 0 lineto
4500 0 3862 618 conicto
3225 1236 3225 2748 conicto
3225 7296 lineto
983 7296 lineto
983 8384 lineto
3225 8384 lineto
3225 10752 lineto
4605 10752 lineto
end_ol grestore 
gsave 59.106574 8.944160 translate 0.035278 -0.035278 scale
start_ol
5265 4224 moveto
4808 4224 lineto
3601 4224 2989 3803 conicto
2378 3382 2378 2547 conicto
2378 1795 2835 1377 conicto
3293 960 4103 960 conicto
5243 960 5895 1746 conicto
6547 2532 6555 3918 conicto
6555 4224 lineto
5265 4224 lineto
7943 4798 moveto
7943 0 lineto
6555 0 lineto
6555 1266 lineto
6113 518 5441 163 conicto
4770 -192 3810 -192 conicto
2528 -192 1763 529 conicto
998 1251 998 2463 conicto
998 3861 1939 4586 conicto
2881 5312 4703 5312 conicto
6555 5312 lineto
6555 5531 lineto
6547 6526 6045 6975 conicto
5543 7424 4440 7424 conicto
3735 7424 3015 7228 conicto
2295 7033 1613 6656 conicto
1613 8064 lineto
2378 8320 3079 8448 conicto
3781 8576 4441 8576 conicto
5483 8576 6222 8271 conicto
6961 7966 7418 7356 conicto
7703 6984 7823 6437 conicto
7943 5891 7943 4798 conicto
end_ol grestore 
gsave 60.327932 8.944160 translate 0.035278 -0.035278 scale
start_ol
end_ol grestore 
gsave 61.549290 8.944160 translate 0.035278 -0.035278 scale
start_ol
7590 10816 moveto
7590 9280 lineto
6900 9724 6206 9950 conicto
5513 10176 4808 10176 conicto
3735 10176 3112 9679 conicto
2490 9182 2490 8337 conicto
2490 7597 2899 7208 conicto
3308 6820 4425 6558 conicto
5220 6378 lineto
6795 6011 7515 5224 conicto
8235 4438 8235 3082 conicto
8235 1486 7245 647 conicto
6255 -192 4365 -192 conicto
3578 -192 2783 -16 conicto
1988 160 1185 512 conicto
1185 2112 lineto
2048 1549 2816 1286 conicto
3585 1024 4365 1024 conicto
5513 1024 6150 1539 conicto
6788 2055 6788 2981 conicto
6788 3825 6349 4269 conicto
5911 4713 4823 4954 conicto
4013 5140 lineto
2453 5491 1748 6199 conicto
1043 6908 1043 8102 conicto
1043 9594 2051 10493 conicto
3060 11392 4733 11392 conicto
5378 11392 6090 11248 conicto
6803 11104 7590 10816 conicto
end_ol grestore 
gsave 62.770648 8.944160 translate 0.035278 -0.035278 scale
start_ol
7958 448 moveto
7403 128 6814 -32 conicto
6226 -192 5611 -192 conicto
3661 -192 2562 971 conicto
1463 2134 1463 4192 conicto
1463 6250 2562 7413 conicto
3661 8576 5611 8576 conicto
6218 8576 6795 8435 conicto
7373 8295 7958 8000 conicto
7958 6528 lineto
7411 7001 6859 7212 conicto
6308 7424 5611 7424 conicto
4313 7424 3615 6586 conicto
2918 5748 2918 4192 conicto
2918 2643 3619 1801 conicto
4321 960 5611 960 conicto
6331 960 6901 1178 conicto
7471 1397 7958 1856 conicto
7958 448 lineto
end_ol grestore 
gsave 63.992006 8.944160 translate 0.035278 -0.035278 scale
start_ol
7883 5175 moveto
7883 0 lineto
6495 0 lineto
6495 5175 lineto
6495 6301 6097 6830 conicto
5700 7360 4853 7360 conicto
3885 7360 3364 6677 conicto
2843 5995 2843 4720 conicto
2843 0 lineto
1463 0 lineto
1463 11648 lineto
2843 11648 lineto
2843 7099 lineto
3211 7826 3841 8201 conicto
4471 8576 5333 8576 conicto
6616 8576 7249 7731 conicto
7883 6887 7883 5175 conicto
end_ol grestore 
gsave 65.213364 8.944160 translate 0.035278 -0.035278 scale
start_ol
8340 4520 moveto
8340 3840 lineto
2363 3840 lineto
2363 3795 lineto
2363 2440 3079 1700 conicto
3796 960 5101 960 conicto
5761 960 6481 1166 conicto
7201 1372 8018 1792 conicto
8018 448 lineto
7231 128 6499 -32 conicto
5768 -192 5086 -192 conicto
3128 -192 2025 975 conicto
923 2142 923 4192 conicto
923 6190 2003 7383 conicto
3083 8576 4883 8576 conicto
6488 8576 7414 7489 conicto
8340 6402 8340 4520 conicto
6960 4928 moveto
6930 6150 6386 6787 conicto
5843 7424 4823 7424 conicto
3825 7424 3180 6760 conicto
2535 6097 2415 4921 conicto
6960 4928 lineto
end_ol grestore 
gsave 66.434722 8.944160 translate 0.035278 -0.035278 scale
start_ol
6435 7319 moveto
6435 11648 lineto
7815 11648 lineto
7815 0 lineto
6435 0 lineto
6435 1065 lineto
6090 451 5516 129 conicto
4943 -192 4193 -192 conicto
2670 -192 1796 982 conicto
923 2157 923 4222 conicto
923 6257 1800 7416 conicto
2678 8576 4193 8576 conicto
4950 8576 5527 8254 conicto
6105 7933 6435 7319 conicto
2378 4192 moveto
2378 2591 2888 1775 conicto
3398 960 4395 960 conicto
5393 960 5914 1783 conicto
6435 2606 6435 4192 conicto
6435 5786 5914 6605 conicto
5393 7424 4395 7424 conicto
3398 7424 2888 6608 conicto
2378 5793 2378 4192 conicto
end_ol grestore 
gsave 67.656080 8.944160 translate 0.035278 -0.035278 scale
start_ol
1463 3209 moveto
1463 8384 lineto
2843 8384 lineto
2843 3209 lineto
2843 2083 3244 1553 conicto
3645 1024 4485 1024 conicto
5460 1024 5977 1706 conicto
6495 2389 6495 3664 conicto
6495 8384 lineto
7883 8384 lineto
7883 0 lineto
6495 0 lineto
6495 1300 lineto
6128 565 5494 186 conicto
4860 -192 4013 -192 conicto
2723 -192 2093 652 conicto
1463 1497 1463 3209 conicto
end_ol grestore 
gsave 68.877438 8.944160 translate 0.035278 -0.035278 scale
start_ol
4793 2957 moveto
4793 2030 5134 1559 conicto
5476 1088 6143 1088 conicto
7755 1088 lineto
7755 0 lineto
6008 0 lineto
4771 0 4092 772 conicto
3413 1544 3413 2957 conicto
3413 10560 lineto
1200 10560 lineto
1200 11648 lineto
4793 11648 lineto
4793 2957 lineto
end_ol grestore 
gsave 70.098796 8.944160 translate 0.035278 -0.035278 scale
start_ol
8340 4520 moveto
8340 3840 lineto
2363 3840 lineto
2363 3795 lineto
2363 2440 3079 1700 conicto
3796 960 5101 960 conicto
5761 960 6481 1166 conicto
7201 1372 8018 1792 conicto
8018 448 lineto
7231 128 6499 -32 conicto
5768 -192 5086 -192 conicto
3128 -192 2025 975 conicto
923 2142 923 4192 conicto
923 6190 2003 7383 conicto
3083 8576 4883 8576 conicto
6488 8576 7414 7489 conicto
8340 6402 8340 4520 conicto
6960 4928 moveto
6930 6150 6386 6787 conicto
5843 7424 4823 7424 conicto
3825 7424 3180 6760 conicto
2535 6097 2415 4921 conicto
6960 4928 lineto
end_ol grestore 
gsave 71.320154 8.944160 translate 0.035278 -0.035278 scale
start_ol
8663 6656 moveto
8221 6991 7763 7143 conicto
7306 7296 6758 7296 conicto
5468 7296 4785 6492 conicto
4103 5688 4103 4170 conicto
4103 0 lineto
2715 0 lineto
2715 8384 lineto
4103 8384 lineto
4103 6743 lineto
4448 7630 5164 8103 conicto
5881 8576 6863 8576 conicto
7373 8576 7815 8451 conicto
8258 8327 8663 8064 conicto
8663 6656 lineto
end_ol grestore 
showpage
