batsim_id,spark_app_id
workload_bigdata_seed3_jobs25#0,application_1499844549859_0001
workload_bigdata_seed3_jobs25#1,application_1499844549859_0002
workload_bigdata_seed3_jobs25#2,application_1499844549859_0003
workload_bigdata_seed3_jobs25#4,application_1499844549859_0005
workload_bigdata_seed3_jobs25#3,application_1499844549859_0004
workload_bigdata_seed3_jobs25#5,application_1499844549859_0006
workload_bigdata_seed3_jobs25#8,application_1499844549859_0009
workload_bigdata_seed3_jobs25#6,application_1499844549859_0007
workload_bigdata_seed3_jobs25#11,application_1499844549859_0012
workload_bigdata_seed3_jobs25#10,application_1499844549859_0011
workload_bigdata_seed3_jobs25#7,application_1499844549859_0008
workload_bigdata_seed3_jobs25#9,application_1499844549859_0010
workload_bigdata_seed3_jobs25#12,application_1499844549859_0013
workload_bigdata_seed3_jobs25#13,application_1499844549859_0014
workload_bigdata_seed3_jobs25#14,application_1499844549859_0015
workload_bigdata_seed3_jobs25#15,application_1499844549859_0016
workload_bigdata_seed3_jobs25#16,application_1499844549859_0017
workload_bigdata_seed3_jobs25#17,application_1499844549859_0018
workload_bigdata_seed3_jobs25#19,application_1499844549859_0019
