2017-07-01 03:43:22,556 -    INFO - Start the replay for workload: workload_bigdata_seed2_jobs25
2017-07-01 03:44:13,481 -    INFO - /opt/spark/bin/spark-submit --master yarn --deploy-mode client --num-executors 16 --class cn.ac.ict.bigdatabench.KMeans /opt/BigDataBench_V3.2.5_Spark/JAR_FILE/bigdatabench-spark_1.3.0-hadoop_1.0.4.jar /user/mmercier/data-SNS-Kmeans-128 4 3
2017-07-01 03:44:13,485 -    INFO - Started Spark submit process for job:workload_bigdata_seed2_jobs25#0
2017-07-01 03:44:25,258 -    INFO - Application id: application_1498842842526_0040
2017-07-01 03:44:48,305 -    INFO - /opt/spark/bin/spark-submit --master yarn --deploy-mode client --num-executors 8 --class cn.ac.ict.bigdatabench.KMeans /opt/BigDataBench_V3.2.5_Spark/JAR_FILE/bigdatabench-spark_1.3.0-hadoop_1.0.4.jar /user/mmercier/data-SNS-Kmeans-64 4 3
2017-07-01 03:44:48,311 -    INFO - Started Spark submit process for job:workload_bigdata_seed2_jobs25#1
2017-07-01 03:45:00,039 -    INFO - Application id: application_1498842842526_0041
2017-07-01 03:45:44,456 -    INFO - /opt/spark/bin/spark-submit --master yarn --deploy-mode client --num-executors 8 --class cn.ac.ict.bigdatabench.WordCount /opt/BigDataBench_V3.2.5_Spark/JAR_FILE/bigdatabench-spark_1.3.0-hadoop_1.0.4.jar /user/mmercier/data-MicroBenchmarks-64 resultworkload_bigdata_seed2_jobs25#2
2017-07-01 03:45:44,462 -    INFO - Started Spark submit process for job:workload_bigdata_seed2_jobs25#2
2017-07-01 03:45:56,447 -    INFO - Application id: application_1498842842526_0042
2017-07-01 03:46:19,162 -    INFO - /opt/spark/bin/spark-submit --master yarn --deploy-mode client --num-executors 16 --class cn.ac.ict.bigdatabench.KMeans /opt/BigDataBench_V3.2.5_Spark/JAR_FILE/bigdatabench-spark_1.3.0-hadoop_1.0.4.jar /user/mmercier/data-SNS-Kmeans-128 4 3
2017-07-01 03:46:19,169 -    INFO - Started Spark submit process for job:workload_bigdata_seed2_jobs25#3
2017-07-01 03:46:31,229 -    INFO - Application id: application_1498842842526_0043
2017-07-01 03:47:23,532 -    INFO - /opt/spark/bin/spark-submit --master yarn --deploy-mode client --num-executors 4 --class cn.ac.ict.bigdatabench.WordCount /opt/BigDataBench_V3.2.5_Spark/JAR_FILE/bigdatabench-spark_1.3.0-hadoop_1.0.4.jar /user/mmercier/data-MicroBenchmarks-32 resultworkload_bigdata_seed2_jobs25#4
2017-07-01 03:47:23,539 -    INFO - Started Spark submit process for job:workload_bigdata_seed2_jobs25#4
2017-07-01 03:47:37,120 -    INFO - Application id: application_1498842842526_0044
2017-07-01 03:48:47,823 -    INFO - /opt/spark/bin/spark-submit --master yarn --deploy-mode client --num-executors 4 --class cn.ac.ict.bigdatabench.KMeans /opt/BigDataBench_V3.2.5_Spark/JAR_FILE/bigdatabench-spark_1.3.0-hadoop_1.0.4.jar /user/mmercier/data-SNS-Kmeans-32 4 3
2017-07-01 03:48:47,830 -    INFO - Started Spark submit process for job:workload_bigdata_seed2_jobs25#5
2017-07-01 03:49:00,684 -    INFO - Application id: application_1498842842526_0045
2017-07-01 03:50:16,752 -    INFO - /opt/spark/bin/spark-submit --master yarn --deploy-mode client --num-executors 4 --class cn.ac.ict.bigdatabench.WordCount /opt/BigDataBench_V3.2.5_Spark/JAR_FILE/bigdatabench-spark_1.3.0-hadoop_1.0.4.jar /user/mmercier/data-MicroBenchmarks-32 resultworkload_bigdata_seed2_jobs25#6
2017-07-01 03:50:16,759 -    INFO - Started Spark submit process for job:workload_bigdata_seed2_jobs25#6
2017-07-01 03:50:18,883 -    INFO - /opt/spark/bin/spark-submit --master yarn --deploy-mode client --num-executors 8 --class cn.ac.ict.bigdatabench.WordCount /opt/BigDataBench_V3.2.5_Spark/JAR_FILE/bigdatabench-spark_1.3.0-hadoop_1.0.4.jar /user/mmercier/data-MicroBenchmarks-64 resultworkload_bigdata_seed2_jobs25#7
2017-07-01 03:50:18,888 -    INFO - Started Spark submit process for job:workload_bigdata_seed2_jobs25#7
2017-07-01 03:50:33,697 -    INFO - Application id: application_1498842842526_0046
2017-07-01 03:50:34,107 -    INFO - Application id: application_1498842842526_0047
2017-07-01 03:51:17,065 -    INFO - /opt/spark/bin/spark-submit --master yarn --deploy-mode client --num-executors 4 --class cn.ac.ict.bigdatabench.WordCount /opt/BigDataBench_V3.2.5_Spark/JAR_FILE/bigdatabench-spark_1.3.0-hadoop_1.0.4.jar /user/mmercier/data-MicroBenchmarks-32 resultworkload_bigdata_seed2_jobs25#8
2017-07-01 03:51:17,087 -    INFO - Started Spark submit process for job:workload_bigdata_seed2_jobs25#8
2017-07-01 03:51:29,441 -    INFO - Application id: application_1498842842526_0048
2017-07-01 03:51:53,193 -    INFO - /opt/spark/bin/spark-submit --master yarn --deploy-mode client --num-executors 16 --class cn.ac.ict.bigdatabench.KMeans /opt/BigDataBench_V3.2.5_Spark/JAR_FILE/bigdatabench-spark_1.3.0-hadoop_1.0.4.jar /user/mmercier/data-SNS-Kmeans-128 4 3
2017-07-01 03:51:53,200 -    INFO - Started Spark submit process for job:workload_bigdata_seed2_jobs25#9
2017-07-01 03:52:07,472 -    INFO - Application id: application_1498842842526_0049
2017-07-01 03:54:32,976 -    INFO - /opt/spark/bin/spark-submit --master yarn --deploy-mode client --num-executors 4 --class cn.ac.ict.bigdatabench.WordCount /opt/BigDataBench_V3.2.5_Spark/JAR_FILE/bigdatabench-spark_1.3.0-hadoop_1.0.4.jar /user/mmercier/data-MicroBenchmarks-32 resultworkload_bigdata_seed2_jobs25#10
2017-07-01 03:54:32,983 -    INFO - Started Spark submit process for job:workload_bigdata_seed2_jobs25#10
2017-07-01 03:54:45,734 -    INFO - Application id: application_1498842842526_0050
2017-07-01 03:56:48,994 -    INFO - /opt/spark/bin/spark-submit --master yarn --deploy-mode client --num-executors 4 --class cn.ac.ict.bigdatabench.WordCount /opt/BigDataBench_V3.2.5_Spark/JAR_FILE/bigdatabench-spark_1.3.0-hadoop_1.0.4.jar /user/mmercier/data-MicroBenchmarks-32 resultworkload_bigdata_seed2_jobs25#11
2017-07-01 03:56:48,999 -    INFO - Started Spark submit process for job:workload_bigdata_seed2_jobs25#11
2017-07-01 03:57:01,848 -    INFO - /opt/spark/bin/spark-submit --master yarn --deploy-mode client --num-executors 4 --class cn.ac.ict.bigdatabench.WordCount /opt/BigDataBench_V3.2.5_Spark/JAR_FILE/bigdatabench-spark_1.3.0-hadoop_1.0.4.jar /user/mmercier/data-MicroBenchmarks-32 resultworkload_bigdata_seed2_jobs25#12
2017-07-01 03:57:01,857 -    INFO - Started Spark submit process for job:workload_bigdata_seed2_jobs25#12
2017-07-01 03:57:04,798 -    INFO - Application id: application_1498842842526_0051
2017-07-01 03:57:19,989 -    INFO - Application id: application_1498842842526_0052
2017-07-01 03:59:00,467 -    INFO - /opt/spark/bin/spark-submit --master yarn --deploy-mode client --num-executors 16 --class cn.ac.ict.bigdatabench.WordCount /opt/BigDataBench_V3.2.5_Spark/JAR_FILE/bigdatabench-spark_1.3.0-hadoop_1.0.4.jar /user/mmercier/data-MicroBenchmarks-128 resultworkload_bigdata_seed2_jobs25#13
2017-07-01 03:59:00,475 -    INFO - Started Spark submit process for job:workload_bigdata_seed2_jobs25#13
2017-07-01 03:59:12,578 -    INFO - Application id: application_1498842842526_0053
2017-07-01 04:01:12,639 -    INFO - /opt/spark/bin/spark-submit --master yarn --deploy-mode client --num-executors 16 --class cn.ac.ict.bigdatabench.KMeans /opt/BigDataBench_V3.2.5_Spark/JAR_FILE/bigdatabench-spark_1.3.0-hadoop_1.0.4.jar /user/mmercier/data-SNS-Kmeans-128 4 3
2017-07-01 04:01:12,647 -    INFO - Started Spark submit process for job:workload_bigdata_seed2_jobs25#14
2017-07-01 04:01:26,774 -    INFO - Application id: application_1498842842526_0054
2017-07-01 04:02:44,437 -    INFO - /opt/spark/bin/spark-submit --master yarn --deploy-mode client --num-executors 4 --class cn.ac.ict.bigdatabench.Grep /opt/BigDataBench_V3.2.5_Spark/JAR_FILE/bigdatabench-spark_1.3.0-hadoop_1.0.4.jar /user/mmercier/data-MicroBenchmarks-32 word resultworkload_bigdata_seed2_jobs25#15
2017-07-01 04:02:44,445 -    INFO - Started Spark submit process for job:workload_bigdata_seed2_jobs25#15
2017-07-01 04:02:57,041 -    INFO - Application id: application_1498842842526_0055
2017-07-01 04:03:15,497 -    INFO - /opt/spark/bin/spark-submit --master yarn --deploy-mode client --num-executors 4 --class cn.ac.ict.bigdatabench.KMeans /opt/BigDataBench_V3.2.5_Spark/JAR_FILE/bigdatabench-spark_1.3.0-hadoop_1.0.4.jar /user/mmercier/data-SNS-Kmeans-32 4 3
2017-07-01 04:03:15,508 -    INFO - Started Spark submit process for job:workload_bigdata_seed2_jobs25#16
2017-07-01 04:03:30,222 -    INFO - Application id: application_1498842842526_0056
2017-07-01 04:03:49,949 -    INFO - /opt/spark/bin/spark-submit --master yarn --deploy-mode client --num-executors 4 --class cn.ac.ict.bigdatabench.WordCount /opt/BigDataBench_V3.2.5_Spark/JAR_FILE/bigdatabench-spark_1.3.0-hadoop_1.0.4.jar /user/mmercier/data-MicroBenchmarks-32 resultworkload_bigdata_seed2_jobs25#17
2017-07-01 04:03:49,959 -    INFO - Started Spark submit process for job:workload_bigdata_seed2_jobs25#17
2017-07-01 04:03:53,037 - WARNING - Unable to schedule Spark application workload_bigdata_seed2_jobs25#17
2017-07-01 04:05:11,583 -    INFO - /opt/spark/bin/spark-submit --master yarn --deploy-mode client --num-executors 16 --class cn.ac.ict.bigdatabench.WordCount /opt/BigDataBench_V3.2.5_Spark/JAR_FILE/bigdatabench-spark_1.3.0-hadoop_1.0.4.jar /user/mmercier/data-MicroBenchmarks-128 resultworkload_bigdata_seed2_jobs25#18
2017-07-01 04:05:11,595 -    INFO - Started Spark submit process for job:workload_bigdata_seed2_jobs25#18
2017-07-01 04:05:14,723 - WARNING - Unable to schedule Spark application workload_bigdata_seed2_jobs25#18
2017-07-01 04:05:26,817 -    INFO - Process is finished for Application: application_1498842842526_0042
2017-07-01 04:05:26,817 -    INFO - Waiting completion for Application id: application_1498842842526_0042
2017-07-01 04:05:27,828 -    INFO - Gathering information for Application id: application_1498842842526_0042
2017-07-01 04:05:30,469 -    INFO - Info gathering is finished for Application: application_1498842842526_0042 
2017-07-01 04:06:11,009 -    INFO - /opt/spark/bin/spark-submit --master yarn --deploy-mode client --num-executors 8 --class cn.ac.ict.bigdatabench.KMeans /opt/BigDataBench_V3.2.5_Spark/JAR_FILE/bigdatabench-spark_1.3.0-hadoop_1.0.4.jar /user/mmercier/data-SNS-Kmeans-64 4 3
2017-07-01 04:06:11,018 -    INFO - Started Spark submit process for job:workload_bigdata_seed2_jobs25#19
2017-07-01 04:06:23,943 -    INFO - Application id: application_1498842842526_0057
2017-07-01 04:07:13,856 -    INFO - /opt/spark/bin/spark-submit --master yarn --deploy-mode client --num-executors 4 --class cn.ac.ict.bigdatabench.Grep /opt/BigDataBench_V3.2.5_Spark/JAR_FILE/bigdatabench-spark_1.3.0-hadoop_1.0.4.jar /user/mmercier/data-MicroBenchmarks-32 word resultworkload_bigdata_seed2_jobs25#20
2017-07-01 04:07:13,865 -    INFO - Started Spark submit process for job:workload_bigdata_seed2_jobs25#20
2017-07-01 04:07:16,956 - WARNING - Unable to schedule Spark application workload_bigdata_seed2_jobs25#20
2017-07-01 04:07:28,451 -    INFO - /opt/spark/bin/spark-submit --master yarn --deploy-mode client --num-executors 8 --class cn.ac.ict.bigdatabench.KMeans /opt/BigDataBench_V3.2.5_Spark/JAR_FILE/bigdatabench-spark_1.3.0-hadoop_1.0.4.jar /user/mmercier/data-SNS-Kmeans-64 4 3
2017-07-01 04:07:28,459 -    INFO - Started Spark submit process for job:workload_bigdata_seed2_jobs25#21
2017-07-01 04:07:31,536 - WARNING - Unable to schedule Spark application workload_bigdata_seed2_jobs25#21
2017-07-01 04:07:52,565 -    INFO - /opt/spark/bin/spark-submit --master yarn --deploy-mode client --num-executors 8 --class cn.ac.ict.bigdatabench.WordCount /opt/BigDataBench_V3.2.5_Spark/JAR_FILE/bigdatabench-spark_1.3.0-hadoop_1.0.4.jar /user/mmercier/data-MicroBenchmarks-64 resultworkload_bigdata_seed2_jobs25#22
2017-07-01 04:07:52,573 -    INFO - Started Spark submit process for job:workload_bigdata_seed2_jobs25#22
2017-07-01 04:07:55,647 - WARNING - Unable to schedule Spark application workload_bigdata_seed2_jobs25#22
2017-07-01 04:08:39,963 -    INFO - /opt/spark/bin/spark-submit --master yarn --deploy-mode client --num-executors 4 --class cn.ac.ict.bigdatabench.Grep /opt/BigDataBench_V3.2.5_Spark/JAR_FILE/bigdatabench-spark_1.3.0-hadoop_1.0.4.jar /user/mmercier/data-MicroBenchmarks-32 word resultworkload_bigdata_seed2_jobs25#23
2017-07-01 04:08:39,973 -    INFO - Started Spark submit process for job:workload_bigdata_seed2_jobs25#23
2017-07-01 04:08:43,068 - WARNING - Unable to schedule Spark application workload_bigdata_seed2_jobs25#23
2017-07-01 04:08:49,466 -    INFO - /opt/spark/bin/spark-submit --master yarn --deploy-mode client --num-executors 4 --class cn.ac.ict.bigdatabench.WordCount /opt/BigDataBench_V3.2.5_Spark/JAR_FILE/bigdatabench-spark_1.3.0-hadoop_1.0.4.jar /user/mmercier/data-MicroBenchmarks-32 resultworkload_bigdata_seed2_jobs25#24
2017-07-01 04:08:49,473 -    INFO - Started Spark submit process for job:workload_bigdata_seed2_jobs25#24
2017-07-01 04:08:52,783 - WARNING - Shutdown called in Spark application workload_bigdata_seed2_jobs25#24
2017-07-01 05:43:46,600 -    INFO - Process is finished for Application: application_1498842842526_0040
2017-07-01 05:43:46,600 -    INFO - Waiting completion for Application id: application_1498842842526_0040
2017-07-01 05:43:56,672 -    INFO - Gathering information for Application id: application_1498842842526_0040
2017-07-01 05:44:16,227 -    INFO - Info gathering is finished for Application: application_1498842842526_0040 
2017-07-01 06:40:39,616 -    INFO - Process is finished for Application: application_1498842842526_0044
2017-07-01 06:40:39,616 -    INFO - Waiting completion for Application id: application_1498842842526_0044
2017-07-01 06:40:40,623 -    INFO - Gathering information for Application id: application_1498842842526_0044
2017-07-01 06:40:43,551 -    INFO - Info gathering is finished for Application: application_1498842842526_0044 
2017-07-01 07:03:23,709 -    INFO - Process is finished for Application: application_1498842842526_0046
2017-07-01 07:03:23,709 -    INFO - Waiting completion for Application id: application_1498842842526_0046
2017-07-01 07:03:24,715 -    INFO - Gathering information for Application id: application_1498842842526_0046
2017-07-01 07:03:27,536 -    INFO - Info gathering is finished for Application: application_1498842842526_0046 
2017-07-01 07:06:29,037 -    INFO - Process is finished for Application: application_1498842842526_0047
2017-07-01 07:06:29,037 -    INFO - Waiting completion for Application id: application_1498842842526_0047
2017-07-01 07:06:30,043 -    INFO - Gathering information for Application id: application_1498842842526_0047
2017-07-01 07:06:33,012 -    INFO - Info gathering is finished for Application: application_1498842842526_0047 
2017-07-01 07:09:52,773 -    INFO - Process is finished for Application: application_1498842842526_0048
2017-07-01 07:09:52,773 -    INFO - Waiting completion for Application id: application_1498842842526_0048
2017-07-01 07:10:01,831 -    INFO - Gathering information for Application id: application_1498842842526_0048
2017-07-01 07:10:04,567 -    INFO - Info gathering is finished for Application: application_1498842842526_0048 
2017-07-01 07:20:10,519 -    INFO - received stop signal, cancelling tasks...
2017-07-01 07:20:10,519 -    INFO - Gathering all logs
2017-07-01 07:20:10,520 -    INFO - Waiting completion for Application id: application_1498842842526_0050
2017-07-01 07:20:10,886 -    INFO - Gathering information for Application id: application_1498842842526_0050
2017-07-01 07:20:13,266 -   ERROR - Error while retrieving application logs: Command '$HADOOP_HOME/bin/hdfs dfs -copyToLocal /user/spark/applicationHistory/application_1498842842526_0050 /home/mmercier/bebida/experiments/run_bebida/results/results_2017-06-30--18-23-08/spark_139770430602800_workload_bigdata_seed2_jobs25.json' returned non-zero exit status 1
2017-07-01 07:20:13,266 -    INFO - Info gathering is finished for Application: application_1498842842526_0050 
2017-07-01 07:20:13,267 -    INFO - Waiting completion for Application id: application_1498842842526_0051
2017-07-01 07:20:13,633 -    INFO - Gathering information for Application id: application_1498842842526_0051
2017-07-01 07:20:16,010 -   ERROR - Error while retrieving application logs: Command '$HADOOP_HOME/bin/hdfs dfs -copyToLocal /user/spark/applicationHistory/application_1498842842526_0051 /home/mmercier/bebida/experiments/run_bebida/results/results_2017-06-30--18-23-08/spark_139770430602800_workload_bigdata_seed2_jobs25.json' returned non-zero exit status 1
2017-07-01 07:20:16,010 -    INFO - Info gathering is finished for Application: application_1498842842526_0051 
2017-07-01 07:20:16,011 -    INFO - Waiting completion for Application id: application_1498842842526_0052
2017-07-01 07:20:16,378 -    INFO - Gathering information for Application id: application_1498842842526_0052
2017-07-01 07:20:18,765 -   ERROR - Error while retrieving application logs: Command '$HADOOP_HOME/bin/hdfs dfs -copyToLocal /user/spark/applicationHistory/application_1498842842526_0052 /home/mmercier/bebida/experiments/run_bebida/results/results_2017-06-30--18-23-08/spark_139770430602800_workload_bigdata_seed2_jobs25.json' returned non-zero exit status 1
2017-07-01 07:20:18,765 -    INFO - Info gathering is finished for Application: application_1498842842526_0052 
2017-07-01 07:20:18,766 -    INFO - Waiting completion for Application id: application_1498842842526_0053
2017-07-01 07:20:24,630 -    INFO - Gathering information for Application id: application_1498842842526_0053
2017-07-01 07:20:27,238 -    INFO - Info gathering is finished for Application: application_1498842842526_0053 
2017-07-01 07:20:27,239 -    INFO - Waiting completion for Application id: application_1498842842526_0054
2017-07-01 07:20:27,605 -    INFO - Gathering information for Application id: application_1498842842526_0054
2017-07-01 07:20:29,992 -   ERROR - Error while retrieving application logs: Command '$HADOOP_HOME/bin/hdfs dfs -copyToLocal /user/spark/applicationHistory/application_1498842842526_0054 /home/mmercier/bebida/experiments/run_bebida/results/results_2017-06-30--18-23-08/spark_139770430602800_workload_bigdata_seed2_jobs25.json' returned non-zero exit status 1
2017-07-01 07:20:29,993 -    INFO - Info gathering is finished for Application: application_1498842842526_0054 
2017-07-01 07:20:29,993 -    INFO - Waiting completion for Application id: application_1498842842526_0055
2017-07-01 07:20:30,359 -    INFO - Gathering information for Application id: application_1498842842526_0055
2017-07-01 07:20:32,742 -   ERROR - Error while retrieving application logs: Command '$HADOOP_HOME/bin/hdfs dfs -copyToLocal /user/spark/applicationHistory/application_1498842842526_0055 /home/mmercier/bebida/experiments/run_bebida/results/results_2017-06-30--18-23-08/spark_139770430602800_workload_bigdata_seed2_jobs25.json' returned non-zero exit status 1
2017-07-01 07:20:32,743 -    INFO - Info gathering is finished for Application: application_1498842842526_0055 
2017-07-01 07:20:32,743 -    INFO - Waiting completion for Application id: application_1498842842526_0056
2017-07-01 07:20:33,109 -    INFO - Gathering information for Application id: application_1498842842526_0056
2017-07-01 07:20:35,488 -   ERROR - Error while retrieving application logs: Command '$HADOOP_HOME/bin/hdfs dfs -copyToLocal /user/spark/applicationHistory/application_1498842842526_0056 /home/mmercier/bebida/experiments/run_bebida/results/results_2017-06-30--18-23-08/spark_139770430602800_workload_bigdata_seed2_jobs25.json' returned non-zero exit status 1
2017-07-01 07:20:35,488 -    INFO - Info gathering is finished for Application: application_1498842842526_0056 
2017-07-01 07:20:35,489 -    INFO - Waiting completion for Application id: application_1498842842526_0057
2017-07-01 07:20:35,858 -    INFO - Gathering information for Application id: application_1498842842526_0057
2017-07-01 07:20:38,257 -   ERROR - Error while retrieving application logs: Command '$HADOOP_HOME/bin/hdfs dfs -copyToLocal /user/spark/applicationHistory/application_1498842842526_0057 /home/mmercier/bebida/experiments/run_bebida/results/results_2017-06-30--18-23-08/spark_139770430602800_workload_bigdata_seed2_jobs25.json' returned non-zero exit status 1
2017-07-01 07:20:38,258 -    INFO - Info gathering is finished for Application: application_1498842842526_0057 
2017-07-01 07:20:38,258 -    INFO - Waiting completion for Application id: application_1498842842526_0041
2017-07-01 07:20:47,827 -    INFO - Gathering information for Application id: application_1498842842526_0041
2017-07-01 07:20:54,994 -    INFO - Info gathering is finished for Application: application_1498842842526_0041 
2017-07-01 07:20:54,995 -    INFO - Waiting completion for Application id: application_1498842842526_0043
2017-07-01 07:21:10,547 -    INFO - Gathering information for Application id: application_1498842842526_0043
2017-07-01 07:21:32,779 -    INFO - Info gathering is finished for Application: application_1498842842526_0043 
2017-07-01 07:21:32,780 -    INFO - Waiting completion for Application id: application_1498842842526_0045
2017-07-01 07:21:41,354 -    INFO - Gathering information for Application id: application_1498842842526_0045
2017-07-01 07:21:44,957 -    INFO - Info gathering is finished for Application: application_1498842842526_0045 
2017-07-01 07:21:44,958 -    INFO - Waiting completion for Application id: application_1498842842526_0049
2017-07-01 07:21:52,659 -    INFO - Gathering information for Application id: application_1498842842526_0049
2017-07-01 07:21:57,210 -    INFO - Info gathering is finished for Application: application_1498842842526_0049 
