2017-07-01 11:29:44,740 -    INFO - Start the replay for workload: workload_bigdata_seed1_jobs25
2017-07-01 11:30:08,639 -    INFO - /opt/spark/bin/spark-submit --master yarn --deploy-mode client --num-executors 8 --class cn.ac.ict.bigdatabench.WordCount /opt/BigDataBench_V3.2.5_Spark/JAR_FILE/bigdatabench-spark_1.3.0-hadoop_1.0.4.jar /user/mmercier/data-MicroBenchmarks-64 resultworkload_bigdata_seed1_jobs25#0
2017-07-01 11:30:08,643 -    INFO - Started Spark submit process for job:workload_bigdata_seed1_jobs25#0
2017-07-01 11:30:20,140 -    INFO - Application id: application_1498842842526_0077
2017-07-01 11:30:20,961 -    INFO - /opt/spark/bin/spark-submit --master yarn --deploy-mode client --num-executors 16 --class cn.ac.ict.bigdatabench.WordCount /opt/BigDataBench_V3.2.5_Spark/JAR_FILE/bigdatabench-spark_1.3.0-hadoop_1.0.4.jar /user/mmercier/data-MicroBenchmarks-128 resultworkload_bigdata_seed1_jobs25#1
2017-07-01 11:30:20,965 -    INFO - Started Spark submit process for job:workload_bigdata_seed1_jobs25#1
2017-07-01 11:30:33,181 -    INFO - Application id: application_1498842842526_0078
2017-07-01 11:30:47,876 -    INFO - /opt/spark/bin/spark-submit --master yarn --deploy-mode client --num-executors 4 --class cn.ac.ict.bigdatabench.Grep /opt/BigDataBench_V3.2.5_Spark/JAR_FILE/bigdatabench-spark_1.3.0-hadoop_1.0.4.jar /user/mmercier/data-MicroBenchmarks-32 word resultworkload_bigdata_seed1_jobs25#2
2017-07-01 11:30:47,880 -    INFO - Started Spark submit process for job:workload_bigdata_seed1_jobs25#2
2017-07-01 11:30:59,747 -    INFO - Application id: application_1498842842526_0079
2017-07-01 11:31:32,331 -    INFO - /opt/spark/bin/spark-submit --master yarn --deploy-mode client --num-executors 8 --class cn.ac.ict.bigdatabench.KMeans /opt/BigDataBench_V3.2.5_Spark/JAR_FILE/bigdatabench-spark_1.3.0-hadoop_1.0.4.jar /user/mmercier/data-SNS-Kmeans-64 4 3
2017-07-01 11:31:32,335 -    INFO - Started Spark submit process for job:workload_bigdata_seed1_jobs25#3
2017-07-01 11:31:45,334 -    INFO - Application id: application_1498842842526_0080
2017-07-01 11:33:04,017 -    INFO - /opt/spark/bin/spark-submit --master yarn --deploy-mode client --num-executors 8 --class cn.ac.ict.bigdatabench.WordCount /opt/BigDataBench_V3.2.5_Spark/JAR_FILE/bigdatabench-spark_1.3.0-hadoop_1.0.4.jar /user/mmercier/data-MicroBenchmarks-64 resultworkload_bigdata_seed1_jobs25#4
2017-07-01 11:33:04,026 -    INFO - Started Spark submit process for job:workload_bigdata_seed1_jobs25#4
2017-07-01 11:33:17,685 -    INFO - Application id: application_1498842842526_0081
2017-07-01 11:33:48,941 -    INFO - /opt/spark/bin/spark-submit --master yarn --deploy-mode client --num-executors 4 --class cn.ac.ict.bigdatabench.WordCount /opt/BigDataBench_V3.2.5_Spark/JAR_FILE/bigdatabench-spark_1.3.0-hadoop_1.0.4.jar /user/mmercier/data-MicroBenchmarks-32 resultworkload_bigdata_seed1_jobs25#5
2017-07-01 11:33:48,945 -    INFO - Started Spark submit process for job:workload_bigdata_seed1_jobs25#5
2017-07-01 11:34:03,531 -    INFO - Application id: application_1498842842526_0082
2017-07-01 11:34:15,589 -    INFO - /opt/spark/bin/spark-submit --master yarn --deploy-mode client --num-executors 16 --class cn.ac.ict.bigdatabench.WordCount /opt/BigDataBench_V3.2.5_Spark/JAR_FILE/bigdatabench-spark_1.3.0-hadoop_1.0.4.jar /user/mmercier/data-MicroBenchmarks-128 resultworkload_bigdata_seed1_jobs25#6
2017-07-01 11:34:15,596 -    INFO - Started Spark submit process for job:workload_bigdata_seed1_jobs25#6
2017-07-01 11:34:30,102 -    INFO - Application id: application_1498842842526_0083
2017-07-01 11:34:45,095 -    INFO - /opt/spark/bin/spark-submit --master yarn --deploy-mode client --num-executors 4 --class cn.ac.ict.bigdatabench.Grep /opt/BigDataBench_V3.2.5_Spark/JAR_FILE/bigdatabench-spark_1.3.0-hadoop_1.0.4.jar /user/mmercier/data-MicroBenchmarks-32 word resultworkload_bigdata_seed1_jobs25#7
2017-07-01 11:34:45,101 -    INFO - Started Spark submit process for job:workload_bigdata_seed1_jobs25#7
2017-07-01 11:34:58,442 -    INFO - Application id: application_1498842842526_0084
2017-07-01 11:37:53,734 -    INFO - /opt/spark/bin/spark-submit --master yarn --deploy-mode client --num-executors 8 --class cn.ac.ict.bigdatabench.Grep /opt/BigDataBench_V3.2.5_Spark/JAR_FILE/bigdatabench-spark_1.3.0-hadoop_1.0.4.jar /user/mmercier/data-MicroBenchmarks-64 word resultworkload_bigdata_seed1_jobs25#8
2017-07-01 11:37:53,740 -    INFO - Started Spark submit process for job:workload_bigdata_seed1_jobs25#8
2017-07-01 11:38:06,175 -    INFO - Application id: application_1498842842526_0085
2017-07-01 11:38:18,767 -    INFO - /opt/spark/bin/spark-submit --master yarn --deploy-mode client --num-executors 4 --class cn.ac.ict.bigdatabench.Grep /opt/BigDataBench_V3.2.5_Spark/JAR_FILE/bigdatabench-spark_1.3.0-hadoop_1.0.4.jar /user/mmercier/data-MicroBenchmarks-32 word resultworkload_bigdata_seed1_jobs25#9
2017-07-01 11:38:18,773 -    INFO - Started Spark submit process for job:workload_bigdata_seed1_jobs25#9
2017-07-01 11:38:31,157 -    INFO - Application id: application_1498842842526_0086
2017-07-01 11:38:59,917 -    INFO - /opt/spark/bin/spark-submit --master yarn --deploy-mode client --num-executors 4 --class cn.ac.ict.bigdatabench.Grep /opt/BigDataBench_V3.2.5_Spark/JAR_FILE/bigdatabench-spark_1.3.0-hadoop_1.0.4.jar /user/mmercier/data-MicroBenchmarks-32 word resultworkload_bigdata_seed1_jobs25#10
2017-07-01 11:38:59,923 -    INFO - Started Spark submit process for job:workload_bigdata_seed1_jobs25#10
2017-07-01 11:39:13,339 -    INFO - Application id: application_1498842842526_0087
2017-07-01 11:40:42,611 -    INFO - /opt/spark/bin/spark-submit --master yarn --deploy-mode client --num-executors 8 --class cn.ac.ict.bigdatabench.WordCount /opt/BigDataBench_V3.2.5_Spark/JAR_FILE/bigdatabench-spark_1.3.0-hadoop_1.0.4.jar /user/mmercier/data-MicroBenchmarks-64 resultworkload_bigdata_seed1_jobs25#11
2017-07-01 11:40:42,618 -    INFO - Started Spark submit process for job:workload_bigdata_seed1_jobs25#11
2017-07-01 11:40:56,055 -    INFO - Application id: application_1498842842526_0088
2017-07-01 11:43:14,701 -    INFO - /opt/spark/bin/spark-submit --master yarn --deploy-mode client --num-executors 16 --class cn.ac.ict.bigdatabench.Grep /opt/BigDataBench_V3.2.5_Spark/JAR_FILE/bigdatabench-spark_1.3.0-hadoop_1.0.4.jar /user/mmercier/data-MicroBenchmarks-128 word resultworkload_bigdata_seed1_jobs25#12
2017-07-01 11:43:14,707 -    INFO - Started Spark submit process for job:workload_bigdata_seed1_jobs25#12
2017-07-01 11:43:20,312 -    INFO - /opt/spark/bin/spark-submit --master yarn --deploy-mode client --num-executors 8 --class cn.ac.ict.bigdatabench.KMeans /opt/BigDataBench_V3.2.5_Spark/JAR_FILE/bigdatabench-spark_1.3.0-hadoop_1.0.4.jar /user/mmercier/data-SNS-Kmeans-64 4 3
2017-07-01 11:43:20,318 -    INFO - Started Spark submit process for job:workload_bigdata_seed1_jobs25#13
2017-07-01 11:43:30,559 -    INFO - Application id: application_1498842842526_0089
2017-07-01 11:43:36,761 -    INFO - Application id: application_1498842842526_0090
2017-07-01 11:44:31,308 -    INFO - Process is finished for Application: application_1498842842526_0079
2017-07-01 11:44:31,308 -    INFO - Waiting completion for Application id: application_1498842842526_0079
2017-07-01 11:44:32,319 -    INFO - Gathering information for Application id: application_1498842842526_0079
2017-07-01 11:44:34,908 -    INFO - Info gathering is finished for Application: application_1498842842526_0079 
2017-07-01 11:44:35,165 -    INFO - /opt/spark/bin/spark-submit --master yarn --deploy-mode client --num-executors 8 --class cn.ac.ict.bigdatabench.Grep /opt/BigDataBench_V3.2.5_Spark/JAR_FILE/bigdatabench-spark_1.3.0-hadoop_1.0.4.jar /user/mmercier/data-MicroBenchmarks-64 word resultworkload_bigdata_seed1_jobs25#14
2017-07-01 11:44:35,169 -    INFO - Started Spark submit process for job:workload_bigdata_seed1_jobs25#14
2017-07-01 11:44:44,572 -    INFO - /opt/spark/bin/spark-submit --master yarn --deploy-mode client --num-executors 4 --class cn.ac.ict.bigdatabench.KMeans /opt/BigDataBench_V3.2.5_Spark/JAR_FILE/bigdatabench-spark_1.3.0-hadoop_1.0.4.jar /user/mmercier/data-SNS-Kmeans-32 4 3
2017-07-01 11:44:44,578 -    INFO - Started Spark submit process for job:workload_bigdata_seed1_jobs25#15
2017-07-01 11:44:50,003 -    INFO - Application id: application_1498842842526_0091
2017-07-01 11:45:05,276 -    INFO - Application id: application_1498842842526_0092
2017-07-01 11:47:51,794 -    INFO - /opt/spark/bin/spark-submit --master yarn --deploy-mode client --num-executors 4 --class cn.ac.ict.bigdatabench.KMeans /opt/BigDataBench_V3.2.5_Spark/JAR_FILE/bigdatabench-spark_1.3.0-hadoop_1.0.4.jar /user/mmercier/data-SNS-Kmeans-32 4 3
2017-07-01 11:47:51,801 -    INFO - Started Spark submit process for job:workload_bigdata_seed1_jobs25#16
2017-07-01 11:48:04,821 -    INFO - Application id: application_1498842842526_0093
2017-07-01 11:48:26,481 -    INFO - /opt/spark/bin/spark-submit --master yarn --deploy-mode client --num-executors 4 --class cn.ac.ict.bigdatabench.KMeans /opt/BigDataBench_V3.2.5_Spark/JAR_FILE/bigdatabench-spark_1.3.0-hadoop_1.0.4.jar /user/mmercier/data-SNS-Kmeans-32 4 3
2017-07-01 11:48:26,488 -    INFO - Started Spark submit process for job:workload_bigdata_seed1_jobs25#17
2017-07-01 11:48:38,854 -    INFO - Application id: application_1498842842526_0094
2017-07-01 11:48:47,009 -    INFO - /opt/spark/bin/spark-submit --master yarn --deploy-mode client --num-executors 4 --class cn.ac.ict.bigdatabench.KMeans /opt/BigDataBench_V3.2.5_Spark/JAR_FILE/bigdatabench-spark_1.3.0-hadoop_1.0.4.jar /user/mmercier/data-SNS-Kmeans-32 4 3
2017-07-01 11:48:47,019 -    INFO - Started Spark submit process for job:workload_bigdata_seed1_jobs25#18
2017-07-01 11:48:50,090 - WARNING - Unable to schedule Spark application workload_bigdata_seed1_jobs25#18
2017-07-01 11:49:36,762 -    INFO - Process is finished for Application: application_1498842842526_0078
2017-07-01 11:49:36,762 -    INFO - Waiting completion for Application id: application_1498842842526_0078
2017-07-01 11:49:43,807 -    INFO - Gathering information for Application id: application_1498842842526_0078
2017-07-01 11:49:46,882 -    INFO - Info gathering is finished for Application: application_1498842842526_0078 
2017-07-01 11:49:53,676 -    INFO - /opt/spark/bin/spark-submit --master yarn --deploy-mode client --num-executors 16 --class cn.ac.ict.bigdatabench.WordCount /opt/BigDataBench_V3.2.5_Spark/JAR_FILE/bigdatabench-spark_1.3.0-hadoop_1.0.4.jar /user/mmercier/data-MicroBenchmarks-128 resultworkload_bigdata_seed1_jobs25#19
2017-07-01 11:49:53,683 -    INFO - Started Spark submit process for job:workload_bigdata_seed1_jobs25#19
2017-07-01 11:50:07,603 -    INFO - Application id: application_1498842842526_0095
2017-07-01 11:50:21,497 -    INFO - /opt/spark/bin/spark-submit --master yarn --deploy-mode client --num-executors 16 --class cn.ac.ict.bigdatabench.KMeans /opt/BigDataBench_V3.2.5_Spark/JAR_FILE/bigdatabench-spark_1.3.0-hadoop_1.0.4.jar /user/mmercier/data-SNS-Kmeans-128 4 3
2017-07-01 11:50:21,505 -    INFO - Started Spark submit process for job:workload_bigdata_seed1_jobs25#20
2017-07-01 11:50:24,777 - WARNING - Unable to schedule Spark application workload_bigdata_seed1_jobs25#20
2017-07-01 11:51:10,955 -    INFO - Process is finished for Application: application_1498842842526_0077
2017-07-01 11:51:10,955 -    INFO - Waiting completion for Application id: application_1498842842526_0077
2017-07-01 11:51:14,982 -    INFO - Gathering information for Application id: application_1498842842526_0077
2017-07-01 11:51:17,893 -    INFO - Info gathering is finished for Application: application_1498842842526_0077 
2017-07-01 11:51:17,893 -    INFO - /opt/spark/bin/spark-submit --master yarn --deploy-mode client --num-executors 8 --class cn.ac.ict.bigdatabench.KMeans /opt/BigDataBench_V3.2.5_Spark/JAR_FILE/bigdatabench-spark_1.3.0-hadoop_1.0.4.jar /user/mmercier/data-SNS-Kmeans-64 4 3
2017-07-01 11:51:17,899 -    INFO - Started Spark submit process for job:workload_bigdata_seed1_jobs25#21
2017-07-01 11:51:36,470 -    INFO - Application id: application_1498842842526_0096
2017-07-01 11:54:11,866 -    INFO - /opt/spark/bin/spark-submit --master yarn --deploy-mode client --num-executors 4 --class cn.ac.ict.bigdatabench.WordCount /opt/BigDataBench_V3.2.5_Spark/JAR_FILE/bigdatabench-spark_1.3.0-hadoop_1.0.4.jar /user/mmercier/data-MicroBenchmarks-32 resultworkload_bigdata_seed1_jobs25#22
2017-07-01 11:54:11,875 -    INFO - Started Spark submit process for job:workload_bigdata_seed1_jobs25#22
2017-07-01 11:54:14,958 - WARNING - Unable to schedule Spark application workload_bigdata_seed1_jobs25#22
2017-07-01 11:54:35,877 -    INFO - /opt/spark/bin/spark-submit --master yarn --deploy-mode client --num-executors 16 --class cn.ac.ict.bigdatabench.KMeans /opt/BigDataBench_V3.2.5_Spark/JAR_FILE/bigdatabench-spark_1.3.0-hadoop_1.0.4.jar /user/mmercier/data-SNS-Kmeans-128 4 3
2017-07-01 11:54:35,886 -    INFO - Started Spark submit process for job:workload_bigdata_seed1_jobs25#23
2017-07-01 11:54:39,174 - WARNING - Shutdown called in Spark application workload_bigdata_seed1_jobs25#23
2017-07-01 11:55:07,359 -    INFO - /opt/spark/bin/spark-submit --master yarn --deploy-mode client --num-executors 4 --class cn.ac.ict.bigdatabench.Grep /opt/BigDataBench_V3.2.5_Spark/JAR_FILE/bigdatabench-spark_1.3.0-hadoop_1.0.4.jar /user/mmercier/data-MicroBenchmarks-32 word resultworkload_bigdata_seed1_jobs25#24
2017-07-01 11:55:07,367 -    INFO - Started Spark submit process for job:workload_bigdata_seed1_jobs25#24
2017-07-01 11:55:10,666 - WARNING - Unable to schedule Spark application workload_bigdata_seed1_jobs25#24
2017-07-01 11:59:54,556 -    INFO - Process is finished for Application: application_1498842842526_0083
2017-07-01 11:59:54,557 -    INFO - Waiting completion for Application id: application_1498842842526_0083
2017-07-01 11:59:57,579 -    INFO - Gathering information for Application id: application_1498842842526_0083
2017-07-01 12:00:00,896 -    INFO - Info gathering is finished for Application: application_1498842842526_0083 
2017-07-01 12:00:02,277 -    INFO - Process is finished for Application: application_1498842842526_0081
2017-07-01 12:00:02,277 -    INFO - Waiting completion for Application id: application_1498842842526_0081
2017-07-01 12:00:07,311 -    INFO - Gathering information for Application id: application_1498842842526_0081
2017-07-01 12:00:10,029 -    INFO - Info gathering is finished for Application: application_1498842842526_0081 
2017-07-01 12:01:45,298 -    INFO - Process is finished for Application: application_1498842842526_0084
2017-07-01 12:01:45,298 -    INFO - Waiting completion for Application id: application_1498842842526_0084
2017-07-01 12:01:48,317 -    INFO - Gathering information for Application id: application_1498842842526_0084
2017-07-01 12:01:50,886 -    INFO - Info gathering is finished for Application: application_1498842842526_0084 
2017-07-01 12:02:21,445 -    INFO - Process is finished for Application: application_1498842842526_0082
2017-07-01 12:02:21,445 -    INFO - Waiting completion for Application id: application_1498842842526_0082
2017-07-01 12:02:28,492 -    INFO - Gathering information for Application id: application_1498842842526_0082
2017-07-01 12:02:31,236 -    INFO - Info gathering is finished for Application: application_1498842842526_0082 
2017-07-01 12:03:50,645 -    INFO - Process is finished for Application: application_1498842842526_0086
2017-07-01 12:03:50,645 -    INFO - Waiting completion for Application id: application_1498842842526_0086
2017-07-01 12:03:59,709 -    INFO - Gathering information for Application id: application_1498842842526_0086
2017-07-01 12:04:02,579 -    INFO - Info gathering is finished for Application: application_1498842842526_0086 
2017-07-01 12:04:02,580 -    INFO - Process is finished for Application: application_1498842842526_0087
2017-07-01 12:04:02,580 -    INFO - Waiting completion for Application id: application_1498842842526_0087
2017-07-01 12:04:09,626 -    INFO - Gathering information for Application id: application_1498842842526_0087
2017-07-01 12:04:12,256 -    INFO - Info gathering is finished for Application: application_1498842842526_0087 
2017-07-01 12:05:20,832 -    INFO - Process is finished for Application: application_1498842842526_0085
2017-07-01 12:05:20,832 -    INFO - Waiting completion for Application id: application_1498842842526_0085
2017-07-01 12:05:29,894 -    INFO - Gathering information for Application id: application_1498842842526_0085
2017-07-01 12:05:32,615 -    INFO - Info gathering is finished for Application: application_1498842842526_0085 
2017-07-01 12:15:02,889 -    INFO - Process is finished for Application: application_1498842842526_0089
2017-07-01 12:15:02,889 -    INFO - Waiting completion for Application id: application_1498842842526_0089
2017-07-01 12:15:11,950 -    INFO - Gathering information for Application id: application_1498842842526_0089
2017-07-01 12:15:14,624 -    INFO - Info gathering is finished for Application: application_1498842842526_0089 
2017-07-01 12:45:55,964 -    INFO - Process is finished for Application: application_1498842842526_0091
2017-07-01 12:45:55,964 -    INFO - Waiting completion for Application id: application_1498842842526_0091
2017-07-01 12:46:00,999 -    INFO - Gathering information for Application id: application_1498842842526_0091
2017-07-01 12:46:03,653 -    INFO - Info gathering is finished for Application: application_1498842842526_0091 
2017-07-01 14:14:43,017 -    INFO - Process is finished for Application: application_1498842842526_0080
2017-07-01 14:14:43,017 -    INFO - Waiting completion for Application id: application_1498842842526_0080
2017-07-01 14:14:52,081 -    INFO - Gathering information for Application id: application_1498842842526_0080
2017-07-01 14:15:00,533 -    INFO - Info gathering is finished for Application: application_1498842842526_0080 
2017-07-01 14:56:16,742 -    INFO - Process is finished for Application: application_1498842842526_0095
2017-07-01 14:56:16,742 -    INFO - Waiting completion for Application id: application_1498842842526_0095
2017-07-01 14:56:22,782 -    INFO - Gathering information for Application id: application_1498842842526_0095
2017-07-01 14:56:25,650 -    INFO - Info gathering is finished for Application: application_1498842842526_0095 
2017-07-01 15:01:45,149 -    INFO - Process is finished for Application: application_1498842842526_0088
2017-07-01 15:01:45,149 -    INFO - Waiting completion for Application id: application_1498842842526_0088
2017-07-01 15:01:55,215 -    INFO - Gathering information for Application id: application_1498842842526_0088
2017-07-01 15:01:59,211 -    INFO - Info gathering is finished for Application: application_1498842842526_0088 
2017-07-01 15:34:42,801 -    INFO - received stop signal, cancelling tasks...
2017-07-01 15:34:42,801 -    INFO - Gathering all logs
2017-07-01 15:34:42,801 -    INFO - Waiting completion for Application id: application_1498842842526_0094
2017-07-01 15:34:46,827 -    INFO - Gathering information for Application id: application_1498842842526_0094
2017-07-01 15:34:49,696 -    INFO - Info gathering is finished for Application: application_1498842842526_0094 
2017-07-01 15:34:49,696 -    INFO - Waiting completion for Application id: application_1498842842526_0092
2017-07-01 15:34:57,221 -    INFO - Gathering information for Application id: application_1498842842526_0092
2017-07-01 15:35:00,339 -    INFO - Info gathering is finished for Application: application_1498842842526_0092 
2017-07-01 15:35:00,340 -    INFO - Waiting completion for Application id: application_1498842842526_0090
2017-07-01 15:35:10,181 -    INFO - Gathering information for Application id: application_1498842842526_0090
2017-07-01 15:35:16,387 -    INFO - Info gathering is finished for Application: application_1498842842526_0090 
2017-07-01 15:35:16,388 -    INFO - Waiting completion for Application id: application_1498842842526_0093
2017-07-01 15:35:20,412 -    INFO - Gathering information for Application id: application_1498842842526_0093
2017-07-01 15:35:23,596 -    INFO - Info gathering is finished for Application: application_1498842842526_0093 
2017-07-01 15:35:23,597 -    INFO - Waiting completion for Application id: application_1498842842526_0096
2017-07-01 15:35:30,610 -    INFO - Gathering information for Application id: application_1498842842526_0096
2017-07-01 15:35:33,624 -    INFO - Info gathering is finished for Application: application_1498842842526_0096 
