2017-06-30 23:54:54,918 -    INFO - Start the replay for workload: workload_bigdata_seed1_jobs25
2017-06-30 23:55:18,804 -    INFO - /opt/spark/bin/spark-submit --master yarn --deploy-mode client --num-executors 8 --class cn.ac.ict.bigdatabench.WordCount /opt/BigDataBench_V3.2.5_Spark/JAR_FILE/bigdatabench-spark_1.3.0-hadoop_1.0.4.jar /user/mmercier/data-MicroBenchmarks-64 resultworkload_bigdata_seed1_jobs25#0
2017-06-30 23:55:18,807 -    INFO - Started Spark submit process for job:workload_bigdata_seed1_jobs25#0
2017-06-30 23:55:30,544 -    INFO - Application id: application_1498842842526_0019
2017-06-30 23:55:31,138 -    INFO - /opt/spark/bin/spark-submit --master yarn --deploy-mode client --num-executors 16 --class cn.ac.ict.bigdatabench.WordCount /opt/BigDataBench_V3.2.5_Spark/JAR_FILE/bigdatabench-spark_1.3.0-hadoop_1.0.4.jar /user/mmercier/data-MicroBenchmarks-128 resultworkload_bigdata_seed1_jobs25#1
2017-06-30 23:55:31,141 -    INFO - Started Spark submit process for job:workload_bigdata_seed1_jobs25#1
2017-06-30 23:55:43,233 -    INFO - Application id: application_1498842842526_0020
2017-06-30 23:55:58,061 -    INFO - /opt/spark/bin/spark-submit --master yarn --deploy-mode client --num-executors 4 --class cn.ac.ict.bigdatabench.Grep /opt/BigDataBench_V3.2.5_Spark/JAR_FILE/bigdatabench-spark_1.3.0-hadoop_1.0.4.jar /user/mmercier/data-MicroBenchmarks-32 word resultworkload_bigdata_seed1_jobs25#2
2017-06-30 23:55:58,067 -    INFO - Started Spark submit process for job:workload_bigdata_seed1_jobs25#2
2017-06-30 23:56:13,283 -    INFO - Application id: application_1498842842526_0021
2017-06-30 23:56:42,531 -    INFO - /opt/spark/bin/spark-submit --master yarn --deploy-mode client --num-executors 8 --class cn.ac.ict.bigdatabench.KMeans /opt/BigDataBench_V3.2.5_Spark/JAR_FILE/bigdatabench-spark_1.3.0-hadoop_1.0.4.jar /user/mmercier/data-SNS-Kmeans-64 4 3
2017-06-30 23:56:42,538 -    INFO - Started Spark submit process for job:workload_bigdata_seed1_jobs25#3
2017-06-30 23:56:55,642 -    INFO - Application id: application_1498842842526_0022
2017-06-30 23:58:14,184 -    INFO - /opt/spark/bin/spark-submit --master yarn --deploy-mode client --num-executors 8 --class cn.ac.ict.bigdatabench.WordCount /opt/BigDataBench_V3.2.5_Spark/JAR_FILE/bigdatabench-spark_1.3.0-hadoop_1.0.4.jar /user/mmercier/data-MicroBenchmarks-64 resultworkload_bigdata_seed1_jobs25#4
2017-06-30 23:58:14,191 -    INFO - Started Spark submit process for job:workload_bigdata_seed1_jobs25#4
2017-06-30 23:58:39,870 -    INFO - Application id: application_1498842842526_0023
2017-06-30 23:58:59,090 -    INFO - /opt/spark/bin/spark-submit --master yarn --deploy-mode client --num-executors 4 --class cn.ac.ict.bigdatabench.WordCount /opt/BigDataBench_V3.2.5_Spark/JAR_FILE/bigdatabench-spark_1.3.0-hadoop_1.0.4.jar /user/mmercier/data-MicroBenchmarks-32 resultworkload_bigdata_seed1_jobs25#5
2017-06-30 23:58:59,096 -    INFO - Started Spark submit process for job:workload_bigdata_seed1_jobs25#5
2017-06-30 23:59:17,925 -    INFO - Application id: application_1498842842526_0024
2017-06-30 23:59:25,765 -    INFO - /opt/spark/bin/spark-submit --master yarn --deploy-mode client --num-executors 16 --class cn.ac.ict.bigdatabench.WordCount /opt/BigDataBench_V3.2.5_Spark/JAR_FILE/bigdatabench-spark_1.3.0-hadoop_1.0.4.jar /user/mmercier/data-MicroBenchmarks-128 resultworkload_bigdata_seed1_jobs25#6
2017-06-30 23:59:25,772 -    INFO - Started Spark submit process for job:workload_bigdata_seed1_jobs25#6
2017-06-30 23:59:44,777 -    INFO - Application id: application_1498842842526_0025
2017-06-30 23:59:55,268 -    INFO - /opt/spark/bin/spark-submit --master yarn --deploy-mode client --num-executors 4 --class cn.ac.ict.bigdatabench.Grep /opt/BigDataBench_V3.2.5_Spark/JAR_FILE/bigdatabench-spark_1.3.0-hadoop_1.0.4.jar /user/mmercier/data-MicroBenchmarks-32 word resultworkload_bigdata_seed1_jobs25#7
2017-06-30 23:59:55,274 -    INFO - Started Spark submit process for job:workload_bigdata_seed1_jobs25#7
2017-07-01 00:00:14,916 -    INFO - Application id: application_1498842842526_0026
2017-07-01 00:03:03,903 -    INFO - /opt/spark/bin/spark-submit --master yarn --deploy-mode client --num-executors 8 --class cn.ac.ict.bigdatabench.Grep /opt/BigDataBench_V3.2.5_Spark/JAR_FILE/bigdatabench-spark_1.3.0-hadoop_1.0.4.jar /user/mmercier/data-MicroBenchmarks-64 word resultworkload_bigdata_seed1_jobs25#8
2017-07-01 00:03:03,909 -    INFO - Started Spark submit process for job:workload_bigdata_seed1_jobs25#8
2017-07-01 00:03:16,644 -    INFO - Application id: application_1498842842526_0027
2017-07-01 00:03:28,951 -    INFO - /opt/spark/bin/spark-submit --master yarn --deploy-mode client --num-executors 4 --class cn.ac.ict.bigdatabench.Grep /opt/BigDataBench_V3.2.5_Spark/JAR_FILE/bigdatabench-spark_1.3.0-hadoop_1.0.4.jar /user/mmercier/data-MicroBenchmarks-32 word resultworkload_bigdata_seed1_jobs25#9
2017-07-01 00:03:28,958 -    INFO - Started Spark submit process for job:workload_bigdata_seed1_jobs25#9
2017-07-01 00:03:41,985 -    INFO - Application id: application_1498842842526_0028
2017-07-01 00:04:10,096 -    INFO - /opt/spark/bin/spark-submit --master yarn --deploy-mode client --num-executors 4 --class cn.ac.ict.bigdatabench.Grep /opt/BigDataBench_V3.2.5_Spark/JAR_FILE/bigdatabench-spark_1.3.0-hadoop_1.0.4.jar /user/mmercier/data-MicroBenchmarks-32 word resultworkload_bigdata_seed1_jobs25#10
2017-07-01 00:04:10,103 -    INFO - Started Spark submit process for job:workload_bigdata_seed1_jobs25#10
2017-07-01 00:04:22,509 -    INFO - Application id: application_1498842842526_0029
2017-07-01 00:05:47,872 -    INFO - Process is finished for Application: application_1498842842526_0019
2017-07-01 00:05:47,872 -    INFO - Waiting completion for Application id: application_1498842842526_0019
2017-07-01 00:05:53,916 -    INFO - Gathering information for Application id: application_1498842842526_0019
2017-07-01 00:05:56,544 -    INFO - Info gathering is finished for Application: application_1498842842526_0019 
2017-07-01 00:05:56,545 -    INFO - /opt/spark/bin/spark-submit --master yarn --deploy-mode client --num-executors 8 --class cn.ac.ict.bigdatabench.WordCount /opt/BigDataBench_V3.2.5_Spark/JAR_FILE/bigdatabench-spark_1.3.0-hadoop_1.0.4.jar /user/mmercier/data-MicroBenchmarks-64 resultworkload_bigdata_seed1_jobs25#11
2017-07-01 00:05:56,549 -    INFO - Started Spark submit process for job:workload_bigdata_seed1_jobs25#11
2017-07-01 00:06:10,530 -    INFO - Application id: application_1498842842526_0030
2017-07-01 00:06:40,865 -    INFO - Process is finished for Application: application_1498842842526_0021
2017-07-01 00:06:40,865 -    INFO - Waiting completion for Application id: application_1498842842526_0021
2017-07-01 00:06:43,885 -    INFO - Gathering information for Application id: application_1498842842526_0021
2017-07-01 00:06:46,443 -    INFO - Info gathering is finished for Application: application_1498842842526_0021 
2017-07-01 00:08:24,889 -    INFO - /opt/spark/bin/spark-submit --master yarn --deploy-mode client --num-executors 16 --class cn.ac.ict.bigdatabench.Grep /opt/BigDataBench_V3.2.5_Spark/JAR_FILE/bigdatabench-spark_1.3.0-hadoop_1.0.4.jar /user/mmercier/data-MicroBenchmarks-128 word resultworkload_bigdata_seed1_jobs25#12
2017-07-01 00:08:24,898 -    INFO - Started Spark submit process for job:workload_bigdata_seed1_jobs25#12
2017-07-01 00:08:30,490 -    INFO - /opt/spark/bin/spark-submit --master yarn --deploy-mode client --num-executors 8 --class cn.ac.ict.bigdatabench.KMeans /opt/BigDataBench_V3.2.5_Spark/JAR_FILE/bigdatabench-spark_1.3.0-hadoop_1.0.4.jar /user/mmercier/data-SNS-Kmeans-64 4 3
2017-07-01 00:08:30,496 -    INFO - Started Spark submit process for job:workload_bigdata_seed1_jobs25#13
2017-07-01 00:08:37,642 -    INFO - Application id: application_1498842842526_0031
2017-07-01 00:08:45,395 -    INFO - Application id: application_1498842842526_0032
2017-07-01 00:09:45,403 -    INFO - /opt/spark/bin/spark-submit --master yarn --deploy-mode client --num-executors 8 --class cn.ac.ict.bigdatabench.Grep /opt/BigDataBench_V3.2.5_Spark/JAR_FILE/bigdatabench-spark_1.3.0-hadoop_1.0.4.jar /user/mmercier/data-MicroBenchmarks-64 word resultworkload_bigdata_seed1_jobs25#14
2017-07-01 00:09:45,411 -    INFO - Started Spark submit process for job:workload_bigdata_seed1_jobs25#14
2017-07-01 00:09:54,750 -    INFO - /opt/spark/bin/spark-submit --master yarn --deploy-mode client --num-executors 4 --class cn.ac.ict.bigdatabench.KMeans /opt/BigDataBench_V3.2.5_Spark/JAR_FILE/bigdatabench-spark_1.3.0-hadoop_1.0.4.jar /user/mmercier/data-SNS-Kmeans-32 4 3
2017-07-01 00:09:54,758 -    INFO - Started Spark submit process for job:workload_bigdata_seed1_jobs25#15
2017-07-01 00:10:01,361 -    INFO - Application id: application_1498842842526_0033
2017-07-01 00:10:13,837 -    INFO - Application id: application_1498842842526_0034
2017-07-01 00:11:14,963 -    INFO - Process is finished for Application: application_1498842842526_0020
2017-07-01 00:11:14,963 -    INFO - Waiting completion for Application id: application_1498842842526_0020
2017-07-01 00:11:16,977 -    INFO - Gathering information for Application id: application_1498842842526_0020
2017-07-01 00:11:19,741 -    INFO - Info gathering is finished for Application: application_1498842842526_0020 
2017-07-01 00:13:01,988 -    INFO - /opt/spark/bin/spark-submit --master yarn --deploy-mode client --num-executors 4 --class cn.ac.ict.bigdatabench.KMeans /opt/BigDataBench_V3.2.5_Spark/JAR_FILE/bigdatabench-spark_1.3.0-hadoop_1.0.4.jar /user/mmercier/data-SNS-Kmeans-32 4 3
2017-07-01 00:13:01,996 -    INFO - Started Spark submit process for job:workload_bigdata_seed1_jobs25#16
2017-07-01 00:13:16,876 -    INFO - Application id: application_1498842842526_0035
2017-07-01 00:13:36,653 -    INFO - /opt/spark/bin/spark-submit --master yarn --deploy-mode client --num-executors 4 --class cn.ac.ict.bigdatabench.KMeans /opt/BigDataBench_V3.2.5_Spark/JAR_FILE/bigdatabench-spark_1.3.0-hadoop_1.0.4.jar /user/mmercier/data-SNS-Kmeans-32 4 3
2017-07-01 00:13:36,664 -    INFO - Started Spark submit process for job:workload_bigdata_seed1_jobs25#17
2017-07-01 00:13:54,992 -    INFO - Application id: application_1498842842526_0036
2017-07-01 00:13:57,185 -    INFO - /opt/spark/bin/spark-submit --master yarn --deploy-mode client --num-executors 4 --class cn.ac.ict.bigdatabench.KMeans /opt/BigDataBench_V3.2.5_Spark/JAR_FILE/bigdatabench-spark_1.3.0-hadoop_1.0.4.jar /user/mmercier/data-SNS-Kmeans-32 4 3
2017-07-01 00:13:57,193 -    INFO - Started Spark submit process for job:workload_bigdata_seed1_jobs25#18
2017-07-01 00:14:15,866 -    INFO - Application id: application_1498842842526_0037
2017-07-01 00:15:03,898 -    INFO - /opt/spark/bin/spark-submit --master yarn --deploy-mode client --num-executors 16 --class cn.ac.ict.bigdatabench.WordCount /opt/BigDataBench_V3.2.5_Spark/JAR_FILE/bigdatabench-spark_1.3.0-hadoop_1.0.4.jar /user/mmercier/data-MicroBenchmarks-128 resultworkload_bigdata_seed1_jobs25#19
2017-07-01 00:15:03,907 -    INFO - Started Spark submit process for job:workload_bigdata_seed1_jobs25#19
2017-07-01 00:15:16,424 -    INFO - Application id: application_1498842842526_0038
2017-07-01 00:15:31,688 -    INFO - /opt/spark/bin/spark-submit --master yarn --deploy-mode client --num-executors 16 --class cn.ac.ict.bigdatabench.KMeans /opt/BigDataBench_V3.2.5_Spark/JAR_FILE/bigdatabench-spark_1.3.0-hadoop_1.0.4.jar /user/mmercier/data-SNS-Kmeans-128 4 3
2017-07-01 00:15:31,699 -    INFO - Started Spark submit process for job:workload_bigdata_seed1_jobs25#20
2017-07-01 00:15:34,972 - WARNING - Shutdown called in Spark application workload_bigdata_seed1_jobs25#20
2017-07-01 00:16:21,215 -    INFO - /opt/spark/bin/spark-submit --master yarn --deploy-mode client --num-executors 8 --class cn.ac.ict.bigdatabench.KMeans /opt/BigDataBench_V3.2.5_Spark/JAR_FILE/bigdatabench-spark_1.3.0-hadoop_1.0.4.jar /user/mmercier/data-SNS-Kmeans-64 4 3
2017-07-01 00:16:21,224 -    INFO - Started Spark submit process for job:workload_bigdata_seed1_jobs25#21
2017-07-01 00:16:24,437 - WARNING - Shutdown called in Spark application workload_bigdata_seed1_jobs25#21
2017-07-01 00:18:49,716 -    INFO - Process is finished for Application: application_1498842842526_0026
2017-07-01 00:18:49,716 -    INFO - Waiting completion for Application id: application_1498842842526_0026
2017-07-01 00:18:59,786 -    INFO - Gathering information for Application id: application_1498842842526_0026
2017-07-01 00:19:02,377 -    INFO - Info gathering is finished for Application: application_1498842842526_0026 
2017-07-01 00:19:21,957 -    INFO - /opt/spark/bin/spark-submit --master yarn --deploy-mode client --num-executors 4 --class cn.ac.ict.bigdatabench.WordCount /opt/BigDataBench_V3.2.5_Spark/JAR_FILE/bigdatabench-spark_1.3.0-hadoop_1.0.4.jar /user/mmercier/data-MicroBenchmarks-32 resultworkload_bigdata_seed1_jobs25#22
2017-07-01 00:19:21,965 -    INFO - Started Spark submit process for job:workload_bigdata_seed1_jobs25#22
2017-07-01 00:19:36,922 -    INFO - Application id: application_1498842842526_0039
2017-07-01 00:19:46,047 -    INFO - /opt/spark/bin/spark-submit --master yarn --deploy-mode client --num-executors 16 --class cn.ac.ict.bigdatabench.KMeans /opt/BigDataBench_V3.2.5_Spark/JAR_FILE/bigdatabench-spark_1.3.0-hadoop_1.0.4.jar /user/mmercier/data-SNS-Kmeans-128 4 3
2017-07-01 00:19:46,059 -    INFO - Started Spark submit process for job:workload_bigdata_seed1_jobs25#23
2017-07-01 00:19:49,140 - WARNING - Unable to schedule Spark application workload_bigdata_seed1_jobs25#23
2017-07-01 00:20:17,538 -    INFO - /opt/spark/bin/spark-submit --master yarn --deploy-mode client --num-executors 4 --class cn.ac.ict.bigdatabench.Grep /opt/BigDataBench_V3.2.5_Spark/JAR_FILE/bigdatabench-spark_1.3.0-hadoop_1.0.4.jar /user/mmercier/data-MicroBenchmarks-32 word resultworkload_bigdata_seed1_jobs25#24
2017-07-01 00:20:17,548 -    INFO - Started Spark submit process for job:workload_bigdata_seed1_jobs25#24
2017-07-01 00:20:20,625 - WARNING - Unable to schedule Spark application workload_bigdata_seed1_jobs25#24
2017-07-01 00:22:50,905 -    INFO - Process is finished for Application: application_1498842842526_0024
2017-07-01 00:22:50,906 -    INFO - Waiting completion for Application id: application_1498842842526_0024
2017-07-01 00:23:00,975 -    INFO - Gathering information for Application id: application_1498842842526_0024
2017-07-01 00:23:03,671 -    INFO - Info gathering is finished for Application: application_1498842842526_0024 
2017-07-01 01:10:47,575 -    INFO - Process is finished for Application: application_1498842842526_0023
2017-07-01 01:10:47,575 -    INFO - Waiting completion for Application id: application_1498842842526_0023
2017-07-01 01:10:54,624 -    INFO - Gathering information for Application id: application_1498842842526_0023
2017-07-01 01:10:57,630 -    INFO - Info gathering is finished for Application: application_1498842842526_0023 
2017-07-01 01:11:38,940 -    INFO - Process is finished for Application: application_1498842842526_0027
2017-07-01 01:11:38,940 -    INFO - Waiting completion for Application id: application_1498842842526_0027
2017-07-01 01:11:46,993 -    INFO - Gathering information for Application id: application_1498842842526_0027
2017-07-01 01:11:49,622 -    INFO - Info gathering is finished for Application: application_1498842842526_0027 
2017-07-01 01:13:12,031 -    INFO - Process is finished for Application: application_1498842842526_0025
2017-07-01 01:13:12,031 -    INFO - Waiting completion for Application id: application_1498842842526_0025
2017-07-01 01:13:18,072 -    INFO - Gathering information for Application id: application_1498842842526_0025
2017-07-01 01:13:21,420 -    INFO - Info gathering is finished for Application: application_1498842842526_0025 
2017-07-01 01:25:57,131 -    INFO - Process is finished for Application: application_1498842842526_0029
2017-07-01 01:25:57,131 -    INFO - Waiting completion for Application id: application_1498842842526_0029
2017-07-01 01:26:02,459 -    INFO - Gathering information for Application id: application_1498842842526_0029
2017-07-01 01:26:05,437 -    INFO - Info gathering is finished for Application: application_1498842842526_0029 
2017-07-01 01:26:05,438 -    INFO - Process is finished for Application: application_1498842842526_0028
2017-07-01 01:26:05,438 -    INFO - Waiting completion for Application id: application_1498842842526_0028
2017-07-01 01:26:06,445 -    INFO - Gathering information for Application id: application_1498842842526_0028
2017-07-01 01:26:09,212 -    INFO - Info gathering is finished for Application: application_1498842842526_0028 
2017-07-01 01:58:38,195 -    INFO - Process is finished for Application: application_1498842842526_0022
2017-07-01 01:58:38,195 -    INFO - Waiting completion for Application id: application_1498842842526_0022
2017-07-01 01:58:52,294 -    INFO - Gathering information for Application id: application_1498842842526_0022
2017-07-01 01:59:05,005 -    INFO - Info gathering is finished for Application: application_1498842842526_0022 
2017-07-01 02:07:57,375 -    INFO - Process is finished for Application: application_1498842842526_0031
2017-07-01 02:07:57,376 -    INFO - Waiting completion for Application id: application_1498842842526_0031
2017-07-01 02:08:04,422 -    INFO - Gathering information for Application id: application_1498842842526_0031
2017-07-01 02:08:07,411 -    INFO - Info gathering is finished for Application: application_1498842842526_0031 
2017-07-01 02:09:26,728 -    INFO - Process is finished for Application: application_1498842842526_0030
2017-07-01 02:09:26,728 -    INFO - Waiting completion for Application id: application_1498842842526_0030
2017-07-01 02:09:34,782 -    INFO - Gathering information for Application id: application_1498842842526_0030
2017-07-01 02:09:38,220 -    INFO - Info gathering is finished for Application: application_1498842842526_0030 
2017-07-01 02:24:26,344 -    INFO - Process is finished for Application: application_1498842842526_0033
2017-07-01 02:24:26,344 -    INFO - Waiting completion for Application id: application_1498842842526_0033
2017-07-01 02:24:28,358 -    INFO - Gathering information for Application id: application_1498842842526_0033
2017-07-01 02:24:30,999 -    INFO - Info gathering is finished for Application: application_1498842842526_0033 
2017-07-01 03:28:00,378 -    INFO - Process is finished for Application: application_1498842842526_0039
2017-07-01 03:28:00,378 -    INFO - Waiting completion for Application id: application_1498842842526_0039
2017-07-01 03:28:09,439 -    INFO - Gathering information for Application id: application_1498842842526_0039
2017-07-01 03:28:12,034 -    INFO - Info gathering is finished for Application: application_1498842842526_0039 
2017-07-01 03:30:49,419 -    INFO - Process is finished for Application: application_1498842842526_0038
2017-07-01 03:30:49,419 -    INFO - Waiting completion for Application id: application_1498842842526_0038
2017-07-01 03:30:50,426 -    INFO - Gathering information for Application id: application_1498842842526_0038
2017-07-01 03:30:53,329 -    INFO - Info gathering is finished for Application: application_1498842842526_0038 
2017-07-01 03:41:15,563 -    INFO - received stop signal, cancelling tasks...
2017-07-01 03:41:15,563 -    INFO - Gathering all logs
2017-07-01 03:41:15,564 -    INFO - Waiting completion for Application id: application_1498842842526_0034
2017-07-01 03:41:23,093 -    INFO - Gathering information for Application id: application_1498842842526_0034
2017-07-01 03:41:26,164 -    INFO - Info gathering is finished for Application: application_1498842842526_0034 
2017-07-01 03:41:26,165 -    INFO - Waiting completion for Application id: application_1498842842526_0037
2017-07-01 03:41:32,740 -    INFO - Gathering information for Application id: application_1498842842526_0037
2017-07-01 03:41:35,484 -    INFO - Info gathering is finished for Application: application_1498842842526_0037 
2017-07-01 03:41:35,486 -    INFO - Waiting completion for Application id: application_1498842842526_0035
2017-07-01 03:41:43,534 -    INFO - Gathering information for Application id: application_1498842842526_0035
2017-07-01 03:41:46,490 -    INFO - Info gathering is finished for Application: application_1498842842526_0035 
2017-07-01 03:41:46,491 -    INFO - Waiting completion for Application id: application_1498842842526_0032
2017-07-01 03:41:56,081 -    INFO - Gathering information for Application id: application_1498842842526_0032
2017-07-01 03:42:02,272 -    INFO - Info gathering is finished for Application: application_1498842842526_0032 
2017-07-01 03:42:02,273 -    INFO - Waiting completion for Application id: application_1498842842526_0036
2017-07-01 03:42:06,205 -    INFO - Gathering information for Application id: application_1498842842526_0036
2017-07-01 03:42:08,966 -    INFO - Info gathering is finished for Application: application_1498842842526_0036 
