batsim_id,spark_app_id
workload_bigdata_seed3_jobs25#0,application_1499188398671_0036
workload_bigdata_seed3_jobs25#1,application_1499188398671_0037
workload_bigdata_seed3_jobs25#2,application_1499188398671_0038
workload_bigdata_seed3_jobs25#3,application_1499188398671_0039
workload_bigdata_seed3_jobs25#4,application_1499188398671_0040
workload_bigdata_seed3_jobs25#5,application_1499188398671_0041
workload_bigdata_seed3_jobs25#6,application_1499188398671_0042
workload_bigdata_seed3_jobs25#7,application_1499188398671_0043
workload_bigdata_seed3_jobs25#8,application_1499188398671_0044
workload_bigdata_seed3_jobs25#9,application_1499188398671_0045
workload_bigdata_seed3_jobs25#10,application_1499188398671_0046
workload_bigdata_seed3_jobs25#11,application_1499188398671_0047
workload_bigdata_seed3_jobs25#12,application_1499188398671_0048
workload_bigdata_seed3_jobs25#13,application_1499188398671_0049
workload_bigdata_seed3_jobs25#14,application_1499188398671_0050
workload_bigdata_seed3_jobs25#15,application_1499188398671_0051
workload_bigdata_seed3_jobs25#16,application_1499188398671_0052
