,ANY,NODE_LOCAL,NO_PREF,PROCESS_LOCAL,RACK_LOCAL,app_id,app_type,longest_task_execution_time,nb_complete_stages,nb_complete_tasks,nb_failed_tasks,nb_necessary_tasks,nb_resubmitted_tasks,nb_started_stages,nb_started_tasks,time_in_complete_task,time_in_complete_task_after_filter,time_in_failed_task,time_in_failed_task_after_filter,time_in_resubmitted_tasks,time_in_resubmitted_tasks_after_filter
0,0,5180,0,0,2767,application_1499274788757_0020,BigDataBench WordCount,146922,0,3710,527,0,3710,1,4237,38908439,0,7074282,0,38914903,0
1,0,1814,0,1024,1124,application_1499274788757_0021,BigDataBench WordCount,139353,2,2984,42,2048,936,2,3026,23757622,0,1040540,0,9763675,0
2,0,80,0,0,189,application_1499274788757_0022,BigDataBench Grep,130747,1,256,13,256,0,1,269,3931967,0,793247,0,0,0
3,0,4517,0,2054,2670,application_1499274788757_0023,BigDataBench KMeans,218275,15,8161,689,7770,391,15,8850,119479366,9253255,9154646,0,4343177,0
4,0,2607,0,557,1372,application_1499274788757_0024,BigDataBench WordCount,140624,4,2699,175,1509,1662,4,2874,27170497,0,2713473,0,19074717,0
5,0,889,0,0,722,application_1499274788757_0025,BigDataBench WordCount,143032,2,1028,67,512,516,2,1095,6693894,0,1093371,0,4162209,0
6,0,8803,0,1024,2142,application_1499274788757_0026,BigDataBench WordCount,226789,2,6777,463,2048,4729,2,7240,57548042,0,7259505,0,47809307,0
7,0,61,0,0,203,application_1499274788757_0027,BigDataBench Grep,134344,1,256,8,256,0,1,264,2320837,0,50254,0,0,0
8,0,270,0,0,261,application_1499274788757_0028,BigDataBench Grep,275467,1,512,19,512,0,1,531,6305171,0,275318,0,0,0
9,0,77,0,0,191,application_1499274788757_0029,BigDataBench Grep,286944,1,256,12,256,0,1,268,5605602,0,364818,0,0,0
10,0,79,0,0,182,application_1499274788757_0030,BigDataBench Grep,223831,1,256,5,256,0,1,261,7418088,0,152295,0,0,0
11,0,1679,0,0,749,application_1499274788757_0031,BigDataBench WordCount,108821,2,1694,64,1024,670,2,1758,15929502,3563993,1178238,0,8408401,0
12,0,557,0,0,513,application_1499274788757_0032,BigDataBench Grep,268893,1,1024,46,1024,0,1,1070,16150604,0,639603,0,0,0
13,0,172,0,0,165,application_1499274788757_0033,BigDataBench KMeans,501210,0,337,0,0,0,1,355,20133219,20133219,0,0,0,0
14,0,186,0,0,260,application_1499274788757_0034,BigDataBench Grep,264386,0,446,0,0,0,1,462,17173543,17173543,0,0,0,0
15,0,145,0,0,111,application_1499274788757_0035,BigDataBench KMeans,508977,0,256,0,0,0,1,259,17160800,17160800,0,0,0,0
16,0,54,0,0,53,application_1499274788757_0036,BigDataBench KMeans,479982,0,107,0,0,0,1,115,7452446,7452446,0,0,0,0
17,0,41,0,0,62,application_1499274788757_0037,BigDataBench KMeans,493612,0,103,0,0,0,1,111,8412621,8412621,0,0,0,0
18,0,732,0,1024,292,application_1499274788757_0038,BigDataBench WordCount,272640,2,2048,0,2048,0,2,2048,13058847,13058847,0,0,0,0
