,ANY,NODE_LOCAL,NO_PREF,PROCESS_LOCAL,RACK_LOCAL,app_id,app_type,longest_task_execution_time,nb_complete_stages,nb_complete_tasks,nb_failed_tasks,nb_necessary_tasks,nb_resubmitted_tasks,nb_started_stages,nb_started_tasks,time_in_complete_task,time_in_complete_task_after_filter,time_in_failed_task,time_in_failed_task_after_filter,time_in_resubmitted_tasks,time_in_resubmitted_tasks_after_filter
0,0,5479,0,0,1164,application_1499188398671_0018,BigDataBench KMeans,214747,5,5759,884,5195,0,6,6643,100555910,0,15888505,0,0,0
1,0,4221,0,0,1479,application_1499188398671_0019,BigDataBench KMeans,135535,6,4133,542,3108,1025,7,4675,76094495,0,5167408,0,10446584,0
2,0,273,0,512,297,application_1499188398671_0020,BigDataBench WordCount,123283,2,1048,10,1024,24,2,1058,11848977,0,42595,0,168082,0
3,0,3058,0,0,1062,application_1499188398671_0021,BigDataBench KMeans,601334,3,3733,387,3117,0,4,4152,84323496,37189508,5498701,0,0,0
4,0,702,0,0,649,application_1499188398671_0022,BigDataBench WordCount,143295,2,906,51,512,394,2,957,8358761,845720,643255,0,4349805,0
5,0,822,0,0,986,application_1499188398671_0023,BigDataBench KMeans,109720,6,1776,32,1554,0,7,1822,20488323,16895920,476791,0,0,0
6,0,424,0,0,173,application_1499188398671_0024,BigDataBench WordCount,298477,2,549,11,512,37,2,560,8857585,6295499,34453,0,264347,0
7,0,172,0,512,356,application_1499188398671_0025,BigDataBench WordCount,278042,2,1030,4,1024,6,2,1034,10948059,9115141,20382,0,47925,0
8,0,51,0,0,170,application_1499188398671_0026,BigDataBench WordCount,348504,0,221,0,0,0,1,229,10113125,9240010,0,0,0,0
9,0,558,0,0,156,application_1499188398671_0027,BigDataBench KMeans,584436,0,710,4,0,0,1,746,31669049,31501104,3681,0,0,0
10,0,60,0,0,137,application_1499188398671_0028,BigDataBench WordCount,323252,0,197,0,0,0,1,205,7813659,7813659,0,0,0,0
11,0,35,0,0,75,application_1499188398671_0029,BigDataBench WordCount,340003,0,110,0,0,0,1,118,6213940,6213940,0,0,0,0
12,0,58,0,0,27,application_1499188398671_0030,BigDataBench WordCount,327213,0,85,0,0,0,1,93,2950454,2950454,0,0,0,0
13,0,167,0,0,0,application_1499188398671_0032,BigDataBench KMeans,16038,0,167,0,0,0,1,199,1445067,1445067,0,0,0,0
14,0,8,0,0,0,application_1499188398671_0033,BigDataBench Grep,5598,0,8,0,0,0,1,14,29431,29431,0,0,0,0
15,0,0,0,0,0,application_1499188398671_0034,BigDataBench KMeans,0,0,0,0,0,0,1,8,0,0,0,0,0,0
