,ANY,NODE_LOCAL,NO_PREF,PROCESS_LOCAL,RACK_LOCAL,app_id,app_type,longest_task_execution_time,nb_complete_stages,nb_complete_tasks,nb_failed_tasks,nb_necessary_tasks,nb_resubmitted_tasks,nb_started_stages,nb_started_tasks,time_in_complete_task,time_in_complete_task_after_filter,time_in_failed_task,time_in_failed_task_after_filter,time_in_resubmitted_tasks,time_in_resubmitted_tasks_after_filter
0,0,2091,0,1024,562,application_1500074653944_0058,BigDataBench WordCount,231998,2,2843,39,2048,795,2,2882,27867988,0,657037,0,8725906,0
1,0,861,0,0,182,application_1500074653944_0059,BigDataBench Grep,163907,1,1024,19,1024,0,1,1043,17209036,0,1351167,0,0,0
2,0,1756,0,1024,571,application_1500074653944_0060,BigDataBench WordCount,222549,2,2685,29,2048,637,2,2714,24730159,0,3769710,0,4870823,0
3,0,1795,0,0,924,application_1500074653944_0061,BigDataBench KMeans,542048,4,2075,644,2072,0,5,2719,47292006,0,9990190,0,0,0
4,0,864,0,0,556,application_1500074653944_0062,BigDataBench WordCount,157599,2,1218,8,1024,194,2,1226,8390005,0,494431,0,2481069,0
5,0,4820,0,2069,1380,application_1500074653944_0063,BigDataBench KMeans,570272,15,7770,499,7770,0,15,8269,83439880,0,16060228,0,0,0
6,0,2141,0,1030,821,application_1500074653944_0064,BigDataBench KMeans,458906,15,3885,107,3885,0,15,3992,34104301,0,5923310,0,0,0
7,0,305,0,0,530,application_1500074653944_0065,BigDataBench KMeans,585255,3,777,58,777,0,4,843,32838681,9995422,3245470,0,0,0
8,0,523,0,0,686,application_1500074653944_0066,BigDataBench KMeans,488986,4,1168,41,1036,0,5,1225,42224527,15350119,2193934,0,0,0
9,0,1147,0,0,516,application_1500074653944_0067,BigDataBench KMeans,706105,2,1549,114,1036,0,3,1668,62898690,25620573,5995311,0,0,0
10,0,430,0,0,180,application_1500074653944_0068,BigDataBench Grep,309195,1,512,98,512,0,1,610,7560891,0,5622852,0,0,0
11,0,187,0,0,179,application_1500074653944_0069,BigDataBench KMeans,450345,1,354,12,259,0,2,374,15325575,7145537,950376,0,0,0
12,0,62,0,0,194,application_1500074653944_0070,BigDataBench Grep,113523,1,256,0,256,0,1,256,3775310,0,0,0,0,0
13,0,318,0,0,194,application_1500074653944_0071,BigDataBench WordCount,114698,2,512,0,512,0,2,512,3631818,46461,0,0,0,0
14,0,679,0,1024,345,application_1500074653944_0072,BigDataBench WordCount,221834,2,2048,0,2048,0,2,2048,14468783,6184285,0,0,0,0
15,0,75,0,0,15,application_1500074653944_0073,BigDataBench KMeans,362212,0,90,0,0,0,1,98,2612185,2612185,0,0,0,0
16,0,62,0,0,194,application_1500074653944_0074,BigDataBench Grep,103249,1,256,0,256,0,1,256,2398562,2398562,0,0,0,0
17,0,254,0,0,190,application_1500074653944_0075,BigDataBench WordCount,409983,0,444,0,0,0,1,462,19393439,19393439,0,0,0,0
18,0,259,0,0,176,application_1500074653944_0076,BigDataBench WordCount,379334,0,435,0,0,0,1,453,14394352,14394352,0,0,0,0
