,ANY,NODE_LOCAL,NO_PREF,PROCESS_LOCAL,RACK_LOCAL,app_id,app_type,longest_task_execution_time,nb_complete_stages,nb_complete_tasks,nb_failed_tasks,nb_necessary_tasks,nb_resubmitted_tasks,nb_started_stages,nb_started_tasks,time_in_complete_task,time_in_complete_task_after_filter,time_in_failed_task,time_in_failed_task_after_filter,time_in_resubmitted_tasks,time_in_resubmitted_tasks_after_filter
0,0,508,0,512,477,application_1500074653944_0077,BigDataBench WordCount,178317,2,1250,21,1024,226,2,1271,15634229,0,843586,0,2860919,0
1,0,2149,0,1024,537,application_1500074653944_0078,BigDataBench WordCount,198374,2,2855,48,2048,807,2,2903,25842391,0,1118268,0,8997869,0
2,0,73,0,0,192,application_1500074653944_0079,BigDataBench Grep,190533,1,256,9,256,0,1,265,5133551,0,333137,0,0,0
3,0,2053,0,0,1570,application_1500074653944_0080,BigDataBench KMeans,850442,6,3151,472,3108,0,7,3651,146260087,14519382,10490399,0,0,0
4,0,4416,0,512,3426,application_1500074653944_0081,BigDataBench WordCount,266584,2,4495,388,1024,3471,2,4883,70916858,0,7611139,0,56057749,0
5,0,604,0,0,977,application_1500074653944_0082,BigDataBench WordCount,198944,6,1166,53,1026,362,6,1219,13352063,0,916052,0,4728290,0
6,0,9912,0,1024,3627,application_1500074653944_0083,BigDataBench WordCount,253072,2,8079,453,2048,6031,2,8532,76081495,0,4043319,0,63155762,0
7,0,121,0,0,174,application_1500074653944_0084,BigDataBench Grep,175524,1,256,39,256,0,1,295,3314975,0,908356,0,0,0
8,0,253,0,0,273,application_1500074653944_0085,BigDataBench Grep,196632,1,512,14,512,0,1,526,13098492,0,740406,0,0,0
9,0,63,0,0,199,application_1500074653944_0086,BigDataBench Grep,180291,1,256,6,256,0,1,262,7423106,0,123808,0,0,0
10,0,108,0,0,172,application_1500074653944_0087,BigDataBench Grep,168666,1,256,24,256,0,1,280,3804392,0,503344,0,0,0
11,0,1946,0,512,442,application_1500074653944_0088,BigDataBench WordCount,395647,2,1913,98,1024,889,2,2011,31515542,66790,1094625,0,7209815,0
12,0,522,0,0,594,application_1500074653944_0089,BigDataBench Grep,86923,1,1024,92,1024,0,1,1116,7752746,0,937892,0,0,0
13,0,269,0,0,227,application_1500074653944_0090,BigDataBench KMeans,829305,0,496,0,0,0,1,518,57693374,20381272,0,0,0,0
14,0,202,0,0,283,application_1500074653944_0091,BigDataBench Grep,450968,0,485,0,0,0,1,501,32278217,16550298,0,0,0,0
15,0,42,0,0,56,application_1500074653944_0092,BigDataBench KMeans,709139,0,98,0,0,0,1,106,13896928,7591926,0,0,0,0
16,0,47,0,0,43,application_1500074653944_0093,BigDataBench KMeans,825196,0,90,0,0,0,1,98,9212775,9212775,0,0,0,0
17,0,278,0,0,109,application_1500074653944_0096,BigDataBench KMeans,850500,0,387,0,0,0,1,407,21908985,21908985,0,0,0,0
