,ANY,NODE_LOCAL,NO_PREF,PROCESS_LOCAL,RACK_LOCAL,app_id,app_type,longest_task_execution_time,nb_complete_stages,nb_complete_tasks,nb_failed_tasks,nb_necessary_tasks,nb_resubmitted_tasks,nb_started_stages,nb_started_tasks,time_in_complete_task,time_in_complete_task_after_filter,time_in_failed_task,time_in_failed_task_after_filter,time_in_resubmitted_tasks,time_in_resubmitted_tasks_after_filter
0,0,1066,0,0,644,application_1498842842526_0077,BigDataBench WordCount,177864,2,1350,34,1024,326,2,1384,14768815,0,1529540,0,4138722,0
1,0,1887,0,1024,742,application_1498842842526_0078,BigDataBench WordCount,189866,2,2829,43,2048,781,2,2872,25271428,0,1983879,0,8646101,0
2,0,70,0,0,202,application_1498842842526_0079,BigDataBench Grep,146714,1,256,16,256,0,1,272,4449357,0,518720,0,0,0
3,0,2058,0,0,992,application_1498842842526_0080,BigDataBench KMeans,310159,4,2446,604,2072,0,5,3050,64993822,0,10161525,0,0,0
4,0,974,0,0,527,application_1498842842526_0081,BigDataBench WordCount,179278,2,1252,21,1024,228,2,1273,18936971,0,638470,0,4293253,0
5,0,460,0,0,235,application_1498842842526_0082,BigDataBench WordCount,154412,2,597,13,512,85,2,610,6570257,0,821390,0,660270,0
6,0,1970,0,1024,989,application_1498842842526_0083,BigDataBench WordCount,170078,2,2988,55,2048,940,2,3043,27661238,0,1338948,0,8651002,0
7,0,56,0,0,202,application_1498842842526_0084,BigDataBench Grep,151774,1,256,2,256,0,1,258,5378718,0,47485,0,0,0
8,0,273,0,0,265,application_1498842842526_0085,BigDataBench Grep,150977,1,512,26,512,0,1,538,11640316,0,390064,0,0,0
9,0,118,0,0,173,application_1498842842526_0086,BigDataBench Grep,91687,1,256,35,256,0,1,291,2970337,0,513476,0,0,0
10,0,146,0,0,157,application_1498842842526_0087,BigDataBench Grep,81430,1,256,47,256,0,1,303,2528477,0,552725,0,0,0
11,0,5174,0,512,1691,application_1498842842526_0088,BigDataBench WordCount,276568,2,4012,377,1024,2988,2,4389,52217967,0,6923642,0,34030716,0
12,0,831,0,0,262,application_1498842842526_0089,BigDataBench Grep,75507,1,1024,69,1024,0,1,1093,13642951,0,680622,0,0,0
13,0,1479,0,0,907,application_1498842842526_0090,BigDataBench KMeans,473509,3,2020,366,1554,0,4,2402,71813459,15572754,7601133,0,0,0
14,0,395,0,0,204,application_1498842842526_0091,BigDataBench Grep,147874,1,512,87,512,0,1,599,4387651,0,3579636,0,0,0
15,0,522,0,0,542,application_1498842842526_0092,BigDataBench KMeans,434058,3,935,129,777,0,4,1078,37842014,12691789,4154439,0,0,0
16,0,517,0,0,564,application_1498842842526_0093,BigDataBench KMeans,454005,3,982,99,777,0,4,1095,39022660,15041665,3689812,0,0,0
17,0,239,0,0,311,application_1498842842526_0094,BigDataBench KMeans,476484,1,489,61,259,0,2,558,23120222,8531395,2716540,0,0,0
18,0,2441,0,1024,372,application_1498842842526_0095,BigDataBench WordCount,230285,2,2860,165,2048,812,2,3025,18030263,0,627393,0,6642531,0
19,0,439,0,0,358,application_1498842842526_0096,BigDataBench KMeans,479440,1,797,0,518,0,2,813,39041090,16549090,0,0,0,0
