,ANY,NODE_LOCAL,NO_PREF,PROCESS_LOCAL,RACK_LOCAL,app_id,app_type,longest_task_execution_time,nb_complete_stages,nb_complete_tasks,nb_failed_tasks,nb_necessary_tasks,nb_resubmitted_tasks,nb_started_stages,nb_started_tasks,time_in_complete_task,time_in_complete_task_after_filter,time_in_failed_task,time_in_failed_task_after_filter,time_in_resubmitted_tasks,time_in_resubmitted_tasks_after_filter
0,0,1351,0,0,828,application_1500074396308_0075,BigDataBench WordCount,172566,2,1579,45,1024,555,2,1624,20939698,0,780576,0,7696069,0
1,0,2368,0,1024,952,application_1500074396308_0076,BigDataBench WordCount,236517,2,3159,74,2048,1111,2,3233,35517554,0,1715697,0,11689977,0
2,0,66,0,0,190,application_1500074396308_0077,BigDataBench Grep,83013,1,256,0,256,0,1,256,1907575,0,0,0,0,0
3,0,2378,0,0,1278,application_1500074396308_0078,BigDataBench KMeans,184791,5,2965,691,2590,0,6,3656,65010589,0,10012888,0,0,0
4,0,1173,0,0,637,application_1500074396308_0079,BigDataBench WordCount,182089,2,1391,52,1024,367,2,1443,16297181,0,1554098,0,4277970,0
5,0,344,0,0,292,application_1500074396308_0080,BigDataBench WordCount,228774,2,571,6,512,59,2,577,9321551,0,270087,0,1386203,0
6,0,925,0,1024,610,application_1500074396308_0081,BigDataBench WordCount,236759,2,2296,15,2048,248,2,2311,26179492,0,198893,0,2366325,0
7,0,90,0,0,168,application_1500074396308_0082,BigDataBench Grep,56528,1,256,2,256,0,1,258,2384967,0,1231,0,0,0
8,0,376,0,0,200,application_1500074396308_0083,BigDataBench Grep,91700,1,512,64,512,0,1,576,7852780,0,1359788,0,0,0
9,0,72,0,0,186,application_1500074396308_0084,BigDataBench Grep,58576,1,256,2,256,0,1,258,2872682,0,12982,0,0,0
10,0,96,0,0,175,application_1500074396308_0085,BigDataBench Grep,81352,1,256,15,256,0,1,271,3406368,0,122460,0,0,0
11,0,3641,0,512,2669,application_1500074396308_0086,BigDataBench WordCount,139558,2,3789,268,1024,2765,2,4057,40022626,0,4116725,0,31673565,0
12,0,929,0,0,1980,application_1500074396308_0087,BigDataBench Grep,114000,0,1023,1886,0,0,1,2910,15482961,0,5714796,1263995,0,0
13,0,4122,0,2066,1657,application_1500074396308_0088,BigDataBench KMeans,85648,15,7770,75,7770,0,15,7845,46321195,1443147,1020982,0,0,0
14,0,1134,0,0,671,application_1500074396308_0089,BigDataBench Grep,109679,0,511,1294,0,0,1,1806,4486334,0,3744410,1294502,0,0
15,0,385,0,0,720,application_1500074396308_0090,BigDataBench KMeans,51309,4,1101,4,1036,0,5,1110,13297719,13297719,12507,0,0,0
16,0,192,0,0,449,application_1500074396308_0091,BigDataBench KMeans,57191,2,637,4,518,0,3,656,7288963,7206346,15363,0,0,0
17,0,87,0,0,36,application_1500074396308_0092,BigDataBench KMeans,13368,0,119,4,0,0,1,145,901241,538696,11009,0,0,0
