,ANY,NODE_LOCAL,NO_PREF,PROCESS_LOCAL,RACK_LOCAL,app_id,app_type,longest_task_execution_time,nb_complete_stages,nb_complete_tasks,nb_failed_tasks,nb_necessary_tasks,nb_resubmitted_tasks,nb_started_stages,nb_started_tasks,time_in_complete_task,time_in_complete_task_after_filter,time_in_failed_task,time_in_failed_task_after_filter,time_in_resubmitted_tasks,time_in_resubmitted_tasks_after_filter
0,0,5813,0,0,755,application_1500074396308_0039,BigDataBench KMeans,480242,5,5837,731,5195,0,6,6568,95876366,0,6771544,0,0,0
1,0,6505,0,2071,1922,application_1500074396308_0040,BigDataBench KMeans,167942,15,8809,650,7770,1039,15,9459,90804033,0,4094364,0,12617233,0
2,0,351,0,512,415,application_1500074396308_0041,BigDataBench WordCount,121769,2,1147,8,1024,123,2,1155,12534060,0,337725,0,1422812,0
3,0,4037,0,0,1926,application_1500074396308_0042,BigDataBench KMeans,1033200,5,5679,284,5195,0,6,5995,157659306,24707467,3791506,0,0,0
4,0,1409,0,0,920,application_1500074396308_0043,BigDataBench WordCount,437826,2,1353,135,512,841,2,1488,25217230,8894662,2981910,0,10372244,0
5,0,792,0,1000,2168,application_1500074396308_0044,BigDataBench KMeans,136569,15,3885,75,3885,0,15,3960,29025037,8519231,1237755,0,0,0
6,0,871,0,0,1238,application_1500074396308_0045,BigDataBench WordCount,423209,2,1276,69,512,764,2,1345,26206391,8320413,2199700,0,11874282,0
7,0,1263,0,0,1061,application_1500074396308_0046,BigDataBench WordCount,115523,4,1904,52,2048,368,4,1956,17680309,0,906917,0,3441134,0
8,0,199,0,0,222,application_1500074396308_0047,BigDataBench WordCount,430543,0,323,23,0,75,1,354,14877365,8247023,200903,0,593072,0
9,0,1235,0,0,284,application_1500074396308_0048,BigDataBench KMeans,790663,1,1519,0,1039,0,2,1551,55309144,28098934,0,0,0,0
10,0,93,0,256,163,application_1500074396308_0049,BigDataBench WordCount,426667,2,512,0,512,0,2,512,17075898,17075898,0,0,0,0
11,0,397,0,0,0,application_1500074396308_0053,BigDataBench KMeans,17891,0,397,0,0,0,1,429,3177395,3177395,0,0,0,0
12,0,41,0,0,0,application_1500074396308_0054,BigDataBench Grep,7043,0,41,0,0,0,1,45,138854,138854,0,0,0,0
13,0,0,0,0,0,application_1500074396308_0055,BigDataBench KMeans,0,0,0,0,0,0,1,4,0,0,0,0,0,0
