,ANY,NODE_LOCAL,NO_PREF,PROCESS_LOCAL,RACK_LOCAL,app_id,app_type,longest_task_execution_time,nb_complete_stages,nb_complete_tasks,nb_failed_tasks,nb_necessary_tasks,nb_resubmitted_tasks,nb_started_stages,nb_started_tasks,time_in_complete_task,time_in_complete_task_after_filter,time_in_failed_task,time_in_failed_task_after_filter,time_in_resubmitted_tasks,time_in_resubmitted_tasks_after_filter
0,0,5610,0,0,1161,application_1499413782246_0021,BigDataBench KMeans,291444,5,5971,800,5195,0,6,6771,104285953,0,11797436,0,0,0
1,0,1113,0,0,720,application_1499413782246_0023,BigDataBench WordCount,153975,2,1408,41,1024,384,2,1449,17074885,0,1242721,0,5647768,0
2,0,10331,0,4156,1478,application_1499413782246_0024,BigDataBench KMeans,294438,15,15585,380,15585,0,15,15965,131396792,0,6046686,0,0,0
3,0,342,0,0,250,application_1499413782246_0025,BigDataBench WordCount,212669,2,549,6,512,37,2,555,7903090,0,490987,0,591913,0
4,0,1007,0,1012,1919,application_1499413782246_0026,BigDataBench KMeans,167051,15,3885,53,3885,0,15,3938,42025753,742238,457986,0,0,0
5,0,566,0,256,399,application_1499413782246_0027,BigDataBench WordCount,198781,2,837,59,512,325,2,896,5885208,0,766040,0,3635419,0
6,0,722,0,512,343,application_1499413782246_0028,BigDataBench WordCount,100611,2,1276,49,1024,252,2,1325,12330012,0,327338,0,1971854,0
7,0,318,0,0,194,application_1499413782246_0029,BigDataBench WordCount,100949,2,512,0,512,0,2,512,2912316,0,0,0,0,0
8,0,667,0,0,246,application_1499413782246_0030,BigDataBench KMeans,892044,0,913,0,0,0,1,945,41823888,27253191,0,0,0,0
9,0,54,0,0,145,application_1499413782246_0031,BigDataBench WordCount,470649,0,199,0,0,0,1,207,11354203,7953551,0,0,0,0
10,0,61,0,0,127,application_1499413782246_0032,BigDataBench WordCount,477384,0,188,0,0,0,1,196,11206499,8078515,0,0,0,0
11,0,107,0,256,149,application_1499413782246_0033,BigDataBench WordCount,242222,2,512,0,512,0,2,512,9888176,582351,0,0,0,0
12,0,618,0,0,337,application_1499413782246_0034,BigDataBench WordCount,473348,0,955,0,0,0,1,987,32885973,30959019,0,0,0,0
13,0,750,0,0,99,application_1499413782246_0035,BigDataBench KMeans,938217,0,849,0,0,0,1,881,28675599,28675599,0,0,0,0
14,0,55,0,0,92,application_1499413782246_0036,BigDataBench Grep,479081,0,147,0,0,0,1,155,7304023,7304023,0,0,0,0
15,0,245,0,0,903,application_1499413782246_0037,BigDataBench KMeans,21219,4,1148,0,1036,0,5,1156,7929783,7929783,0,0,0,0
16,0,1819,0,0,1274,application_1499413782246_0022,BigDataBench KMeans,153121,5,2638,455,2590,0,6,3109,55644230,0,4788367,0,0,0
