,ANY,NODE_LOCAL,NO_PREF,PROCESS_LOCAL,RACK_LOCAL,app_id,app_type,longest_task_execution_time,nb_complete_stages,nb_complete_tasks,nb_failed_tasks,nb_necessary_tasks,nb_resubmitted_tasks,nb_started_stages,nb_started_tasks,time_in_complete_task,time_in_complete_task_after_filter,time_in_failed_task,time_in_failed_task_after_filter,time_in_resubmitted_tasks,time_in_resubmitted_tasks_after_filter
0,0,9667,0,559,2637,application_1500074653944_0223,BigDataBench WordCount,124852,3,6833,741,2110,5289,4,7574,57854843,0,4463108,0,47966335,0
1,0,1407,0,0,1142,application_1500074653944_0224,BigDataBench Grep,178692,0,1023,1526,0,0,1,2550,14452599,0,6050438,0,0,0
2,0,4091,0,1024,2762,application_1500074653944_0225,BigDataBench WordCount,169263,2,4884,157,2048,2836,2,5041,40957396,0,1692407,0,27599411,0
3,0,1160,0,0,928,application_1500074653944_0226,BigDataBench KMeans,977420,3,1941,147,1554,0,4,2116,74616623,29467425,1021293,0,0,0
4,0,1586,0,512,634,application_1500074653944_0227,BigDataBench WordCount,315077,2,1846,64,1024,822,2,1910,21546011,8305112,1781241,0,11660710,0
5,0,425,0,0,155,application_1500074653944_0228,BigDataBench KMeans,840293,1,539,41,518,0,2,600,27228441,24542326,1125961,0,0,0
6,0,140,0,0,72,application_1500074653944_0229,BigDataBench KMeans,610580,0,196,16,0,0,1,220,9611790,8191748,443172,0,0,0
7,0,139,0,0,70,application_1500074653944_0230,BigDataBench KMeans,712806,0,188,21,0,0,1,217,8616158,7353204,572758,0,0,0
8,0,135,0,0,65,application_1500074653944_0231,BigDataBench KMeans,448975,0,183,17,0,0,1,208,5177455,3877378,496151,0,0,0
9,0,335,0,0,75,application_1500074653944_0232,BigDataBench KMeans,491768,0,377,33,0,0,1,426,9348256,7377534,952295,0,0,0
10,0,327,0,0,159,application_1500074653944_0233,BigDataBench Grep,492349,0,482,4,0,0,1,516,17549690,17442529,35765,0,0,0
11,0,54,0,0,13,application_1500074653944_0234,BigDataBench KMeans,499491,0,67,0,0,0,1,75,2970811,2970811,0,0,0,0
12,0,58,0,0,7,application_1500074653944_0235,BigDataBench Grep,13816,0,65,0,0,0,1,73,364886,364886,0,0,0,0
13,0,62,0,0,10,application_1500074653944_0236,BigDataBench WordCount,9481,0,72,0,0,0,1,79,455553,455553,0,0,0,0
14,0,59,0,0,0,application_1500074653944_0237,BigDataBench WordCount,16403,0,59,0,0,0,1,91,449001,449001,0,0,0,0
15,0,0,0,0,0,application_1500074653944_0238,BigDataBench KMeans,0,0,0,0,0,0,1,8,0,0,0,0,0,0
