jobID,submission_time,requested_number_of_processors,requested_time,success,starting_time,execution_time,finish_time,waiting_time,turnaround_time,stretch,consumed_energy,allocated_processors
2657,1500219701.0,4,200.0,1,1500220157.0,94.0,1500220251.0,456.0,550.0,5.851063829787234,-1,123 122 121 124
2727,1500222537.0,8,300.0,1,1500223419.0,170.0,1500223589.0,882.0,1052.0,6.188235294117647,-1,100 102 104 103 98 97 99 101
2685,1500220812.0,8,300.0,1,1500222656.0,187.0,1500222843.0,1844.0,2031.0,10.86096256684492,-1,55 51 52 56 53 50 54 49
2510,1500214225.0,8,300.0,1,1500214227.0,205.0,1500214432.0,2.0,207.0,1.0097560975609756,-1,125 121 126 128 123 122 124 127
2630,1500218897.0,16,200.0,1,1500218950.0,137.0,1500219087.0,53.0,190.0,1.3868613138686132,-1,66 71 60 62 57 69 58 59 70 63 64 61 67 68 65 72
2527,1500214789.0,8,300.0,1,1500214791.0,194.0,1500214985.0,2.0,196.0,1.0103092783505154,-1,6 4 8 2 3 5 1 7
2613,1500218235.0,8,300.0,1,1500218236.0,181.0,1500218417.0,1.0,182.0,1.0055248618784531,-1,1 4 39 38 2 3 37 40
2552,1500215763.0,8,300.0,1,1500215765.0,196.0,1500215961.0,2.0,198.0,1.010204081632653,-1,58 52 60 49 51 57 50 59
2543,1500215344.0,4,200.0,1,1500215345.0,94.0,1500215439.0,1.0,95.0,1.0106382978723405,-1,58 59 60 57
2561,1500216124.0,4,200.0,1,1500216125.0,141.0,1500216266.0,1.0,142.0,1.0070921985815602,-1,7 8 6 5
2511,1500214269.0,8,300.0,1,1500214270.0,198.0,1500214468.0,1.0,199.0,1.005050505050505,-1,5 6 7 4 2 8 1 3
2600,1500217596.0,16,200.0,1,1500217597.0,132.0,1500217729.0,1.0,133.0,1.0075757575757576,-1,13 9 18 16 8 15 14 5 20 10 19 7 6 17 12 11
2651,1500219546.0,8,300.0,1,1500219969.0,183.0,1500220152.0,423.0,606.0,3.3114754098360657,-1,119 113 120 118 116 115 114 117
2640,1500219336.0,4,200.0,1,1500219338.0,92.0,1500219430.0,2.0,94.0,1.0217391304347827,-1,52 50 51 49
2720,1500222398.0,32,2400.0,1,1500223148.0,1482.0,1500224630.0,750.0,2232.0,1.5060728744939271,-1,72 45 40 71 43 44 67 46 124 70 39 65 34 48 41 112 35 68 36 38 47 111 110 123 69 109 66 33 37 42 122 121
2656,1500219689.0,8,300.0,1,1500220157.0,182.0,1500220339.0,468.0,650.0,3.5714285714285716,-1,118 114 119 115 113 116 117 120
2704,1500221467.0,4,200.0,1,1500222851.0,140.0,1500222991.0,1384.0,1524.0,10.885714285714286,-1,104 102 101 103
2570,1500216370.0,8,300.0,1,1500216525.0,175.0,1500216700.0,155.0,330.0,1.8857142857142857,-1,6 8 11 10 9 12 7 5
2619,1500218405.0,8,300.0,1,1500218406.0,197.0,1500218603.0,1.0,198.0,1.0050761421319796,-1,96 94 93 91 92 90 89 95
2734,1500222802.0,16,200.0,1,1500223634.0,105.0,1500223739.0,832.0,937.0,8.923809523809524,-1,114 106 128 126 120 119 125 105 107 116 118 117 127 115 113 108
2745,1500223373.0,16,200.0,1,1500224350.0,110.0,1500224460.0,977.0,1087.0,9.881818181818181,-1,96 99 30 93 98 95 92 91 89 100 31 90 32 29 97 94
2716,1500222153.0,8,300.0,1,1500223025.0,181.0,1500223206.0,872.0,1053.0,5.81767955801105,-1,81 87 84 85 82 86 83 88
2689,1500220937.0,8,300.0,1,1500222656.0,186.0,1500222842.0,1719.0,1905.0,10.241935483870968,-1,87 88 86 83 85 81 84 82
2597,1500217464.0,4,200.0,1,1500217467.0,145.0,1500217612.0,3.0,148.0,1.0206896551724138,-1,109 112 111 110
2694,1500221125.0,4,200.0,1,1500222656.0,153.0,1500222809.0,1531.0,1684.0,11.006535947712418,-1,109 112 110 111
2601,1500217601.0,4,200.0,1,1500217603.0,139.0,1500217742.0,2.0,141.0,1.014388489208633,-1,23 24 21 22
2582,1500217146.0,8,300.0,1,1500217147.0,185.0,1500217332.0,1.0,186.0,1.0054054054054054,-1,14 2 15 4 13 3 16 1
2595,1500217454.0,8,300.0,1,1500217467.0,190.0,1500217657.0,13.0,203.0,1.068421052631579,-1,98 103 104 99 101 100 97 102
2557,1500215888.0,8,300.0,1,1500215958.0,181.0,1500216139.0,70.0,251.0,1.3867403314917126,-1,1 3 48 45 2 47 4 46
2589,1500217353.0,8,300.0,1,1500217354.0,180.0,1500217534.0,1.0,181.0,1.0055555555555555,-1,1 16 2 14 4 15 3 13
2740,1500223156.0,8,300.0,1,1500224350.0,179.0,1500224529.0,1194.0,1373.0,7.670391061452514,-1,8 6 4 5 3 7 1 2
2507,1500214144.0,8,300.0,1,1500214146.0,191.0,1500214337.0,2.0,193.0,1.0104712041884816,-1,53 54 51 52 49 50 56 55
2687,1500220874.0,16,200.0,1,1500222656.0,129.0,1500222785.0,1782.0,1911.0,14.813953488372093,-1,80 74 65 79 68 66 70 71 72 76 69 78 75 77 67 73
2731,1500222634.0,64,200.0,1,1500224264.0,82.0,1500224346.0,1630.0,1712.0,20.878048780487806,-1,106 126 103 113 8 13 104 108 24 32 22 94 107 18 90 17 14 97 98 93 20 102 31 1 120 29 12 5 15 25 2 117 105 118 101 3 116 119 127 27 28 89 19 6 7 9 99 96 21 10 128 92 11 95 16 91 100 30 115 4 26 125 23 114
2675,1500220316.0,8,300.0,1,1500222047.0,183.0,1500222230.0,1731.0,1914.0,10.459016393442623,-1,118 116 113 119 117 114 115 120
2555,1500215877.0,8,300.0,1,1500215878.0,176.0,1500216054.0,1.0,177.0,1.0056818181818181,-1,92 94 91 89 96 90 93 95
2637,1500219262.0,8,300.0,1,1500219264.0,181.0,1500219445.0,2.0,183.0,1.011049723756906,-1,118 124 122 123 120 121 119 117
2515,1500214399.0,8,300.0,1,1500214402.0,213.0,1500214615.0,3.0,216.0,1.0140845070422535,-1,42 37 38 39 43 44 41 40
2683,1500220671.0,8,300.0,1,1500222656.0,181.0,1500222837.0,1985.0,2166.0,11.966850828729282,-1,39 40 35 37 33 36 38 34
2565,1500216209.0,64,200.0,1,1500216436.0,84.0,1500216520.0,227.0,311.0,3.7023809523809526,-1,40 38 50 25 68 18 60 20 55 48 35 16 31 11 28 13 21 17 9 30 15 51 8 41 14 24 52 33 63 54 61 58 57 42 65 34 19 26 29 7 37 27 5 47 45 12 44 59 62 23 6 53 36 10 39 22 64 32 49 56 46 66 67 43
2728,1500222548.0,4,200.0,1,1500223308.0,141.0,1500223449.0,760.0,901.0,6.390070921985815,-1,126 127 125 128
2645,1500219439.0,32,200.0,1,1500219828.0,137.0,1500219965.0,389.0,526.0,3.8394160583941606,-1,44 124 41 55 53 113 52 121 46 115 128 49 122 126 51 117 116 42 47 127 123 50 48 120 114 56 54 118 45 43 119 125
2744,1500223282.0,4,200.0,1,1500224350.0,144.0,1500224494.0,1068.0,1212.0,8.416666666666666,-1,25 28 27 26
2701,1500221351.0,32,200.0,1,1500222851.0,146.0,1500222997.0,1500.0,1646.0,11.273972602739725,-1,43 60 64 48 38 40 39 34 51 52 47 42 45 63 56 57 37 49 46 53 61 59 36 54 44 62 33 58 35 50 41 55
2574,1500216471.0,4,200.0,1,1500216525.0,144.0,1500216669.0,54.0,198.0,1.375,-1,67 65 66 68
2532,1500215077.0,4,200.0,1,1500215078.0,141.0,1500215219.0,1.0,142.0,1.0070921985815602,-1,20 19 17 18
2528,1500214816.0,32,2400.0,1,1500214817.0,1613.0,1500216430.0,1.0,1614.0,1.0006199628022319,-1,27 33 54 53 44 31 64 55 65 36 63 61 68 29 42 30 56 41 67 37 40 32 26 34 62 43 66 35 38 39 25 28
2531,1500215074.0,16,200.0,1,1500215075.0,130.0,1500215205.0,1.0,131.0,1.0076923076923077,-1,2 12 16 9 1 10 13 14 15 4 8 5 3 7 11 6
2697,1500221243.0,8,300.0,1,1500222656.0,192.0,1500222848.0,1413.0,1605.0,8.359375,-1,121 126 127 124 125 123 128 122
2503,1500213934.0,8,300.0,1,1500214146.0,196.0,1500214342.0,212.0,408.0,2.0816326530612246,-1,19 22 24 17 20 23 18 21
2558,1500215894.0,4,200.0,1,1500215966.0,93.0,1500216059.0,72.0,165.0,1.7741935483870968,-1,50 51 52 49
2631,1500219001.0,16,200.0,1,1500219002.0,105.0,1500219107.0,1.0,106.0,1.0095238095238095,-1,50 54 46 53 43 45 52 51 47 49 48 41 44 56 55 42
2590,1500217393.0,16,200.0,1,1500217395.0,107.0,1500217502.0,2.0,109.0,1.0186915887850467,-1,10 5 23 17 6 22 12 20 19 8 9 21 7 24 11 18
2508,1500214162.0,64,200.0,1,1500214164.0,90.0,1500214254.0,2.0,92.0,1.0222222222222221,-1,59 95 58 106 119 77 102 66 78 75 70 61 98 86 85 62 83 72 74 120 76 81 112 116 103 84 109 96 92 100 118 87 97 65 91 101 80 88 57 63 93 68 82 107 90 99 113 104 110 115 94 73 64 71 79 111 69 60 108 67 89 105 117 114
2514,1500214384.0,16,200.0,1,1500214386.0,165.0,1500214551.0,2.0,167.0,1.0121212121212122,-1,34 35 31 21 32 26 25 23 33 28 29 27 22 24 30 36
2681,1500220578.0,32,2400.0,1,1500222656.0,1484.0,1500224140.0,2078.0,3562.0,2.4002695417789757,-1,4 22 21 15 5 7 2 30 17 32 11 23 16 24 13 29 25 3 27 8 31 1 10 18 6 14 28 9 12 19 26 20
2616,1500218345.0,16,200.0,1,1500218347.0,104.0,1500218451.0,2.0,106.0,1.0192307692307692,-1,44 43 23 18 24 41 17 12 11 9 42 19 21 22 20 10
2605,1500217874.0,16,200.0,1,1500217876.0,158.0,1500218034.0,2.0,160.0,1.0126582278481013,-1,13 16 18 9 15 14 11 22 17 20 10 19 23 21 12 24
2614,1500218244.0,4,200.0,1,1500218246.0,92.0,1500218338.0,2.0,94.0,1.0217391304347827,-1,12 11 9 10
2719,1500222217.0,4,200.0,1,1500223112.0,94.0,1500223206.0,895.0,989.0,10.52127659574468,-1,99 98 100 97
2692,1500221040.0,4,200.0,1,1500222656.0,152.0,1500222808.0,1616.0,1768.0,11.631578947368421,-1,99 98 97 100
2702,1500221364.0,8,300.0,1,1500222814.0,175.0,1500222989.0,1450.0,1625.0,9.285714285714286,-1,119 118 113 117 115 114 116 120
2534,1500215111.0,8,300.0,1,1500215112.0,190.0,1500215302.0,1.0,191.0,1.0052631578947369,-1,49 50 59 52 58 51 57 60
2553,1500215828.0,8,300.0,1,1500215829.0,180.0,1500216009.0,1.0,181.0,1.0055555555555555,-1,71 74 75 73 72 76 70 69
2540,1500215271.0,4,200.0,1,1500215272.0,97.0,1500215369.0,1.0,98.0,1.0103092783505154,-1,120 117 118 119
2530,1500214865.0,8,300.0,1,1500214867.0,197.0,1500215064.0,2.0,199.0,1.0101522842639594,-1,14 13 20 18 15 19 17 16
2743,1500223220.0,16,200.0,1,1500224350.0,109.0,1500224459.0,1130.0,1239.0,11.36697247706422,-1,16 18 12 21 24 10 22 14 9 17 11 23 19 13 15 20
2699,1500221337.0,8,300.0,1,1500222789.0,171.0,1500222960.0,1452.0,1623.0,9.491228070175438,-1,74 73 75 79 76 77 80 78
2677,1500220433.0,4,200.0,1,1500222049.0,144.0,1500222193.0,1616.0,1760.0,12.222222222222221,-1,10 11 9 12
2544,1500215364.0,8,300.0,1,1500215365.0,172.0,1500215537.0,1.0,173.0,1.005813953488372,-1,72 70 81 71 84 83 69 82
2533,1500215090.0,8,300.0,1,1500215091.0,199.0,1500215290.0,1.0,200.0,1.0050251256281406,-1,45 48 21 23 47 46 24 22
2661,1500219791.0,4,200.0,1,1500220157.0,93.0,1500220250.0,366.0,459.0,4.935483870967742,-1,126 125 128 127
2671,1500220104.0,8,300.0,1,1500222047.0,184.0,1500222231.0,1943.0,2127.0,11.559782608695652,-1,48 42 47 41 43 46 44 45
2625,1500218830.0,8,300.0,1,1500218832.0,177.0,1500219009.0,2.0,179.0,1.0112994350282485,-1,2 1 3 6 5 8 7 4
2562,1500216127.0,4,200.0,1,1500216128.0,93.0,1500216221.0,1.0,94.0,1.010752688172043,-1,12 9 10 11
2551,1500215756.0,8,300.0,1,1500215757.0,197.0,1500215954.0,1.0,198.0,1.0050761421319796,-1,46 3 4 45 47 1 48 2
2729,1500222589.0,4,200.0,1,1500223407.0,139.0,1500223546.0,818.0,957.0,6.884892086330935,-1,117 120 119 118
2621,1500218490.0,16,200.0,1,1500218491.0,156.0,1500218647.0,1.0,157.0,1.0064102564102564,-1,24 11 21 15 20 18 13 9 23 19 12 16 22 14 17 10
2501,1500213722.0,128,600.0,1,1500213724.0,416.0,1500214140.0,2.0,418.0,1.0048076923076923,-1,66 70 78 121 95 120 48 24 83 27 81 20 43 103 9 16 33 93 106 116 32 99 8 14 98 91 125 26 124 30 94 2 67 49 82 64 77 79 50 58 126 52 31 110 62 113 17 19 101 51 37 80 44 118 25 89 38 55 45 87 59 18 119 123 75 56 42 36 34 11 7 73 29 69 61 63 21 71 88 12 46 72 57 97 112 28 39 10 1 100 90 5 60 35 111 54 76 117 40 3 74 6 115 68 128 15 65 85 102 92 122 84 53 96 47 4 104 22 107 109 127 114 13 108 23 105 41 86
2584,1500217187.0,4,200.0,1,1500217188.0,139.0,1500217327.0,1.0,140.0,1.0071942446043165,-1,22 21 24 23
2549,1500215714.0,4,200.0,1,1500215715.0,150.0,1500215865.0,1.0,151.0,1.0066666666666666,-1,7 6 5 8
2635,1500219158.0,16,200.0,1,1500219159.0,128.0,1500219287.0,1.0,129.0,1.0078125,-1,46 56 53 113 116 52 55 49 54 51 114 45 48 50 47 115
2598,1500217475.0,4,200.0,1,1500217477.0,140.0,1500217617.0,2.0,142.0,1.0142857142857142,-1,116 113 115 114
2641,1500219344.0,8,300.0,1,1500219345.0,180.0,1500219525.0,1.0,181.0,1.0055555555555555,-1,114 53 116 115 54 113 56 55
2695,1500221144.0,4,200.0,1,1500222656.0,105.0,1500222761.0,1512.0,1617.0,15.4,-1,116 113 115 114
2679,1500220442.0,8,300.0,1,1500222049.0,176.0,1500222225.0,1607.0,1783.0,10.130681818181818,-1,24 21 26 27 22 28 23 25
2708,1500221654.0,8,300.0,1,1500222965.0,183.0,1500223148.0,1311.0,1494.0,8.163934426229508,-1,75 78 76 77 80 74 79 73
2522,1500214625.0,16,200.0,1,1500214626.0,158.0,1500214784.0,1.0,159.0,1.0063291139240507,-1,30 40 38 32 31 42 41 39 36 43 29 44 35 37 33 34
2520,1500214618.0,8,300.0,1,1500214619.0,208.0,1500214827.0,1.0,209.0,1.0048076923076923,-1,21 22 18 19 20 24 17 23
2684,1500220768.0,8,300.0,1,1500222656.0,187.0,1500222843.0,1888.0,2075.0,11.096256684491978,-1,41 43 44 47 48 45 46 42
2576,1500216640.0,4,200.0,1,1500216642.0,139.0,1500216781.0,2.0,141.0,1.014388489208633,-1,74 76 75 73
2509,1500214212.0,16,200.0,1,1500214258.0,142.0,1500214400.0,46.0,188.0,1.323943661971831,-1,62 66 63 46 48 61 45 57 47 67 68 60 65 64 59 58
2703,1500221448.0,8,300.0,1,1500222847.0,174.0,1500223021.0,1399.0,1573.0,9.040229885057471,-1,88 85 81 87 83 86 84 82
2696,1500221234.0,4,200.0,1,1500222656.0,152.0,1500222808.0,1422.0,1574.0,10.355263157894736,-1,120 118 119 117
2649,1500219539.0,4,200.0,1,1500219682.0,141.0,1500219823.0,143.0,284.0,2.0141843971631204,-1,119 117 118 120
2517,1500214495.0,4,200.0,1,1500214496.0,144.0,1500214640.0,1.0,145.0,1.0069444444444444,-1,1 4 2 3
2622,1500218525.0,8,300.0,1,1500218526.0,199.0,1500218725.0,1.0,200.0,1.0050251256281406,-1,29 31 32 26 25 28 30 27
2608,1500218090.0,4,200.0,1,1500218092.0,140.0,1500218232.0,2.0,142.0,1.0142857142857142,-1,11 10 9 12
2629,1500218885.0,32,200.0,1,1500218887.0,151.0,1500219038.0,2.0,153.0,1.0132450331125828,-1,110 107 116 101 104 96 95 105 99 122 108 119 123 111 115 113 103 117 114 102 98 124 109 106 121 93 120 94 97 118 112 100
2742,1500223162.0,4,200.0,1,1500223743.0,94.0,1500223837.0,581.0,675.0,7.180851063829787,-1,127 126 128 125
2505,1500214062.0,4,200.0,1,1500214146.0,147.0,1500214293.0,84.0,231.0,1.5714285714285714,-1,42 43 44 41
2634,1500219151.0,4,200.0,1,1500219152.0,139.0,1500219291.0,1.0,140.0,1.0071942446043165,-1,41 42 43 44
2725,1500222511.0,64,200.0,1,1500224177.0,82.0,1500224259.0,1666.0,1748.0,21.317073170731707,-1,120 89 99 12 9 25 107 32 128 8 108 5 98 15 19 94 106 113 96 117 29 105 91 4 115 26 16 13 23 21 30 1 2 95 90 31 97 28 119 27 92 102 7 11 20 18 127 125 116 118 6 100 10 24 22 101 3 114 104 93 103 126 17 14
2732,1500222751.0,16,200.0,1,1500223615.0,104.0,1500223719.0,864.0,968.0,9.307692307692308,-1,90 103 95 94 99 92 97 91 96 104 102 98 93 100 89 101
2623,1500218537.0,16,200.0,1,1500218538.0,105.0,1500218643.0,1.0,106.0,1.0095238095238095,-1,54 42 35 33 53 37 40 34 43 39 38 56 44 36 55 41
2593,1500217410.0,16,200.0,1,1500217411.0,118.0,1500217529.0,1.0,119.0,1.0084745762711864,-1,89 54 52 51 46 91 90 50 53 92 45 47 56 49 55 48
2620,1500218453.0,8,300.0,1,1500218455.0,190.0,1500218645.0,2.0,192.0,1.0105263157894737,-1,3 8 6 5 4 7 1 2
2650,1500219542.0,8,300.0,1,1500219969.0,174.0,1500220143.0,427.0,601.0,3.454022988505747,-1,50 52 55 54 49 56 51 53
2539,1500215250.0,8,300.0,1,1500215251.0,184.0,1500215435.0,1.0,185.0,1.0054347826086956,-1,115 20 114 17 18 19 113 116
2524,1500214665.0,8,300.0,1,1500214667.0,216.0,1500214883.0,2.0,218.0,1.0092592592592593,-1,47 49 50 52 48 51 46 45
2535,1500215167.0,4,200.0,1,1500215168.0,145.0,1500215313.0,1.0,146.0,1.006896551724138,-1,71 69 70 72
2707,1500221633.0,4,200.0,1,1500222853.0,140.0,1500222993.0,1220.0,1360.0,9.714285714285714,-1,121 122 124 123
2525,1500214667.0,4,200.0,1,1500214669.0,103.0,1500214772.0,2.0,105.0,1.0194174757281553,-1,53 56 54 55
2663,1500219813.0,32,2400.0,1,1500220727.0,1446.0,1500222173.0,914.0,2360.0,1.632088520055325,-1,106 99 68 102 105 97 109 69 110 58 100 63 59 66 60 111 107 112 61 72 103 57 101 65 64 62 70 108 67 98 104 71
2644,1500219419.0,16,200.0,1,1500219682.0,106.0,1500219788.0,263.0,369.0,3.481132075471698,-1,51 55 45 42 48 50 56 44 43 41 49 47 52 46 53 54
2624,1500218596.0,16,200.0,1,1500218597.0,109.0,1500218706.0,1.0,110.0,1.0091743119266054,-1,49 46 52 100 50 48 98 97 102 103 51 104 101 45 99 47
2575,1500216607.0,4,200.0,1,1500216616.0,140.0,1500216756.0,9.0,149.0,1.0642857142857143,-1,69 72 71 70
2749,1500223447.0,4,200.0,1,1500224350.0,144.0,1500224494.0,903.0,1047.0,7.270833333333333,-1,125 126 128 127
2617,1500218354.0,8,300.0,1,1500218356.0,190.0,1500218546.0,2.0,192.0,1.0105263157894737,-1,47 48 46 49 45 51 50 52
2516,1500214438.0,4,200.0,1,1500214440.0,96.0,1500214536.0,2.0,98.0,1.0208333333333333,-1,45 46 47 48
2513,1500214370.0,8,300.0,1,1500214371.0,216.0,1500214587.0,1.0,217.0,1.0046296296296295,-1,15 20 14 17 13 18 16 19
2722,1500222441.0,32,2400.0,1,1500223308.0,1512.0,1500224820.0,867.0,2379.0,1.5734126984126984,-1,63 50 75 73 88 86 61 55 57 84 64 60 82 62 79 51 56 53 80 83 87 78 54 85 76 74 77 52 49 58 59 81
2678,1500220438.0,8,300.0,1,1500222049.0,175.0,1500222224.0,1611.0,1786.0,10.205714285714286,-1,15 17 18 13 14 16 20 19
2615,1500218338.0,4,200.0,1,1500218340.0,139.0,1500218479.0,2.0,141.0,1.014388489208633,-1,13 14 15 16
2705,1500221533.0,4,200.0,1,1500222851.0,141.0,1500222992.0,1318.0,1459.0,10.347517730496454,-1,105 108 106 107
2673,1500220160.0,8,300.0,1,1500222047.0,181.0,1500222228.0,1887.0,2068.0,11.425414364640885,-1,56 50 49 51 52 55 54 53
2604,1500217855.0,8,300.0,1,1500217856.0,185.0,1500218041.0,1.0,186.0,1.0054054054054054,-1,4 5 7 6 2 3 1 8
2711,1500221820.0,4,200.0,1,1500222853.0,94.0,1500222947.0,1033.0,1127.0,11.98936170212766,-1,125 127 126 128
2665,1500219867.0,8,300.0,1,1500222030.0,176.0,1500222206.0,2163.0,2339.0,13.289772727272727,-1,78 74 73 80 75 77 76 79
2607,1500218089.0,4,200.0,1,1500218090.0,92.0,1500218182.0,1.0,93.0,1.0108695652173914,-1,7 8 5 6
2612,1500218223.0,8,300.0,1,1500218225.0,185.0,1500218410.0,2.0,187.0,1.0108108108108107,-1,30 31 35 36 34 33 29 32
2588,1500217298.0,32,2400.0,1,1500217300.0,1644.0,1500218944.0,2.0,1646.0,1.0012165450121655,-1,74 69 64 83 84 71 67 73 63 72 88 87 82 70 66 86 78 58 61 62 57 60 68 65 75 85 77 79 81 80 59 76
2526,1500214716.0,4,200.0,1,1500214718.0,105.0,1500214823.0,2.0,107.0,1.019047619047619,-1,58 57 59 60
2580,1500216900.0,4,200.0,1,1500216901.0,140.0,1500217041.0,1.0,141.0,1.0071428571428571,-1,2 1 4 3
2502,1500213842.0,16,200.0,1,1500214146.0,117.0,1500214263.0,304.0,421.0,3.5982905982905984,-1,9 1 10 8 7 15 3 11 16 2 4 5 14 6 13 12
2643,1500219405.0,64,200.0,1,1500220512.0,82.0,1500220594.0,1107.0,1189.0,14.5,-1,23 39 51 40 117 114 38 119 123 30 53 26 10 48 121 47 120 35 20 113 22 128 16 122 37 12 14 118 127 32 55 15 124 56 25 21 33 44 29 18 27 9 28 46 125 17 115 116 11 34 54 45 13 52 31 36 24 50 41 126 19 42 43 49
2747,1500223376.0,8,300.0,1,1500224350.0,182.0,1500224532.0,974.0,1156.0,6.351648351648351,-1,117 116 113 119 118 120 115 114
2739,1500223076.0,32,200.0,1,1500224032.0,140.0,1500224172.0,956.0,1096.0,7.828571428571428,-1,108 89 90 104 95 103 114 125 117 106 100 91 102 99 113 93 97 119 105 126 96 94 128 101 120 92 98 107 115 116 118 127
2654,1500219625.0,8,300.0,1,1500220148.0,174.0,1500220322.0,523.0,697.0,4.005747126436781,-1,53 56 50 52 54 51 49 55
2579,1500216836.0,4,200.0,1,1500216837.0,94.0,1500216931.0,1.0,95.0,1.0106382978723405,-1,18 20 17 19
2594,1500217413.0,4,200.0,1,1500217415.0,140.0,1500217555.0,2.0,142.0,1.0142857142857142,-1,96 94 95 93
2546,1500215527.0,4,200.0,1,1500215529.0,98.0,1500215627.0,2.0,100.0,1.0204081632653061,-1,6 7 8 5
2627,1500218859.0,16,200.0,1,1500218860.0,118.0,1500218978.0,1.0,119.0,1.0084745762711864,-1,46 41 42 56 47 44 55 52 51 45 43 49 54 48 53 50
2733,1500222777.0,4,200.0,1,1500223490.0,140.0,1500223630.0,713.0,853.0,6.0928571428571425,-1,125 128 126 127
2676,1500220411.0,8,300.0,1,1500222047.0,177.0,1500222224.0,1636.0,1813.0,10.242937853107344,-1,122 123 125 121 124 128 127 126
2591,1500217401.0,4,200.0,1,1500217402.0,140.0,1500217542.0,1.0,141.0,1.0071428571428571,-1,27 26 25 28
2512,1500214302.0,4,200.0,1,1500214303.0,145.0,1500214448.0,1.0,146.0,1.006896551724138,-1,10 12 9 11
2710,1500221779.0,8,300.0,1,1500222994.0,180.0,1500223174.0,1215.0,1395.0,7.75,-1,113 120 117 119 114 116 118 115
2599,1500217588.0,4,200.0,1,1500217589.0,139.0,1500217728.0,1.0,140.0,1.0071942446043165,-1,4 3 2 1
2750,1500223475.0,32,200.0,1,1500224499.0,151.0,1500224650.0,1024.0,1175.0,7.781456953642384,-1,21 32 99 128 95 127 90 96 91 97 26 19 98 93 126 18 17 27 23 89 25 22 24 94 31 125 29 100 30 28 92 20
2521,1500214618.0,4,200.0,1,1500214619.0,103.0,1500214722.0,1.0,104.0,1.0097087378640777,-1,28 25 27 26
2548,1500215606.0,4,200.0,1,1500215607.0,140.0,1500215747.0,1.0,141.0,1.0071428571428571,-1,4 1 2 3
2714,1500221915.0,8,300.0,1,1500222998.0,186.0,1500223184.0,1083.0,1269.0,6.82258064516129,-1,108 103 101 102 107 106 105 104
2560,1500215993.0,4,200.0,1,1500215994.0,140.0,1500216134.0,1.0,141.0,1.0071428571428571,-1,57 58 60 59
2506,1500214080.0,4,200.0,1,1500214146.0,100.0,1500214246.0,66.0,166.0,1.66,-1,47 46 48 45
2578,1500216762.0,16,200.0,1,1500216764.0,107.0,1500216871.0,2.0,109.0,1.0186915887850467,-1,8 11 4 6 9 13 16 7 5 12 15 3 14 10 2 1
2636,1500219217.0,32,2400.0,1,1500219245.0,1477.0,1500220722.0,28.0,1505.0,1.018957345971564,-1,65 57 109 111 100 71 101 103 62 66 67 60 107 98 106 104 99 59 61 68 69 105 58 97 112 102 108 64 63 70 110 72
2659,1500219767.0,16,200.0,1,1500220327.0,124.0,1500220451.0,560.0,684.0,5.516129032258065,-1,53 128 122 127 123 51 49 54 50 55 125 121 52 126 124 56
2672,1500220122.0,4,200.0,1,1500220340.0,144.0,1500220484.0,218.0,362.0,2.513888888888889,-1,33 35 34 36
2674,1500220305.0,4,200.0,1,1500220340.0,143.0,1500220483.0,35.0,178.0,1.2447552447552448,-1,39 40 37 38
2592,1500217404.0,16,200.0,1,1500217406.0,120.0,1500217526.0,2.0,122.0,1.0166666666666666,-1,44 38 29 39 43 33 37 40 42 36 31 35 30 34 41 32
2587,1500217232.0,4,200.0,1,1500217234.0,139.0,1500217373.0,2.0,141.0,1.014388489208633,-1,9 11 10 12
2523,1500214664.0,4,200.0,1,1500214666.0,99.0,1500214765.0,2.0,101.0,1.02020202020202,-1,3 4 1 2
2709,1500221702.0,8,300.0,1,1500222968.0,175.0,1500223143.0,1266.0,1441.0,8.234285714285715,-1,69 67 65 72 68 70 71 66
2700,1500221346.0,16,200.0,1,1500222816.0,104.0,1500222920.0,1470.0,1574.0,15.134615384615385,-1,112 94 90 97 109 96 93 89 99 98 100 110 91 92 95 111
2748,1500223429.0,8,300.0,1,1500224464.0,180.0,1500224644.0,1035.0,1215.0,6.75,-1,15 16 11 13 14 12 9 10
2680,1500220480.0,128,600.0,1,1500222237.0,415.0,1500222652.0,1757.0,2172.0,5.233734939759036,-1,110 96 127 98 59 56 82 32 12 105 10 121 65 16 104 78 15 9 115 23 60 7 128 36 125 50 93 102 2 29 124 83 25 51 87 45 34 89 47 76 62 8 123 86 85 44 33 100 99 70 40 53 126 54 19 22 73 113 17 74 28 81 30 1 90 109 39 58 107 48 101 61 5 41 37 52 66 24 13 108 84 67 106 92 91 49 122 68 72 69 42 119 79 14 43 117 21 120 31 26 4 27 18 114 116 63 97 94 6 75 57 112 88 103 55 46 3 64 71 11 111 80 77 38 20 118 95 35
2563,1500216147.0,64,200.0,1,1500216271.0,83.0,1500216354.0,124.0,207.0,2.4939759036144578,-1,80 16 86 73 88 49 70 90 23 18 21 47 14 60 20 83 2 19 22 11 46 96 94 91 4 8 87 24 13 76 71 79 50 51 78 59 77 92 74 81 72 57 1 75 9 93 84 17 6 82 69 89 52 85 10 58 48 95 3 5 45 15 12 7
2662,1500219792.0,32,2400.0,1,1500220598.0,1444.0,1500222042.0,806.0,2250.0,1.5581717451523547,-1,55 54 45 122 56 124 114 118 49 121 42 120 115 128 48 43 123 41 116 46 53 52 127 44 113 47 50 51 117 126 119 125
2652,1500219581.0,8,300.0,1,1500219969.0,182.0,1500220151.0,388.0,570.0,3.131868131868132,-1,125 123 121 126 124 122 128 127
2577,1500216644.0,8,300.0,1,1500216645.0,177.0,1500216822.0,1.0,178.0,1.0056497175141244,-1,79 81 80 83 84 82 77 78
2664,1500219845.0,8,300.0,1,1500222030.0,178.0,1500222208.0,2185.0,2363.0,13.275280898876405,-1,3 7 4 8 5 2 1 6
2596,1500217458.0,4,200.0,1,1500217467.0,143.0,1500217610.0,9.0,152.0,1.062937062937063,-1,107 108 105 106
2542,1500215341.0,8,300.0,1,1500215342.0,187.0,1500215529.0,1.0,188.0,1.0053475935828877,-1,52 45 51 47 48 49 46 50
2568,1500216289.0,8,300.0,1,1500216436.0,179.0,1500216615.0,147.0,326.0,1.8212290502793296,-1,86 88 92 90 91 89 87 85
2610,1500218148.0,8,300.0,1,1500218150.0,186.0,1500218336.0,2.0,188.0,1.010752688172043,-1,24 17 23 18 22 19 21 20
2670,1500220079.0,4,200.0,1,1500220340.0,144.0,1500220484.0,261.0,405.0,2.8125,-1,31 30 32 29
2723,1500222471.0,8,300.0,1,1500223308.0,178.0,1500223486.0,837.0,1015.0,5.702247191011236,-1,92 93 96 94 95 91 90 89
2639,1500219336.0,8,300.0,1,1500219337.0,179.0,1500219516.0,1.0,180.0,1.005586592178771,-1,47 44 41 46 48 42 43 45
2706,1500221535.0,16,200.0,1,1500222924.0,105.0,1500223029.0,1389.0,1494.0,14.228571428571428,-1,111 97 95 90 112 110 93 109 89 98 94 92 91 99 100 96
2541,1500215341.0,4,200.0,1,1500215342.0,93.0,1500215435.0,1.0,94.0,1.010752688172043,-1,23 21 22 24
2519,1500214617.0,8,300.0,1,1500214618.0,210.0,1500214828.0,1.0,211.0,1.0047619047619047,-1,15 11 13 10 14 9 12 16
2726,1500222535.0,4,200.0,1,1500223308.0,94.0,1500223402.0,773.0,867.0,9.22340425531915,-1,120 118 119 117
2585,1500217196.0,32,200.0,1,1500217198.0,158.0,1500217356.0,2.0,160.0,1.0126582278481013,-1,37 29 36 52 48 53 25 38 26 35 33 44 54 27 50 51 42 30 41 43 32 56 28 49 40 47 46 39 34 55 45 31
2736,1500222894.0,16,200.0,1,1500223743.0,124.0,1500223867.0,849.0,973.0,7.846774193548387,-1,95 98 97 94 93 106 103 99 107 101 108 100 105 102 96 104
2682,1500220621.0,8,300.0,1,1500222049.0,176.0,1500222225.0,1428.0,1604.0,9.113636363636363,-1,35 30 31 36 29 32 33 34
2606,1500218088.0,4,200.0,1,1500218090.0,140.0,1500218230.0,2.0,142.0,1.0142857142857142,-1,3 2 1 4
2603,1500217675.0,16,200.0,1,1500217676.0,140.0,1500217816.0,1.0,141.0,1.0071428571428571,-1,36 46 41 40 35 39 37 34 47 42 43 38 48 33 44 45
2715,1500221994.0,4,200.0,1,1500222994.0,141.0,1500223135.0,1000.0,1141.0,8.092198581560284,-1,128 126 125 127
2572,1500216420.0,4,200.0,1,1500216525.0,147.0,1500216672.0,105.0,252.0,1.7142857142857142,-1,31 29 32 30
2554,1500215872.0,32,200.0,1,1500215873.0,139.0,1500216012.0,1.0,140.0,1.0071942446043165,-1,82 6 23 14 11 8 24 5 9 10 19 86 83 16 77 15 21 20 80 18 7 12 78 22 17 79 84 85 87 88 81 13
2712,1500221821.0,16,200.0,1,1500223002.0,127.0,1500223129.0,1181.0,1308.0,10.299212598425196,-1,44 37 33 38 40 46 42 34 35 36 39 45 47 41 43 48
2632,1500219083.0,32,2400.0,1,1500219084.0,1489.0,1500220573.0,1.0,1490.0,1.0006715916722633,-1,94 86 6 83 3 96 79 85 78 73 93 74 1 76 88 81 84 77 91 87 7 89 80 82 5 75 2 95 90 92 8 4
2668,1500220032.0,16,200.0,1,1500220340.0,109.0,1500220449.0,308.0,417.0,3.8256880733944953,-1,16 14 18 23 17 13 11 12 24 22 9 15 21 19 20 10
2536,1500215176.0,8,300.0,1,1500215177.0,191.0,1500215368.0,1.0,192.0,1.0052356020942408,-1,80 73 74 77 78 79 76 75
2545,1500215451.0,4,200.0,1,1500215453.0,139.0,1500215592.0,2.0,141.0,1.014388489208633,-1,1 2 4 3
2537,1500215177.0,16,200.0,1,1500215178.0,120.0,1500215298.0,1.0,121.0,1.0083333333333333,-1,89 82 94 85 86 81 92 84 87 88 93 96 95 91 83 90
2741,1500223160.0,4,200.0,1,1500223743.0,94.0,1500223837.0,583.0,677.0,7.202127659574468,-1,117 118 119 120
2573,1500216426.0,32,200.0,1,1500216525.0,144.0,1500216669.0,99.0,243.0,1.6875,-1,45 53 46 34 56 55 36 33 39 42 41 54 40 64 63 58 61 62 43 38 35 51 48 57 52 50 47 60 44 49 37 59
2666,1500219891.0,8,300.0,1,1500222030.0,177.0,1500222207.0,2139.0,2316.0,13.084745762711865,-1,86 87 81 82 88 85 83 84
2547,1500215576.0,16,200.0,1,1500215578.0,111.0,1500215689.0,2.0,113.0,1.018018018018018,-1,16 9 21 14 24 17 20 23 12 15 18 10 19 22 11 13
2669,1500220038.0,4,200.0,1,1500220340.0,144.0,1500220484.0,302.0,446.0,3.0972222222222223,-1,26 28 25 27
2690,1500220987.0,4,200.0,1,1500222656.0,153.0,1500222809.0,1669.0,1822.0,11.908496732026144,-1,89 91 92 90
2559,1500215980.0,8,300.0,1,1500216013.0,181.0,1500216194.0,33.0,214.0,1.1823204419889504,-1,76 72 71 74 73 69 75 70
2611,1500218217.0,8,300.0,1,1500218219.0,183.0,1500218402.0,2.0,185.0,1.010928961748634,-1,7 27 28 6 8 25 26 5
2646,1500219442.0,4,200.0,1,1500219443.0,92.0,1500219535.0,1.0,93.0,1.0108695652173914,-1,51 50 52 49
2660,1500219789.0,8,300.0,1,1500220328.0,180.0,1500220508.0,539.0,719.0,3.9944444444444445,-1,42 43 41 47 44 45 46 48
2633,1500219094.0,32,200.0,1,1500219096.0,144.0,1500219240.0,2.0,146.0,1.0138888888888888,-1,64 108 72 58 61 60 65 104 112 57 68 103 59 105 106 62 63 71 70 109 67 97 111 69 101 98 107 110 66 102 99 100
2556,1500215881.0,32,2400.0,1,1500215882.0,1579.0,1500217461.0,1.0,1580.0,1.0006333122229258,-1,112 109 97 102 122 125 98 126 114 103 101 120 107 100 105 115 99 127 110 118 104 113 108 119 111 128 106 117 123 124 121 116
2529,1500214858.0,4,200.0,1,1500214860.0,141.0,1500215001.0,2.0,143.0,1.0141843971631206,-1,9 10 11 12
2735,1500222805.0,4,200.0,1,1500223724.0,92.0,1500223816.0,919.0,1011.0,10.98913043478261,-1,89 91 90 92
2618,1500218375.0,4,200.0,1,1500218376.0,140.0,1500218516.0,1.0,141.0,1.0071428571428571,-1,55 53 56 54
2638,1500219267.0,4,200.0,1,1500219268.0,140.0,1500219408.0,1.0,141.0,1.0071428571428571,-1,128 125 127 126
2688,1500220900.0,4,200.0,1,1500222049.0,98.0,1500222147.0,1149.0,1247.0,12.724489795918368,-1,40 39 37 38
2691,1500221030.0,4,200.0,1,1500222656.0,152.0,1500222808.0,1626.0,1778.0,11.697368421052632,-1,95 96 93 94
2626,1500218837.0,32,2400.0,1,1500218839.0,1495.0,1500220334.0,2.0,1497.0,1.0013377926421405,-1,24 20 31 25 28 10 36 32 9 37 39 15 11 12 14 38 26 40 27 29 16 23 21 17 33 13 22 19 18 35 34 30
2718,1500222172.0,16,200.0,1,1500223112.0,106.0,1500223218.0,940.0,1046.0,9.867924528301886,-1,53 61 60 52 63 51 54 58 62 56 55 50 59 64 57 49
2730,1500222611.0,16,200.0,1,1500223490.0,120.0,1500223610.0,879.0,999.0,8.325,-1,116 113 108 91 92 106 105 114 90 115 96 94 89 93 107 95
2583,1500217163.0,4,200.0,1,1500217165.0,141.0,1500217306.0,2.0,143.0,1.0141843971631206,-1,17 20 19 18
2564,1500216189.0,4,200.0,1,1500216359.0,140.0,1500216499.0,170.0,310.0,2.2142857142857144,-1,2 4 1 3
2567,1500216264.0,8,300.0,1,1500216436.0,178.0,1500216614.0,172.0,350.0,1.9662921348314606,-1,78 81 79 80 82 77 84 83
2658,1500219738.0,32,2400.0,1,1500220598.0,1445.0,1500222043.0,860.0,2305.0,1.5951557093425606,-1,33 34 20 25 36 37 17 38 9 27 18 14 19 31 26 32 16 13 21 22 39 35 24 12 28 30 23 15 11 10 40 29
2655,1500219666.0,8,300.0,1,1500220151.0,173.0,1500220324.0,485.0,658.0,3.8034682080924855,-1,43 48 45 47 41 42 46 44
2717,1500222167.0,8,300.0,1,1500223033.0,178.0,1500223211.0,866.0,1044.0,5.865168539325842,-1,92 96 94 93 95 91 89 90
2647,1500219511.0,8,300.0,1,1500219969.0,178.0,1500220147.0,458.0,636.0,3.5730337078651684,-1,44 43 48 47 42 45 46 41
2721,1500222419.0,64,200.0,1,1500223223.0,80.0,1500223303.0,804.0,884.0,11.05,-1,63 120 60 82 95 107 87 52 101 108 118 85 117 61 56 55 53 125 78 119 92 113 94 58 51 97 126 59 57 100 103 102 116 105 49 79 86 91 74 83 75 98 127 62 93 104 88 96 115 73 64 106 54 77 90 114 81 89 99 80 128 76 84 50
2648,1500219537.0,4,200.0,1,1500219682.0,141.0,1500219823.0,145.0,286.0,2.028368794326241,-1,113 115 116 114
2581,1500217019.0,8,300.0,1,1500217020.0,184.0,1500217204.0,1.0,185.0,1.0054347826086956,-1,7 9 5 8 10 11 12 6
2737,1500222935.0,32,200.0,1,1500223889.0,139.0,1500224028.0,954.0,1093.0,7.863309352517986,-1,104 105 99 91 89 102 94 114 106 92 90 101 93 98 115 128 100 107 125 113 118 117 116 126 120 97 95 108 103 96 119 127
2602,1500217643.0,8,300.0,1,1500217644.0,185.0,1500217829.0,1.0,186.0,1.0054054054054054,-1,32 31 25 27 30 28 29 26
2746,1500223374.0,8,300.0,1,1500224350.0,180.0,1500224530.0,976.0,1156.0,6.4222222222222225,-1,107 104 106 105 101 108 102 103
2609,1500218101.0,4,200.0,1,1500218102.0,140.0,1500218242.0,1.0,141.0,1.0071428571428571,-1,14 16 15 13
2713,1500221859.0,16,200.0,1,1500223002.0,106.0,1500223108.0,1143.0,1249.0,11.783018867924529,-1,55 60 59 61 52 53 49 51 64 57 63 50 56 58 62 54
2550,1500215720.0,16,200.0,1,1500215722.0,137.0,1500215859.0,2.0,139.0,1.0145985401459854,-1,14 9 12 20 16 10 15 18 22 24 21 23 11 13 17 19
2667,1500220008.0,8,300.0,1,1500222030.0,179.0,1500222209.0,2022.0,2201.0,12.296089385474861,-1,93 95 91 94 92 89 90 96
2698,1500221279.0,8,300.0,1,1500222789.0,174.0,1500222963.0,1510.0,1684.0,9.67816091954023,-1,68 69 67 66 71 72 65 70
2586,1500217222.0,4,200.0,1,1500217223.0,140.0,1500217363.0,1.0,141.0,1.0071428571428571,-1,6 5 8 7
2518,1500214610.0,4,200.0,1,1500214611.0,144.0,1500214755.0,1.0,145.0,1.0069444444444444,-1,7 8 5 6
2738,1500222988.0,4,200.0,1,1500223743.0,142.0,1500223885.0,755.0,897.0,6.316901408450704,-1,116 115 114 113
2686,1500220821.0,8,300.0,1,1500222656.0,187.0,1500222843.0,1835.0,2022.0,10.81283422459893,-1,64 58 62 60 63 57 59 61
2571,1500216408.0,16,200.0,1,1500216525.0,119.0,1500216644.0,117.0,236.0,1.9831932773109244,-1,24 23 14 21 20 27 16 25 13 18 22 19 26 17 15 28
2538,1500215212.0,32,200.0,1,1500215213.0,156.0,1500215369.0,1.0,157.0,1.0064102564102564,-1,111 102 14 108 12 103 112 5 4 98 109 106 104 1 2 8 105 11 9 13 100 107 101 15 7 3 99 16 6 10 97 110
2693,1500221100.0,8,300.0,1,1500222656.0,188.0,1500222844.0,1556.0,1744.0,9.27659574468085,-1,107 106 104 101 103 105 108 102
2724,1500222502.0,16,200.0,1,1500223308.0,107.0,1500223415.0,806.0,913.0,8.532710280373832,-1,102 106 99 113 115 103 100 98 116 114 101 108 104 105 97 107
2504,1500214030.0,16,200.0,1,1500214146.0,133.0,1500214279.0,116.0,249.0,1.8721804511278195,-1,26 28 27 30 25 31 29 33 37 32 38 35 36 40 39 34
2569,1500216346.0,8,300.0,1,1500216503.0,176.0,1500216679.0,157.0,333.0,1.8920454545454546,-1,93 1 95 94 4 2 96 3
2653,1500219594.0,32,2400.0,1,1500220578.0,1447.0,1500222025.0,984.0,2431.0,1.6800276434001382,-1,83 80 78 79 85 6 7 82 88 87 3 77 94 96 81 75 74 89 86 76 84 90 73 8 1 91 93 5 92 4 95 2
2628,1500218873.0,4,200.0,1,1500218874.0,140.0,1500219014.0,1.0,141.0,1.0071428571428571,-1,90 89 92 91
2642,1500219379.0,32,200.0,1,1500219540.0,138.0,1500219678.0,161.0,299.0,2.1666666666666665,-1,43 50 51 114 123 127 54 116 125 118 120 121 119 46 122 48 41 128 56 55 49 113 115 117 126 53 44 52 45 124 47 42
2566,1500216264.0,8,300.0,1,1500216436.0,176.0,1500216612.0,172.0,348.0,1.9772727272727273,-1,76 70 75 74 73 72 69 71
