jobID,submission_time,requested_number_of_processors,requested_time,success,starting_time,execution_time,finish_time,waiting_time,turnaround_time,stretch,consumed_energy,allocated_processors
1768,1500176035.0,4,200.0,1,1500176037.0,141.0,1500176178.0,2.0,143.0,1.0141843971631206,-1,6 8 5 7
1923,1500181586.0,8,300.0,1,1500183420.0,175.0,1500183595.0,1834.0,2009.0,11.48,-1,34 36 40 39 33 37 38 35
1903,1500181020.0,32,2400.0,1,1500181850.0,1448.0,1500183298.0,830.0,2278.0,1.5732044198895028,-1,17 26 1 27 19 12 24 11 28 4 30 29 16 22 2 14 8 15 5 21 7 31 18 13 25 10 32 9 3 23 20 6
1983,1500184203.0,4,200.0,1,1500184850.0,140.0,1500184990.0,647.0,787.0,5.621428571428571,-1,128 126 127 125
1990,1500184582.0,8,300.0,1,1500185537.0,171.0,1500185708.0,955.0,1126.0,6.584795321637427,-1,72 65 69 66 70 67 68 71
1927,1500181859.0,4,200.0,1,1500183457.0,140.0,1500183597.0,1598.0,1738.0,12.414285714285715,-1,124 121 122 123
1849,1500179014.0,4,200.0,1,1500179015.0,139.0,1500179154.0,1.0,140.0,1.0071942446043165,-1,4 2 1 3
1806,1500177307.0,32,2400.0,1,1500177308.0,1599.0,1500178907.0,1.0,1600.0,1.0006253908692933,-1,117 103 124 122 98 109 110 106 123 116 126 119 113 125 102 97 127 128 112 100 121 99 108 107 115 101 114 105 118 120 111 104
1912,1500181218.0,32,2400.0,1,1500182133.0,1448.0,1500183581.0,915.0,2363.0,1.6319060773480663,-1,64 73 98 77 78 70 67 57 74 76 56 75 58 68 97 54 69 63 61 60 80 100 99 72 53 79 66 65 59 71 55 62
1830,1500178325.0,4,200.0,1,1500178327.0,139.0,1500178466.0,2.0,141.0,1.014388489208633,-1,5 8 6 7
1926,1500181837.0,8,300.0,1,1500183452.0,176.0,1500183628.0,1615.0,1791.0,10.176136363636363,-1,29 25 26 32 28 30 27 31
1872,1500179950.0,8,300.0,1,1500179952.0,197.0,1500180149.0,2.0,199.0,1.0101522842639594,-1,26 27 29 25 32 31 30 28
1911,1500181217.0,4,200.0,1,1500181583.0,95.0,1500181678.0,366.0,461.0,4.852631578947369,-1,125 126 128 127
1913,1500181238.0,32,2400.0,1,1500182162.0,1451.0,1500183613.0,924.0,2375.0,1.636802205375603,-1,95 114 83 111 103 89 109 113 86 102 94 105 82 110 88 93 90 107 81 84 91 104 87 115 108 116 92 112 101 106 85 96
1756,1500175506.0,4,200.0,1,1500175573.0,96.0,1500175669.0,67.0,163.0,1.6979166666666667,-1,47 46 45 48
1943,1500182526.0,8,300.0,1,1500184225.0,178.0,1500184403.0,1699.0,1877.0,10.544943820224718,-1,34 36 38 37 39 40 35 33
1854,1500179281.0,8,300.0,1,1500179282.0,207.0,1500179489.0,1.0,208.0,1.0048309178743962,-1,3 7 2 5 4 1 8 6
1822,1500177846.0,4,200.0,1,1500178017.0,143.0,1500178160.0,171.0,314.0,2.195804195804196,-1,25 26 27 28
1797,1500177002.0,16,200.0,1,1500177003.0,108.0,1500177111.0,1.0,109.0,1.0092592592592593,-1,52 50 46 6 45 1 5 49 51 48 7 47 8 2 3 4
1884,1500180576.0,4,200.0,1,1500180578.0,139.0,1500180717.0,2.0,141.0,1.014388489208633,-1,4 2 1 3
1899,1500180965.0,4,200.0,1,1500181110.0,140.0,1500181250.0,145.0,285.0,2.0357142857142856,-1,118 120 119 117
1997,1500184802.0,8,300.0,1,1500185713.0,188.0,1500185901.0,911.0,1099.0,5.845744680851064,-1,70 68 72 67 66 71 65 69
1834,1500178612.0,4,200.0,1,1500178614.0,140.0,1500178754.0,2.0,142.0,1.0142857142857142,-1,23 21 22 24
1851,1500179027.0,4,200.0,1,1500179028.0,140.0,1500179168.0,1.0,141.0,1.0071428571428571,-1,22 21 24 23
1888,1500180692.0,4,200.0,1,1500180694.0,140.0,1500180834.0,2.0,142.0,1.0142857142857142,-1,126 128 127 125
1904,1500181050.0,8,300.0,1,1500181579.0,176.0,1500181755.0,529.0,705.0,4.005681818181818,-1,3 5 8 4 2 1 6 7
1984,1500184229.0,16,200.0,1,1500185006.0,105.0,1500185111.0,777.0,882.0,8.4,-1,68 106 65 112 107 110 70 69 66 72 109 71 105 111 67 108
1941,1500182455.0,4,200.0,1,1500183603.0,140.0,1500183743.0,1148.0,1288.0,9.2,-1,124 123 122 121
1914,1500181270.0,8,300.0,1,1500181980.0,177.0,1500182157.0,710.0,887.0,5.011299435028248,-1,95 93 91 89 90 96 94 92
1871,1500179916.0,16,200.0,1,1500179917.0,137.0,1500180054.0,1.0,138.0,1.0072992700729928,-1,16 9 13 15 21 12 10 22 14 24 17 11 23 20 18 19
1796,1500176953.0,4,200.0,1,1500176954.0,94.0,1500177048.0,1.0,95.0,1.0106382978723405,-1,21 24 23 22
1766,1500175864.0,4,200.0,1,1500175866.0,93.0,1500175959.0,2.0,95.0,1.021505376344086,-1,48 46 47 45
1805,1500177302.0,8,300.0,1,1500177304.0,173.0,1500177477.0,2.0,175.0,1.0115606936416186,-1,89 93 91 92 96 90 95 94
1882,1500180508.0,32,2400.0,1,1500180510.0,1465.0,1500181975.0,2.0,1467.0,1.0013651877133105,-1,90 83 85 70 82 66 86 95 65 80 71 92 87 88 91 69 74 94 73 67 81 76 77 78 75 72 84 96 89 79 93 68
1915,1500181293.0,8,300.0,1,1500183304.0,176.0,1500183480.0,2011.0,2187.0,12.426136363636363,-1,8 2 4 3 6 7 1 5
1865,1500179764.0,4,200.0,1,1500179765.0,141.0,1500179906.0,1.0,142.0,1.0070921985815602,-1,14 16 13 15
1815,1500177635.0,64,200.0,1,1500177926.0,86.0,1500178012.0,291.0,377.0,4.383720930232558,-1,5 40 47 3 34 19 35 52 48 20 63 49 23 38 25 16 27 55 15 42 7 9 8 41 44 17 62 36 10 53 33 11 31 59 43 29 57 13 12 37 28 18 2 64 50 14 22 58 56 60 6 24 54 1 32 21 30 51 46 45 26 39 61 4
1761,1500175694.0,8,300.0,1,1500175696.0,179.0,1500175875.0,2.0,181.0,1.011173184357542,-1,7 2 4 1 8 6 5 3
1863,1500179660.0,8,300.0,1,1500179662.0,182.0,1500179844.0,2.0,184.0,1.010989010989011,-1,3 9 4 11 2 12 10 1
1876,1500180263.0,32,2400.0,1,1500180264.0,1481.0,1500181745.0,1.0,1482.0,1.00067521944632,-1,26 33 17 35 38 12 27 29 34 37 11 20 10 40 28 14 24 16 25 18 19 9 13 21 31 36 30 32 23 15 22 39
1895,1500180865.0,32,200.0,1,1500181256.0,139.0,1500181395.0,391.0,530.0,3.8129496402877696,-1,118 4 128 123 42 8 51 121 120 45 125 46 3 41 47 49 119 124 44 2 5 127 117 50 52 43 7 126 122 6 48 1
1901,1500180972.0,8,300.0,1,1500181400.0,177.0,1500181577.0,428.0,605.0,3.4180790960451977,-1,120 49 117 50 51 118 119 52
1824,1500177897.0,4,200.0,1,1500178017.0,142.0,1500178159.0,120.0,262.0,1.8450704225352113,-1,63 62 64 61
1840,1500178819.0,16,200.0,1,1500178820.0,105.0,1500178925.0,1.0,106.0,1.0095238095238095,-1,23 9 18 3 17 22 10 19 11 12 24 20 2 4 21 1
1898,1500180963.0,4,200.0,1,1500181110.0,140.0,1500181250.0,147.0,287.0,2.05,-1,49 51 52 50
1764,1500175810.0,16,200.0,1,1500175812.0,138.0,1500175950.0,2.0,140.0,1.0144927536231885,-1,28 21 32 33 36 26 25 29 30 22 24 35 27 31 34 23
1953,1500182874.0,8,300.0,1,1500184225.0,177.0,1500184402.0,1351.0,1528.0,8.63276836158192,-1,105 106 111 109 107 108 110 112
1995,1500184799.0,16,200.0,1,1500185648.0,104.0,1500185752.0,849.0,953.0,9.163461538461538,-1,106 89 111 90 109 96 94 108 93 107 92 105 110 112 91 95
1965,1500183420.0,4,200.0,1,1500183664.0,142.0,1500183806.0,244.0,386.0,2.7183098591549295,-1,19 20 17 18
1760,1500175651.0,8,300.0,1,1500175652.0,180.0,1500175832.0,1.0,181.0,1.0055555555555555,-1,123 122 128 121 127 124 126 125
1976,1500183961.0,4,200.0,1,1500184703.0,95.0,1500184798.0,742.0,837.0,8.810526315789474,-1,123 124 122 121
1810,1500177418.0,4,200.0,1,1500177420.0,139.0,1500177559.0,2.0,141.0,1.014388489208633,-1,66 67 65 68
1987,1500184361.0,32,200.0,1,1500185250.0,140.0,1500185390.0,889.0,1029.0,7.35,-1,67 123 92 126 96 66 89 72 122 68 65 127 71 95 91 93 111 108 121 70 110 107 106 109 125 128 69 112 124 105 90 94
1981,1500184059.0,64,200.0,1,1500185991.0,90.0,1500186081.0,1932.0,2022.0,22.466666666666665,-1,16 65 23 2 28 9 67 72 93 5 25 96 84 85 69 20 32 91 88 24 12 15 66 29 8 31 30 80 21 78 77 70 68 18 11 17 22 82 75 95 4 86 10 76 90 6 83 26 27 71 7 19 79 87 74 3 1 89 81 94 13 73 92 14
1770,1500176044.0,8,300.0,1,1500176045.0,201.0,1500176246.0,1.0,202.0,1.0049751243781095,-1,21 17 23 20 24 22 18 19
1931,1500182004.0,32,2400.0,1,1500184225.0,1484.0,1500185709.0,2221.0,3705.0,2.496630727762803,-1,21 23 14 4 32 29 8 15 26 2 7 27 1 22 11 28 6 12 30 25 18 9 24 13 17 3 5 20 31 10 19 16
1860,1500179574.0,8,300.0,1,1500179575.0,186.0,1500179761.0,1.0,187.0,1.0053763440860215,-1,23 24 18 21 19 20 22 17
1789,1500176675.0,8,300.0,1,1500176677.0,182.0,1500176859.0,2.0,184.0,1.010989010989011,-1,47 116 46 48 115 113 45 114
1885,1500180584.0,16,200.0,1,1500180585.0,118.0,1500180703.0,1.0,119.0,1.0084745762711864,-1,48 7 44 41 51 8 50 42 46 47 49 52 45 6 43 5
1855,1500179300.0,16,200.0,1,1500179301.0,152.0,1500179453.0,1.0,153.0,1.006578947368421,-1,16 19 12 14 11 22 23 9 20 18 15 21 10 24 17 13
1844,1500178839.0,4,200.0,1,1500178840.0,142.0,1500178982.0,1.0,143.0,1.0070422535211268,-1,93 94 95 96
1752,1500175267.0,16,200.0,1,1500175573.0,110.0,1500175683.0,306.0,416.0,3.7818181818181817,-1,11 16 10 13 12 14 4 3 2 8 6 9 15 7 1 5
1940,1500182413.0,4,200.0,1,1500183601.0,141.0,1500183742.0,1188.0,1329.0,9.425531914893616,-1,127 125 126 128
1958,1500183080.0,8,300.0,1,1500184225.0,183.0,1500184408.0,1145.0,1328.0,7.256830601092896,-1,119 113 120 116 114 117 115 118
1820,1500177796.0,8,300.0,1,1500178017.0,184.0,1500178201.0,221.0,405.0,2.2010869565217392,-1,8 5 2 3 1 7 6 4
1933,1500182096.0,8,300.0,1,1500183489.0,175.0,1500183664.0,1393.0,1568.0,8.96,-1,52 49 51 119 117 118 50 120
1894,1500180845.0,16,200.0,1,1500181110.0,105.0,1500181215.0,265.0,370.0,3.5238095238095237,-1,7 1 47 45 48 43 44 2 5 8 46 3 42 6 41 4
1816,1500177690.0,8,300.0,1,1500177926.0,177.0,1500178103.0,236.0,413.0,2.3333333333333335,-1,72 67 71 66 69 68 70 65
1991,1500184586.0,4,200.0,1,1500185105.0,94.0,1500185199.0,519.0,613.0,6.5212765957446805,-1,126 128 127 125
1959,1500183128.0,8,300.0,1,1500184225.0,178.0,1500184403.0,1097.0,1275.0,7.162921348314606,-1,127 128 124 123 122 125 126 121
1922,1500181547.0,4,200.0,1,1500183309.0,142.0,1500183451.0,1762.0,1904.0,13.408450704225352,-1,124 123 122 121
1835,1500178622.0,32,200.0,1,1500178623.0,154.0,1500178777.0,1.0,155.0,1.0064935064935066,-1,28 30 42 27 45 56 54 43 36 35 55 40 25 41 50 32 53 47 37 29 51 49 39 33 31 52 38 48 44 46 26 34
1867,1500179780.0,8,300.0,1,1500179781.0,185.0,1500179966.0,1.0,186.0,1.0054054054054054,-1,37 39 49 40 51 38 50 52
1921,1500181530.0,8,300.0,1,1500183309.0,174.0,1500183483.0,1779.0,1953.0,11.224137931034482,-1,51 119 50 52 120 117 118 49
1753,1500175360.0,8,300.0,1,1500175573.0,184.0,1500175757.0,213.0,397.0,2.157608695652174,-1,20 17 24 21 22 23 19 18
1955,1500182959.0,4,200.0,1,1500183633.0,140.0,1500183773.0,674.0,814.0,5.814285714285714,-1,29 32 31 30
1925,1500181742.0,8,300.0,1,1500183420.0,176.0,1500183596.0,1678.0,1854.0,10.534090909090908,-1,41 44 45 47 42 43 46 48
1754,1500175455.0,16,200.0,1,1500175573.0,125.0,1500175698.0,118.0,243.0,1.944,-1,25 34 32 26 35 29 38 37 39 28 31 40 33 36 30 27
1798,1500177032.0,4,200.0,1,1500177033.0,140.0,1500177173.0,1.0,141.0,1.0071428571428571,-1,18 20 19 17
1970,1500183823.0,32,2400.0,1,1500184503.0,1475.0,1500185978.0,680.0,2155.0,1.4610169491525424,-1,74 117 97 87 120 100 88 86 113 98 104 114 80 83 76 73 101 119 79 77 103 75 116 82 115 118 78 81 84 99 102 85
1808,1500177320.0,4,200.0,1,1500177382.0,92.0,1500177474.0,62.0,154.0,1.673913043478261,-1,62 64 63 61
1909,1500181193.0,16,200.0,1,1500181980.0,121.0,1500182101.0,787.0,908.0,7.5041322314049586,-1,77 75 74 68 76 80 65 79 71 73 72 70 78 66 69 67
1887,1500180688.0,8,300.0,1,1500180690.0,176.0,1500180866.0,2.0,178.0,1.0113636363636365,-1,120 123 122 124 121 119 118 117
1890,1500180762.0,4,200.0,1,1500180764.0,93.0,1500180857.0,2.0,95.0,1.021505376344086,-1,42 44 43 41
1961,1500183246.0,4,200.0,1,1500183663.0,94.0,1500183757.0,417.0,511.0,5.4361702127659575,-1,13 15 14 16
1982,1500184177.0,16,200.0,1,1500184996.0,105.0,1500185101.0,819.0,924.0,8.8,-1,89 95 124 125 94 126 93 127 122 123 121 90 128 92 91 96
1971,1500183844.0,64,200.0,1,1500184613.0,85.0,1500184698.0,769.0,854.0,10.047058823529412,-1,36 109 66 121 65 69 94 57 38 105 60 54 35 39 43 126 70 50 52 46 56 111 91 71 45 110 62 42 125 124 40 93 48 58 95 112 37 33 72 96 107 55 34 123 108 106 44 41 59 47 68 63 51 61 92 90 67 128 64 127 49 122 89 53
1950,1500182772.0,16,200.0,1,1500183618.0,109.0,1500183727.0,846.0,955.0,8.761467889908257,-1,106 112 113 102 105 115 101 116 108 114 109 103 110 104 111 107
1828,1500178188.0,16,200.0,1,1500178189.0,105.0,1500178294.0,1.0,106.0,1.0095238095238095,-1,10 15 19 9 23 16 13 17 18 22 20 12 24 21 11 14
1800,1500177146.0,16,200.0,1,1500177148.0,134.0,1500177282.0,2.0,136.0,1.0149253731343284,-1,7 50 47 49 52 45 6 46 5 8 23 22 24 51 21 48
1930,1500181906.0,128,600.0,1,1500183811.0,409.0,1500184220.0,1905.0,2314.0,5.657701711491443,-1,84 1 28 76 30 34 48 65 3 70 47 72 125 85 128 79 96 69 14 4 46 109 88 91 57 29 59 112 2 106 86 40 45 121 27 33 118 26 123 97 13 89 35 38 100 80 113 61 15 93 42 24 102 53 110 78 6 77 22 87 18 62 9 122 82 90 127 10 83 64 25 7 81 105 23 20 104 8 56 31 16 75 99 126 101 51 111 120 54 71 66 98 116 44 55 41 21 36 114 37 32 50 39 11 119 19 67 115 12 17 74 58 117 52 95 107 73 103 94 60 68 49 124 108 5 92 63 43
1799,1500177139.0,4,200.0,1,1500177141.0,140.0,1500177281.0,2.0,142.0,1.0142857142857142,-1,3 2 4 1
1985,1500184232.0,4,200.0,1,1500185105.0,94.0,1500185199.0,873.0,967.0,10.287234042553191,-1,92 89 91 90
1778,1500176242.0,32,2400.0,1,1500176244.0,1676.0,1500177920.0,2.0,1678.0,1.0011933174224343,-1,30 55 29 15 26 56 11 38 44 13 43 25 14 32 37 33 16 10 39 28 35 31 42 12 54 41 9 34 36 40 53 27
1814,1500177615.0,4,200.0,1,1500177782.0,139.0,1500177921.0,167.0,306.0,2.2014388489208634,-1,1 2 4 3
1775,1500176093.0,4,200.0,1,1500176095.0,96.0,1500176191.0,2.0,98.0,1.0208333333333333,-1,56 55 53 54
1769,1500176043.0,8,300.0,1,1500176044.0,191.0,1500176235.0,1.0,192.0,1.0052356020942408,-1,13 9 12 11 16 14 10 15
1829,1500178261.0,4,200.0,1,1500178263.0,95.0,1500178358.0,2.0,97.0,1.0210526315789474,-1,2 3 4 1
1857,1500179514.0,4,200.0,1,1500179515.0,96.0,1500179611.0,1.0,97.0,1.0104166666666667,-1,8 7 6 5
1802,1500177189.0,8,300.0,1,1500177191.0,186.0,1500177377.0,2.0,188.0,1.010752688172043,-1,61 66 67 62 68 63 65 64
1900,1500180967.0,8,300.0,1,1500181400.0,176.0,1500181576.0,433.0,609.0,3.460227272727273,-1,43 42 47 45 41 44 48 46
1755,1500175488.0,4,200.0,1,1500175573.0,143.0,1500175716.0,85.0,228.0,1.5944055944055944,-1,43 41 44 42
1819,1500177771.0,8,300.0,1,1500177926.0,179.0,1500178105.0,155.0,334.0,1.8659217877094971,-1,95 92 89 94 93 90 96 91
1996,1500184800.0,8,300.0,1,1500185683.0,173.0,1500185856.0,883.0,1056.0,6.104046242774566,-1,127 126 122 123 121 124 128 125
1839,1500178778.0,8,300.0,1,1500178780.0,181.0,1500178961.0,2.0,183.0,1.011049723756906,-1,13 16 6 7 14 5 8 15
1762,1500175728.0,4,200.0,1,1500175729.0,142.0,1500175871.0,1.0,143.0,1.0070422535211268,-1,11 9 10 12
1793,1500176770.0,4,200.0,1,1500176771.0,94.0,1500176865.0,1.0,95.0,1.0106382978723405,-1,66 68 67 65
1947,1500182669.0,8,300.0,1,1500184225.0,180.0,1500184405.0,1556.0,1736.0,9.644444444444444,-1,47 41 44 46 48 45 42 43
1963,1500183285.0,16,200.0,1,1500184410.0,109.0,1500184519.0,1125.0,1234.0,11.321100917431192,-1,62 34 40 35 59 36 38 61 39 60 33 58 64 37 63 57
1823,1500177851.0,32,200.0,1,1500178017.0,145.0,1500178162.0,166.0,311.0,2.1448275862068966,-1,47 42 35 36 52 34 48 39 59 51 43 58 31 29 38 32 41 49 54 57 30 53 33 56 50 46 44 55 45 40 37 60
1907,1500181127.0,4,200.0,1,1500181583.0,94.0,1500181677.0,456.0,550.0,5.851063829787234,-1,121 123 124 122
1848,1500178901.0,4,200.0,1,1500178913.0,143.0,1500179056.0,12.0,155.0,1.083916083916084,-1,115 113 116 114
1897,1500180937.0,8,300.0,1,1500181400.0,174.0,1500181574.0,463.0,637.0,3.660919540229885,-1,7 1 3 6 8 2 4 5
1759,1500175638.0,16,200.0,1,1500175682.0,120.0,1500175802.0,44.0,164.0,1.3666666666666667,-1,64 67 57 48 47 63 61 59 45 62 60 68 58 46 65 66
1838,1500178724.0,32,2400.0,1,1500178726.0,1713.0,1500180439.0,2.0,1715.0,1.0011675423234092,-1,87 62 77 70 61 85 75 73 64 78 88 67 58 83 81 60 74 57 63 68 69 66 71 86 84 59 79 82 72 76 80 65
1833,1500178589.0,4,200.0,1,1500178590.0,141.0,1500178731.0,1.0,142.0,1.0070921985815602,-1,19 17 18 20
1924,1500181730.0,4,200.0,1,1500183309.0,142.0,1500183451.0,1579.0,1721.0,12.119718309859154,-1,127 128 126 125
1988,1500184414.0,4,200.0,1,1500185105.0,141.0,1500185246.0,691.0,832.0,5.900709219858156,-1,122 123 121 124
1932,1500182047.0,8,300.0,1,1500183485.0,173.0,1500183658.0,1438.0,1611.0,9.3121387283237,-1,16 15 12 10 11 13 9 14
1783,1500176516.0,8,300.0,1,1500176517.0,197.0,1500176714.0,1.0,198.0,1.0050761421319796,-1,51 60 57 52 50 58 59 49
1864,1500179670.0,4,200.0,1,1500179672.0,96.0,1500179768.0,2.0,98.0,1.0208333333333333,-1,39 40 37 38
1812,1500177553.0,4,200.0,1,1500177554.0,95.0,1500177649.0,1.0,96.0,1.0105263157894737,-1,8 6 5 7
1949,1500182763.0,8,300.0,1,1500184225.0,178.0,1500184403.0,1462.0,1640.0,9.213483146067416,-1,58 62 64 59 60 63 61 57
1916,1500181317.0,8,300.0,1,1500183304.0,176.0,1500183480.0,1987.0,2163.0,12.289772727272727,-1,13 14 15 10 9 12 16 11
1944,1500182551.0,4,200.0,1,1500183618.0,143.0,1500183761.0,1067.0,1210.0,8.461538461538462,-1,86 87 88 85
1772,1500176051.0,16,200.0,1,1500176052.0,151.0,1500176203.0,1.0,152.0,1.0066225165562914,-1,38 40 43 34 32 41 29 31 36 44 42 30 39 33 35 37
1918,1500181458.0,16,200.0,1,1500183309.0,106.0,1500183415.0,1851.0,1957.0,18.462264150943398,-1,38 45 44 35 33 40 34 41 47 43 39 42 48 46 36 37
1986,1500184320.0,16,200.0,1,1500185115.0,123.0,1500185238.0,795.0,918.0,7.463414634146342,-1,107 96 70 105 108 94 71 69 106 68 72 95 65 66 93 67
1966,1500183579.0,8,300.0,1,1500184408.0,191.0,1500184599.0,829.0,1020.0,5.340314136125654,-1,111 110 105 106 107 112 108 109
1786,1500176602.0,8,300.0,1,1500176603.0,176.0,1500176779.0,1.0,177.0,1.0056818181818181,-1,78 76 79 80 75 73 77 74
1879,1500180311.0,32,200.0,1,1500180312.0,171.0,1500180483.0,1.0,172.0,1.0058479532163742,-1,117 124 106 95 102 111 110 104 108 96 100 101 118 94 105 98 121 99 122 119 107 103 109 115 113 93 97 112 123 114 116 120
1771,1500176044.0,4,200.0,1,1500176045.0,98.0,1500176143.0,1.0,99.0,1.010204081632653,-1,25 26 28 27
1960,1500183204.0,8,300.0,1,1500184375.0,183.0,1500184558.0,1171.0,1354.0,7.398907103825136,-1,69 72 70 65 66 68 71 67
1891,1500180769.0,8,300.0,1,1500180771.0,173.0,1500180944.0,2.0,175.0,1.0115606936416186,-1,48 49 50 52 46 47 51 45
1763,1500175795.0,8,300.0,1,1500175797.0,200.0,1500175997.0,2.0,202.0,1.01,-1,13 20 15 18 19 16 14 17
1801,1500177181.0,8,300.0,1,1500177183.0,181.0,1500177364.0,2.0,183.0,1.011049723756906,-1,58 59 17 57 19 18 20 60
1817,1500177690.0,8,300.0,1,1500177926.0,175.0,1500178101.0,236.0,411.0,2.3485714285714288,-1,77 74 78 75 80 76 73 79
1866,1500179771.0,16,200.0,1,1500179772.0,107.0,1500179879.0,1.0,108.0,1.0093457943925233,-1,23 20 22 19 41 21 18 24 42 47 44 45 46 17 48 43
1964,1500183341.0,8,300.0,1,1500184375.0,179.0,1500184554.0,1034.0,1213.0,6.776536312849162,-1,94 90 91 89 96 95 92 93
1968,1500183598.0,16,200.0,1,1500184413.0,106.0,1500184519.0,815.0,921.0,8.68867924528302,-1,49 41 45 50 43 44 48 51 54 53 46 56 55 47 42 52
1951,1500182777.0,32,200.0,1,1500184225.0,146.0,1500184371.0,1448.0,1594.0,10.917808219178083,-1,92 68 77 96 91 81 87 67 83 71 69 84 89 82 85 72 86 88 75 66 65 78 76 90 94 95 79 73 74 70 93 80
1917,1500181434.0,8,300.0,1,1500183304.0,174.0,1500183478.0,1870.0,2044.0,11.74712643678161,-1,24 21 18 20 19 17 23 22
1977,1500183963.0,8,300.0,1,1500184815.0,176.0,1500184991.0,852.0,1028.0,5.840909090909091,-1,93 89 94 91 96 95 90 92
1780,1500176291.0,8,300.0,1,1500176292.0,195.0,1500176487.0,1.0,196.0,1.005128205128205,-1,23 21 24 46 45 22 47 48
1852,1500179069.0,8,300.0,1,1500179070.0,193.0,1500179263.0,1.0,194.0,1.005181347150259,-1,25 26 27 31 30 32 29 28
1973,1500183897.0,8,300.0,1,1500184703.0,178.0,1500184881.0,806.0,984.0,5.52808988764045,-1,71 68 65 67 69 70 66 72
1869,1500179830.0,8,300.0,1,1500179832.0,200.0,1500180032.0,2.0,202.0,1.01,-1,96 92 91 93 89 95 94 90
1974,1500183928.0,16,200.0,1,1500184703.0,107.0,1500184810.0,775.0,882.0,8.242990654205608,-1,105 109 106 110 108 96 91 95 94 90 89 92 93 111 112 107
1804,1500177298.0,32,200.0,1,1500177299.0,138.0,1500177437.0,1.0,139.0,1.0072463768115942,-1,6 23 4 21 48 79 3 52 24 47 77 83 88 78 84 51 86 82 7 8 5 81 49 1 45 50 87 22 46 2 85 80
1999,1500184873.0,4,200.0,1,1500185537.0,141.0,1500185678.0,664.0,805.0,5.709219858156028,-1,126 127 125 128
1813,1500177573.0,64,200.0,1,1500177695.0,82.0,1500177777.0,122.0,204.0,2.4878048780487805,-1,88 89 59 22 77 63 82 52 62 23 17 76 5 80 45 6 79 71 95 96 20 94 8 86 72 70 4 57 24 60 68 50 87 18 65 47 90 46 84 81 92 66 1 67 64 58 49 93 78 2 73 19 74 3 75 21 69 85 91 7 48 83 51 61
1978,1500183973.0,4,200.0,1,1500184703.0,142.0,1500184845.0,730.0,872.0,6.140845070422535,-1,128 127 126 125
1842,1500178830.0,16,200.0,1,1500178832.0,115.0,1500178947.0,2.0,117.0,1.017391304347826,-1,44 41 32 35 34 29 33 37 30 40 38 42 43 31 39 36
1969,1500183643.0,4,200.0,1,1500183664.0,96.0,1500183760.0,21.0,117.0,1.21875,-1,24 22 21 23
1936,1500182247.0,8,300.0,1,1500183586.0,180.0,1500183766.0,1339.0,1519.0,8.438888888888888,-1,71 73 72 74 69 76 70 75
1889,1500180762.0,8,300.0,1,1500180763.0,174.0,1500180937.0,1.0,175.0,1.0057471264367817,-1,3 4 5 8 2 7 1 6
1942,1500182465.0,4,200.0,1,1500183618.0,141.0,1500183759.0,1153.0,1294.0,9.177304964539006,-1,84 82 83 81
1803,1500177253.0,8,300.0,1,1500177255.0,178.0,1500177433.0,2.0,180.0,1.0112359550561798,-1,74 70 73 76 75 69 71 72
1994,1500184708.0,4,200.0,1,1500185537.0,140.0,1500185677.0,829.0,969.0,6.921428571428572,-1,124 122 121 123
1807,1500177314.0,8,300.0,1,1500177368.0,184.0,1500177552.0,54.0,238.0,1.2934782608695652,-1,20 17 18 59 60 19 57 58
1827,1500178069.0,8,300.0,1,1500178109.0,180.0,1500178289.0,40.0,220.0,1.2222222222222223,-1,65 72 67 68 70 71 66 69
1825,1500178033.0,4,200.0,1,1500178105.0,142.0,1500178247.0,72.0,214.0,1.5070422535211268,-1,74 75 73 76
1877,1500180284.0,16,200.0,1,1500180286.0,123.0,1500180409.0,2.0,125.0,1.016260162601626,-1,55 56 41 43 51 53 52 54 42 50 47 46 48 45 44 49
1776,1500176142.0,4,200.0,1,1500176143.0,95.0,1500176238.0,1.0,96.0,1.0105263157894737,-1,59 57 60 58
1836,1500178647.0,4,200.0,1,1500178649.0,139.0,1500178788.0,2.0,141.0,1.014388489208633,-1,1 2 4 3
1896,1500180868.0,4,200.0,1,1500180869.0,94.0,1500180963.0,1.0,95.0,1.0106382978723405,-1,41 43 44 42
1784,1500176537.0,8,300.0,1,1500176538.0,193.0,1500176731.0,1.0,194.0,1.005181347150259,-1,63 68 62 61 67 64 65 66
1781,1500176499.0,16,200.0,1,1500176501.0,132.0,1500176633.0,2.0,134.0,1.0151515151515151,-1,20 7 23 2 4 1 3 22 18 24 19 21 17 5 6 8
1929,1500181867.0,8,300.0,1,1500183485.0,175.0,1500183660.0,1618.0,1793.0,10.245714285714286,-1,4 1 5 8 6 7 2 3
1980,1500184037.0,16,200.0,1,1500184885.0,117.0,1500185002.0,848.0,965.0,8.247863247863247,-1,71 69 109 65 107 66 67 72 108 70 110 112 105 68 111 106
1874,1500180022.0,16,200.0,1,1500180023.0,109.0,1500180132.0,1.0,110.0,1.0091743119266054,-1,99 104 49 97 98 38 39 102 100 103 51 101 37 52 50 40
1862,1500179649.0,8,300.0,1,1500179650.0,188.0,1500179838.0,1.0,189.0,1.0053191489361701,-1,30 36 32 34 33 31 35 29
1920,1500181505.0,4,200.0,1,1500183304.0,142.0,1500183446.0,1799.0,1941.0,13.669014084507042,-1,30 29 32 31
1870,1500179879.0,8,300.0,1,1500179880.0,188.0,1500180068.0,1.0,189.0,1.0053191489361701,-1,6 5 4 2 1 7 3 8
1792,1500176767.0,8,300.0,1,1500176768.0,176.0,1500176944.0,1.0,177.0,1.0056818181818181,-1,62 64 58 61 59 60 63 57
1791,1500176766.0,4,200.0,1,1500176768.0,94.0,1500176862.0,2.0,96.0,1.0212765957446808,-1,49 52 51 50
1837,1500178658.0,4,200.0,1,1500178659.0,141.0,1500178800.0,1.0,142.0,1.0070921985815602,-1,9 10 12 11
1843,1500178836.0,16,200.0,1,1500178837.0,123.0,1500178960.0,1.0,124.0,1.008130081300813,-1,47 46 92 54 55 51 50 49 90 45 52 48 53 89 91 56
1893,1500180831.0,64,200.0,1,1500181764.0,82.0,1500181846.0,933.0,1015.0,12.378048780487806,-1,16 127 9 12 34 35 52 123 33 21 36 20 122 15 117 22 125 25 32 118 4 24 3 5 29 48 11 43 1 28 121 38 44 7 50 2 40 51 6 120 37 13 14 128 47 19 119 23 27 45 46 31 49 30 8 18 41 17 42 39 10 26 126 124
1937,1500182300.0,16,200.0,1,1500183601.0,117.0,1500183718.0,1301.0,1418.0,12.11965811965812,-1,37 33 46 41 40 45 47 35 39 44 34 36 38 48 43 42
1788,1500176638.0,32,200.0,1,1500176639.0,147.0,1500176786.0,1.0,148.0,1.0068027210884354,-1,98 22 107 101 24 23 103 109 105 3 18 19 104 97 5 102 110 100 108 6 99 7 111 112 106 1 20 8 21 4 2 17
1881,1500180426.0,16,200.0,1,1500180444.0,108.0,1500180552.0,18.0,126.0,1.1666666666666667,-1,64 63 4 3 60 2 6 62 61 59 7 1 5 57 58 8
2000,1500184901.0,32,200.0,1,1500185715.0,147.0,1500185862.0,814.0,961.0,6.537414965986395,-1,30 1 14 23 21 27 28 22 17 16 6 4 26 18 11 9 31 5 24 32 3 10 2 12 13 20 8 29 15 7 19 25
1794,1500176790.0,8,300.0,1,1500176791.0,203.0,1500176994.0,1.0,204.0,1.0049261083743843,-1,5 4 3 7 1 6 8 2
1779,1500176284.0,4,200.0,1,1500176285.0,141.0,1500176426.0,1.0,142.0,1.0070921985815602,-1,17 18 20 19
1846,1500178884.0,4,200.0,1,1500178913.0,143.0,1500179056.0,29.0,172.0,1.2027972027972027,-1,106 105 107 108
1972,1500183867.0,32,2400.0,1,1500184703.0,1472.0,1500186175.0,836.0,2308.0,1.5679347826086956,-1,64 51 45 56 37 47 57 42 52 44 50 55 41 61 62 53 38 54 60 33 36 39 40 48 63 43 59 49 58 46 34 35
1841,1500178827.0,4,200.0,1,1500178828.0,140.0,1500178968.0,1.0,141.0,1.0071428571428571,-1,28 25 27 26
1774,1500176091.0,8,300.0,1,1500176093.0,186.0,1500176279.0,2.0,188.0,1.010752688172043,-1,51 46 50 52 45 47 48 49
1751,1500175148.0,128,600.0,1,1500175149.0,418.0,1500175567.0,1.0,419.0,1.0023923444976077,-1,18 67 119 14 62 20 10 83 60 115 70 46 123 49 25 34 96 28 36 79 121 52 39 4 122 37 58 19 3 1 27 45 68 87 82 124 78 74 65 77 12 89 117 93 2 54 13 43 57 100 105 15 102 125 126 95 116 44 41 17 72 98 35 23 109 40 81 80 42 92 86 127 69 71 106 120 53 63 38 73 94 50 22 56 101 21 112 59 84 8 90 108 16 48 110 24 31 103 88 76 64 9 30 29 97 128 47 113 26 85 11 5 104 118 33 91 111 75 51 32 66 114 61 55 107 6 99 7
1790,1500176697.0,4,200.0,1,1500176698.0,95.0,1500176793.0,1.0,96.0,1.0105263157894737,-1,118 120 117 119
1758,1500175588.0,64,200.0,1,1500175589.0,88.0,1500175677.0,1.0,89.0,1.0113636363636365,-1,94 114 101 64 120 88 118 61 111 85 103 66 98 93 59 70 81 69 72 89 110 74 100 58 104 96 82 90 102 79 84 83 112 78 106 77 97 67 91 57 68 65 113 75 109 116 119 107 115 95 99 87 62 117 73 76 63 60 80 92 108 71 105 86
1938,1500182326.0,4,200.0,1,1500183457.0,92.0,1500183549.0,1131.0,1223.0,13.293478260869565,-1,127 126 128 125
1957,1500183058.0,4,200.0,1,1500183663.0,140.0,1500183803.0,605.0,745.0,5.321428571428571,-1,9 10 11 12
1902,1500181006.0,8,300.0,1,1500181400.0,177.0,1500181577.0,394.0,571.0,3.225988700564972,-1,122 126 124 128 123 125 127 121
1826,1500178066.0,4,200.0,1,1500178105.0,142.0,1500178247.0,39.0,181.0,1.2746478873239437,-1,79 77 78 80
1992,1500184588.0,4,200.0,1,1500185115.0,95.0,1500185210.0,527.0,622.0,6.5473684210526315,-1,111 112 109 110
1967,1500183593.0,8,300.0,1,1500184410.0,199.0,1500184609.0,817.0,1016.0,5.105527638190955,-1,127 123 125 121 128 126 124 122
1809,1500177406.0,8,300.0,1,1500177438.0,192.0,1500177630.0,32.0,224.0,1.1666666666666667,-1,72 69 74 70 76 71 75 73
1850,1500179021.0,16,200.0,1,1500179023.0,136.0,1500179159.0,2.0,138.0,1.0147058823529411,-1,9 8 5 11 15 18 17 7 6 13 19 16 12 10 14 20
1831,1500178445.0,8,300.0,1,1500178446.0,194.0,1500178640.0,1.0,195.0,1.0051546391752577,-1,11 12 2 4 3 1 9 10
1998,1500184855.0,8,300.0,1,1500185983.0,183.0,1500186166.0,1128.0,1311.0,7.163934426229508,-1,102 100 98 104 103 99 97 101
1989,1500184502.0,32,200.0,1,1500185394.0,138.0,1500185532.0,892.0,1030.0,7.463768115942029,-1,127 95 66 110 68 105 128 121 108 69 92 65 112 109 93 111 126 107 122 67 96 71 123 94 125 90 124 91 70 72 106 89
1975,1500183937.0,64,200.0,1,1500185906.0,80.0,1500185986.0,1969.0,2049.0,25.6125,-1,124 8 1 127 14 22 17 27 110 30 10 28 67 111 19 6 92 108 96 72 65 32 4 20 107 9 3 125 68 16 126 2 121 90 29 109 95 123 93 13 122 24 23 70 31 11 18 66 94 69 5 112 21 7 15 25 106 128 71 26 105 12 91 89
1919,1500181464.0,4,200.0,1,1500183304.0,143.0,1500183447.0,1840.0,1983.0,13.867132867132867,-1,26 28 25 27
1935,1500182238.0,8,300.0,1,1500183586.0,174.0,1500183760.0,1348.0,1522.0,8.74712643678161,-1,67 61 64 62 66 68 65 63
1856,1500179514.0,4,200.0,1,1500179515.0,142.0,1500179657.0,1.0,143.0,1.0070422535211268,-1,3 1 2 4
1873,1500179963.0,16,200.0,1,1500179964.0,108.0,1500180072.0,1.0,109.0,1.0092592592592593,-1,42 41 47 46 48 33 34 55 44 36 43 56 53 54 45 35
1847,1500178890.0,4,200.0,1,1500178913.0,143.0,1500179056.0,23.0,166.0,1.1608391608391608,-1,112 110 111 109
1757,1500175570.0,8,300.0,1,1500175573.0,186.0,1500175759.0,3.0,189.0,1.0161290322580645,-1,56 53 55 54 50 49 51 52
1785,1500176592.0,4,200.0,1,1500176594.0,139.0,1500176733.0,2.0,141.0,1.014388489208633,-1,70 69 72 71
1934,1500182194.0,8,300.0,1,1500183586.0,173.0,1500183759.0,1392.0,1565.0,9.046242774566474,-1,54 56 59 53 58 55 60 57
1945,1500182570.0,4,200.0,1,1500183618.0,96.0,1500183714.0,1048.0,1144.0,11.916666666666666,-1,92 89 90 91
1821,1500177834.0,16,200.0,1,1500178017.0,118.0,1500178135.0,183.0,301.0,2.5508474576271185,-1,17 15 20 21 13 19 9 22 10 23 18 16 24 11 14 12
1818,1500177715.0,8,300.0,1,1500177926.0,180.0,1500178106.0,211.0,391.0,2.172222222222222,-1,87 82 83 86 85 84 88 81
1861,1500179643.0,8,300.0,1,1500179645.0,193.0,1500179838.0,2.0,195.0,1.0103626943005182,-1,6 7 27 8 25 26 28 5
1845,1500178880.0,8,300.0,1,1500178913.0,185.0,1500179098.0,33.0,218.0,1.1783783783783783,-1,102 104 103 99 97 98 101 100
1906,1500181114.0,8,300.0,1,1500181583.0,175.0,1500181758.0,469.0,644.0,3.68,-1,49 117 52 51 50 119 118 120
1952,1500182790.0,8,300.0,1,1500184225.0,180.0,1500184405.0,1435.0,1615.0,8.972222222222221,-1,102 100 97 101 103 98 99 104
1811,1500177549.0,4,200.0,1,1500177551.0,139.0,1500177690.0,2.0,141.0,1.014388489208633,-1,4 3 1 2
1859,1500179526.0,4,200.0,1,1500179528.0,140.0,1500179668.0,2.0,142.0,1.0142857142857142,-1,14 16 13 15
1858,1500179515.0,4,200.0,1,1500179517.0,140.0,1500179657.0,2.0,142.0,1.0142857142857142,-1,11 10 9 12
1993,1500184645.0,16,200.0,1,1500185537.0,106.0,1500185643.0,892.0,998.0,9.415094339622641,-1,93 96 111 89 107 92 112 91 90 110 95 109 94 106 108 105
1767,1500175920.0,4,200.0,1,1500175922.0,144.0,1500176066.0,2.0,146.0,1.0138888888888888,-1,2 4 3 1
1956,1500182961.0,16,200.0,1,1500183671.0,105.0,1500183776.0,710.0,815.0,7.761904761904762,-1,8 4 119 118 52 51 2 120 49 1 50 3 6 7 5 117
1773,1500176090.0,4,200.0,1,1500176091.0,96.0,1500176187.0,1.0,97.0,1.0104166666666667,-1,3 1 2 4
1948,1500182704.0,8,300.0,1,1500184225.0,180.0,1500184405.0,1521.0,1701.0,9.45,-1,51 50 56 55 52 53 54 49
1782,1500176503.0,4,200.0,1,1500176504.0,140.0,1500176644.0,1.0,141.0,1.0071428571428571,-1,45 46 47 48
1883,1500180520.0,32,200.0,1,1500180521.0,139.0,1500180660.0,1.0,140.0,1.0071942446043165,-1,106 110 128 124 105 107 119 97 113 117 109 100 127 108 118 115 104 114 120 116 101 111 99 126 121 102 103 123 125 98 122 112
1979,1500184015.0,4,200.0,1,1500184804.0,138.0,1500184942.0,789.0,927.0,6.717391304347826,-1,124 123 121 122
1892,1500180805.0,32,200.0,1,1500180968.0,137.0,1500181105.0,163.0,300.0,2.18978102189781,-1,42 120 123 118 122 41 2 121 46 7 45 44 47 128 6 124 52 5 126 1 117 127 8 4 43 3 119 51 125 49 50 48
1886,1500180642.0,32,2400.0,1,1500180665.0,1463.0,1500182128.0,23.0,1486.0,1.015721120984279,-1,108 100 105 112 98 57 103 61 102 58 60 55 114 53 106 63 116 59 110 62 101 111 64 109 113 115 107 99 104 56 97 54
1939,1500182363.0,8,300.0,1,1500183601.0,181.0,1500183782.0,1238.0,1419.0,7.8397790055248615,-1,97 77 78 79 99 98 80 100
1868,1500179800.0,4,200.0,1,1500179802.0,141.0,1500179943.0,2.0,143.0,1.0141843971631206,-1,55 53 56 54
1787,1500176603.0,16,200.0,1,1500176604.0,107.0,1500176711.0,1.0,108.0,1.0093457943925233,-1,93 84 86 83 88 82 96 81 87 89 94 90 92 85 91 95
1880,1500180323.0,16,200.0,1,1500180414.0,125.0,1500180539.0,91.0,216.0,1.728,-1,47 49 41 45 46 54 42 48 43 53 50 44 52 51 55 56
1910,1500181215.0,8,300.0,1,1500181980.0,178.0,1500182158.0,765.0,943.0,5.297752808988764,-1,88 84 86 83 81 85 87 82
1946,1500182660.0,4,200.0,1,1500183618.0,143.0,1500183761.0,958.0,1101.0,7.699300699300699,-1,96 93 94 95
1962,1500183247.0,16,200.0,1,1500184375.0,124.0,1500184499.0,1128.0,1252.0,10.096774193548388,-1,82 75 84 79 74 87 80 78 76 83 77 81 88 86 85 73
1777,1500176215.0,8,300.0,1,1500176217.0,202.0,1500176419.0,2.0,204.0,1.00990099009901,-1,1 8 5 4 7 6 3 2
1832,1500178571.0,8,300.0,1,1500178573.0,197.0,1500178770.0,2.0,199.0,1.0101522842639594,-1,13 6 15 8 16 14 7 5
1905,1500181091.0,8,300.0,1,1500181581.0,179.0,1500181760.0,490.0,669.0,3.7374301675977653,-1,41 46 43 44 42 48 47 45
1795,1500176877.0,4,200.0,1,1500176879.0,140.0,1500177019.0,2.0,142.0,1.0142857142857142,-1,17 19 20 18
1954,1500182893.0,4,200.0,1,1500183633.0,141.0,1500183774.0,740.0,881.0,6.24822695035461,-1,25 28 26 27
1878,1500180298.0,4,200.0,1,1500180300.0,139.0,1500180439.0,2.0,141.0,1.014388489208633,-1,90 91 92 89
1908,1500181164.0,32,2400.0,1,1500181850.0,1451.0,1500183301.0,686.0,2137.0,1.4727773949000689,-1,120 119 128 43 51 44 126 45 35 48 42 52 36 49 121 40 39 122 50 124 33 38 41 125 46 118 34 37 47 127 117 123
1765,1500175825.0,8,300.0,1,1500175827.0,199.0,1500176026.0,2.0,201.0,1.0100502512562815,-1,37 41 40 44 39 38 43 42
1853,1500179100.0,16,200.0,1,1500179102.0,124.0,1500179226.0,2.0,126.0,1.0161290322580645,-1,40 35 44 48 33 43 38 34 37 45 39 36 47 42 46 41
1928,1500181864.0,8,300.0,1,1500183483.0,175.0,1500183658.0,1619.0,1794.0,10.251428571428571,-1,22 19 17 18 23 24 21 20
1875,1500180256.0,8,300.0,1,1500180258.0,178.0,1500180436.0,2.0,180.0,1.0112359550561798,-1,3 1 6 7 2 8 5 4
