jobID,submission_time,requested_number_of_processors,requested_time,success,starting_time,execution_time,finish_time,waiting_time,turnaround_time,stretch,consumed_energy,allocated_processors
406,1499437077.0,4,200.0,1,1499437097.0,141.0,1499437238.0,20.0,161.0,1.1418439716312057,-1,109 112 111 110
365,1499435803.0,128,600.0,1,1499437573.0,419.0,1499437992.0,1770.0,2189.0,5.2243436754176615,-1,96 65 31 19 82 119 128 28 46 91 1 21 108 37 13 98 27 69 51 68 121 44 34 80 38 95 39 94 10 89 30 122 23 120 15 126 26 71 109 61 83 35 72 78 22 74 5 62 111 93 24 6 42 8 112 14 106 86 100 105 117 56 87 70 17 75 50 41 99 114 36 52 67 92 32 63 103 25 53 16 57 20 33 29 101 48 104 127 45 81 40 11 123 102 9 3 2 97 55 107 47 73 113 125 124 4 88 115 85 77 64 110 90 18 116 84 54 79 60 66 118 43 49 76 12 58 59 7
476,1499439551.0,64,200.0,1,1499442518.0,84.0,1499442602.0,2967.0,3051.0,36.32142857142857,-1,25 13 20 30 39 46 27 49 1 14 4 45 12 51 16 48 21 42 61 3 58 40 26 7 63 10 19 22 54 53 24 44 56 11 17 38 50 33 15 29 36 32 43 34 6 9 41 31 37 52 47 59 18 60 2 8 23 57 28 55 35 64 5 62
452,1499438621.0,16,200.0,1,1499438996.0,106.0,1499439102.0,375.0,481.0,4.537735849056604,-1,123 124 100 125 128 127 98 122 97 121 126 111 112 99 110 109
436,1499438215.0,8,300.0,1,1499438447.0,181.0,1499438628.0,232.0,413.0,2.281767955801105,-1,124 116 121 122 123 114 115 113
255,1499431599.0,16,200.0,1,1499431600.0,142.0,1499431742.0,1.0,143.0,1.0070422535211268,-1,19 27 25 21 23 14 13 16 22 18 17 26 28 15 24 20
424,1499437915.0,4,200.0,1,1499438122.0,139.0,1499438261.0,207.0,346.0,2.4892086330935252,-1,113 116 114 115
289,1499433132.0,32,2400.0,1,1499433134.0,1818.0,1499434952.0,2.0,1820.0,1.001100110011001,-1,60 48 39 63 57 5 38 40 46 64 34 45 35 43 41 36 32 29 37 42 58 47 31 6 62 33 44 7 61 30 8 59
271,1499432461.0,4,200.0,1,1499432462.0,94.0,1499432556.0,1.0,95.0,1.0106382978723405,-1,36 34 33 35
305,1499433619.0,128,600.0,1,1499435009.0,417.0,1499435426.0,1390.0,1807.0,4.333333333333333,-1,46 115 38 24 19 63 93 54 97 5 108 30 79 51 125 98 94 14 9 95 33 67 106 86 120 72 42 59 109 53 7 39 31 107 99 104 122 40 116 48 20 114 68 13 90 65 50 118 111 47 66 105 21 1 77 29 3 87 44 112 60 15 75 88 22 18 119 4 71 74 113 110 23 82 127 64 58 32 37 80 84 92 36 121 12 8 26 70 57 45 35 85 43 17 123 69 81 102 96 124 28 49 34 100 103 41 101 56 25 52 11 61 78 62 73 16 128 91 6 27 2 55 126 117 83 89 10 76
401,1499436920.0,8,300.0,1,1499437064.0,186.0,1499437250.0,144.0,330.0,1.7741935483870968,-1,67 75 68 76 73 66 74 65
297,1499433411.0,8,300.0,1,1499433413.0,207.0,1499433620.0,2.0,209.0,1.0096618357487923,-1,9 12 14 10 16 13 11 15
315,1499434175.0,8,300.0,1,1499434177.0,189.0,1499434366.0,2.0,191.0,1.0105820105820107,-1,85 91 90 86 88 92 87 89
383,1499436175.0,32,2400.0,1,1499437997.0,1507.0,1499439504.0,1822.0,3329.0,2.2090245520902454,-1,29 25 24 28 10 27 5 14 19 21 2 32 9 11 30 26 20 15 8 16 23 18 7 17 13 4 1 6 31 12 22 3
500,1499440345.0,8,300.0,1,1499441066.0,181.0,1499441247.0,721.0,902.0,4.983425414364641,-1,108 105 109 110 106 112 107 111
281,1499432879.0,4,200.0,1,1499432880.0,141.0,1499433021.0,1.0,142.0,1.0070921985815602,-1,11 12 10 9
306,1499433686.0,16,200.0,1,1499433687.0,141.0,1499433828.0,1.0,142.0,1.0070921985815602,-1,25 13 26 51 49 27 10 11 28 16 15 52 12 9 14 50
447,1499438491.0,8,300.0,1,1499438818.0,178.0,1499438996.0,327.0,505.0,2.837078651685393,-1,117 113 114 115 118 120 116 119
355,1499435577.0,16,200.0,1,1499435824.0,107.0,1499435931.0,247.0,354.0,3.308411214953271,-1,72 70 60 96 93 69 64 63 57 58 94 59 95 61 71 62
425,1499437930.0,16,200.0,1,1499438146.0,116.0,1499438262.0,216.0,332.0,2.8620689655172415,-1,123 99 102 101 119 103 100 122 121 120 117 124 97 118 98 104
364,1499435749.0,16,200.0,1,1499436013.0,117.0,1499436130.0,264.0,381.0,3.2564102564102564,-1,120 105 108 124 112 118 111 109 123 110 107 117 121 106 122 119
378,1499436041.0,8,300.0,1,1499436500.0,178.0,1499436678.0,459.0,637.0,3.5786516853932584,-1,57 59 128 126 58 127 125 60
421,1499437568.0,32,2400.0,1,1499440077.0,1540.0,1499441617.0,2509.0,4049.0,2.629220779220779,-1,3 21 28 1 10 32 25 8 14 9 30 15 2 26 7 18 13 5 24 31 23 17 19 27 20 6 12 16 11 22 4 29
340,1499435044.0,8,300.0,1,1499435431.0,181.0,1499435612.0,387.0,568.0,3.138121546961326,-1,52 47 48 45 49 50 46 51
276,1499432658.0,8,300.0,1,1499432660.0,205.0,1499432865.0,2.0,207.0,1.0097560975609756,-1,30 31 28 32 25 29 26 27
328,1499434721.0,4,200.0,1,1499434722.0,141.0,1499434863.0,1.0,142.0,1.0070921985815602,-1,24 21 23 22
282,1499432892.0,8,300.0,1,1499432893.0,192.0,1499433085.0,1.0,193.0,1.0052083333333333,-1,19 18 14 20 13 16 15 17
308,1499433790.0,16,200.0,1,1499433792.0,142.0,1499433934.0,2.0,144.0,1.0140845070422535,-1,68 72 67 70 77 75 73 66 78 76 80 65 71 74 79 69
428,1499437960.0,32,2400.0,1,1499440077.0,1509.0,1499441586.0,2117.0,3626.0,2.402915838303512,-1,62 46 53 49 39 45 33 41 64 61 50 47 35 38 63 59 36 60 37 44 56 52 55 48 57 43 42 51 40 54 58 34
265,1499432125.0,8,300.0,1,1499432127.0,180.0,1499432307.0,2.0,182.0,1.011111111111111,-1,5 11 8 12 6 10 7 9
286,1499432962.0,8,300.0,1,1499432963.0,177.0,1499433140.0,1.0,178.0,1.0056497175141244,-1,56 49 52 54 55 50 51 53
478,1499439569.0,4,200.0,1,1499440077.0,98.0,1499440175.0,508.0,606.0,6.183673469387755,-1,121 123 124 122
498,1499440312.0,4,200.0,1,1499440945.0,140.0,1499441085.0,633.0,773.0,5.521428571428571,-1,127 125 128 126
363,1499435702.0,8,300.0,1,1499436009.0,176.0,1499436185.0,307.0,483.0,2.7443181818181817,-1,103 102 113 101 115 104 116 114
319,1499434434.0,32,2400.0,1,1499435431.0,1490.0,1499436921.0,997.0,2487.0,1.6691275167785236,-1,13 32 15 26 8 1 19 22 2 30 7 10 4 17 14 3 18 12 16 21 27 11 25 9 20 28 29 23 6 24 5 31
369,1499435977.0,4,200.0,1,1499436155.0,139.0,1499436294.0,178.0,317.0,2.2805755395683454,-1,127 128 125 126
413,1499437376.0,16,200.0,1,1499437377.0,105.0,1499437482.0,1.0,106.0,1.0095238095238095,-1,15 16 9 17 11 7 19 18 12 20 14 8 5 13 6 10
285,1499432960.0,4,200.0,1,1499432962.0,140.0,1499433102.0,2.0,142.0,1.0142857142857142,-1,6 8 7 5
261,1499431835.0,32,200.0,1,1499431836.0,168.0,1499432004.0,1.0,169.0,1.005952380952381,-1,26 9 37 23 15 36 40 32 10 17 33 11 12 39 28 18 20 35 38 14 30 19 16 21 29 25 13 31 24 27 34 22
422,1499437688.0,8,300.0,1,1499437997.0,181.0,1499438178.0,309.0,490.0,2.707182320441989,-1,105 111 107 108 110 106 112 109
414,1499437382.0,4,200.0,1,1499437384.0,93.0,1499437477.0,2.0,95.0,1.021505376344086,-1,22 24 23 21
296,1499433396.0,4,200.0,1,1499433398.0,141.0,1499433539.0,2.0,143.0,1.0141843971631206,-1,1 4 2 3
252,1499431280.0,8,300.0,1,1499431281.0,200.0,1499431481.0,1.0,201.0,1.005,-1,11 7 5 8 12 6 9 10
494,1499440238.0,8,300.0,1,1499440830.0,175.0,1499441005.0,592.0,767.0,4.382857142857143,-1,104 101 103 99 100 97 102 98
299,1499433476.0,8,300.0,1,1499433478.0,207.0,1499433685.0,2.0,209.0,1.0096618357487923,-1,17 19 24 23 22 18 20 21
479,1499439592.0,32,2400.0,1,1499442518.0,1690.0,1499444208.0,2926.0,4616.0,2.731360946745562,-1,83 89 70 85 78 93 74 81 67 96 72 90 84 80 69 86 65 94 95 87 68 91 76 71 75 79 77 73 88 92 66 82
464,1499439252.0,8,300.0,1,1499439411.0,181.0,1499439592.0,159.0,340.0,1.8784530386740332,-1,115 117 120 114 119 118 113 116
437,1499438239.0,4,200.0,1,1499438447.0,95.0,1499438542.0,208.0,303.0,3.1894736842105265,-1,125 126 127 128
291,1499433233.0,8,300.0,1,1499433235.0,198.0,1499433433.0,2.0,200.0,1.0101010101010102,-1,20 18 24 19 23 22 17 21
407,1499437115.0,4,200.0,1,1499437116.0,139.0,1499437255.0,1.0,140.0,1.0071942446043165,-1,12 10 9 11
295,1499433318.0,4,200.0,1,1499433320.0,95.0,1499433415.0,2.0,97.0,1.0210526315789474,-1,117 118 120 119
359,1499435659.0,8,300.0,1,1499435824.0,180.0,1499436004.0,165.0,345.0,1.9166666666666667,-1,113 114 119 116 115 117 120 118
259,1499431701.0,4,200.0,1,1499431702.0,141.0,1499431843.0,1.0,142.0,1.0070921985815602,-1,1 4 2 3
362,1499435671.0,32,2400.0,1,1499436003.0,1493.0,1499437496.0,332.0,1825.0,1.2223710649698594,-1,95 38 40 69 70 71 50 47 52 44 94 49 98 48 62 51 97 45 99 64 96 72 39 93 41 42 61 63 100 43 37 46
388,1499436350.0,4,200.0,1,1499436826.0,142.0,1499436968.0,476.0,618.0,4.352112676056338,-1,108 107 105 106
485,1499439865.0,64,200.0,1,1499442607.0,81.0,1499442688.0,2742.0,2823.0,34.851851851851855,-1,10 32 55 14 23 43 60 36 41 15 31 54 11 62 52 39 56 17 2 29 61 13 34 20 40 22 8 33 59 42 51 16 21 7 5 38 25 47 45 57 12 49 63 44 4 19 48 27 58 64 30 18 6 1 46 50 28 9 26 35 37 53 24 3
309,1499434014.0,16,200.0,1,1499434015.0,128.0,1499434143.0,1.0,129.0,1.0078125,-1,9 17 16 4 14 15 19 20 2 11 3 10 1 13 18 12
389,1499436381.0,4,200.0,1,1499436826.0,142.0,1499436968.0,445.0,587.0,4.133802816901408,-1,111 109 110 112
358,1499435658.0,8,300.0,1,1499435824.0,184.0,1499436008.0,166.0,350.0,1.9021739130434783,-1,112 109 108 110 107 106 105 111
312,1499434038.0,8,300.0,1,1499434039.0,206.0,1499434245.0,1.0,207.0,1.0048543689320388,-1,65 54 68 56 66 55 67 53
360,1499435664.0,8,300.0,1,1499435824.0,180.0,1499436004.0,160.0,340.0,1.8888888888888888,-1,128 121 122 126 127 125 123 124
441,1499438309.0,4,200.0,1,1499438552.0,139.0,1499438691.0,243.0,382.0,2.7482014388489207,-1,112 110 111 109
311,1499434026.0,4,200.0,1,1499434028.0,93.0,1499434121.0,2.0,95.0,1.021505376344086,-1,52 51 49 50
444,1499438427.0,4,200.0,1,1499438633.0,139.0,1499438772.0,206.0,345.0,2.4820143884892087,-1,123 121 122 124
266,1499432144.0,8,300.0,1,1499432146.0,179.0,1499432325.0,2.0,181.0,1.011173184357542,-1,14 13 15 16 19 17 20 18
410,1499437230.0,8,300.0,1,1499437231.0,176.0,1499437407.0,1.0,177.0,1.0056818181818181,-1,31 27 30 29 28 26 25 32
456,1499438867.0,16,200.0,1,1499439106.0,121.0,1499439227.0,239.0,360.0,2.975206611570248,-1,115 97 120 98 114 100 117 118 99 112 110 113 109 119 116 111
335,1499434795.0,8,300.0,1,1499434797.0,207.0,1499435004.0,2.0,209.0,1.0096618357487923,-1,93 13 94 14 16 15 95 96
260,1499431736.0,32,200.0,1,1499431737.0,176.0,1499431913.0,1.0,177.0,1.0056818181818181,-1,64 60 66 65 74 57 61 73 67 76 59 55 54 5 62 80 71 78 6 56 7 75 79 58 72 8 69 63 77 53 70 68
317,1499434281.0,8,300.0,1,1499434282.0,195.0,1499434477.0,1.0,196.0,1.005128205128205,-1,54 25 26 28 27 55 56 53
275,1499432621.0,4,200.0,1,1499432622.0,141.0,1499432763.0,1.0,142.0,1.0070921985815602,-1,23 24 22 21
395,1499436709.0,8,300.0,1,1499436926.0,177.0,1499437103.0,217.0,394.0,2.225988700564972,-1,24 21 22 20 23 17 18 19
400,1499436881.0,8,300.0,1,1499437064.0,187.0,1499437251.0,183.0,370.0,1.9786096256684491,-1,55 35 53 56 36 34 33 54
386,1499436247.0,4,200.0,1,1499436826.0,142.0,1499436968.0,579.0,721.0,5.077464788732394,-1,104 102 103 101
435,1499438171.0,8,300.0,1,1499438367.0,180.0,1499438547.0,196.0,376.0,2.088888888888889,-1,109 110 111 119 118 117 112 120
490,1499440142.0,16,200.0,1,1499440707.0,118.0,1499440825.0,565.0,683.0,5.788135593220339,-1,110 103 97 108 101 111 102 112 104 109 99 106 105 98 107 100
471,1499439490.0,4,200.0,1,1499439509.0,142.0,1499439651.0,19.0,161.0,1.1338028169014085,-1,4 3 2 1
495,1499440258.0,4,200.0,1,1499440830.0,93.0,1499440923.0,572.0,665.0,7.150537634408602,-1,107 106 108 105
366,1499435882.0,4,200.0,1,1499436010.0,140.0,1499436150.0,128.0,268.0,1.9142857142857144,-1,127 125 126 128
354,1499435482.0,4,200.0,1,1499435484.0,141.0,1499435625.0,2.0,143.0,1.0141843971631206,-1,123 122 124 121
349,1499435310.0,16,200.0,1,1499435581.0,118.0,1499435699.0,271.0,389.0,3.2966101694915255,-1,96 93 94 103 102 127 125 101 97 98 126 95 100 99 104 128
390,1499436461.0,16,200.0,1,1499436826.0,108.0,1499436934.0,365.0,473.0,4.37962962962963,-1,122 121 116 125 119 128 127 115 126 114 124 118 120 113 117 123
423,1499437843.0,16,200.0,1,1499437997.0,120.0,1499438117.0,154.0,274.0,2.283333333333333,-1,127 128 123 119 114 125 116 126 117 122 118 115 124 120 113 121
493,1499440230.0,8,300.0,1,1499440765.0,175.0,1499440940.0,535.0,710.0,4.057142857142857,-1,123 127 122 125 121 124 128 126
270,1499432428.0,16,200.0,1,1499432430.0,132.0,1499432562.0,2.0,134.0,1.0151515151515151,-1,31 28 24 25 21 27 2 32 3 30 22 4 1 26 23 29
321,1499434482.0,4,200.0,1,1499434483.0,139.0,1499434622.0,1.0,140.0,1.0071942446043165,-1,28 25 27 26
384,1499436211.0,4,200.0,1,1499436522.0,140.0,1499436662.0,311.0,451.0,3.2214285714285715,-1,124 122 123 121
334,1499434792.0,16,200.0,1,1499434793.0,131.0,1499434924.0,1.0,132.0,1.0076335877862594,-1,80 81 89 84 86 90 83 82 88 78 79 91 87 92 77 85
258,1499431679.0,16,200.0,1,1499431680.0,110.0,1499431790.0,1.0,111.0,1.009090909090909,-1,10 45 51 48 47 12 41 50 49 46 9 11 44 42 52 43
323,1499434521.0,4,200.0,1,1499434523.0,143.0,1499434666.0,2.0,145.0,1.013986013986014,-1,96 94 93 95
350,1499435315.0,16,200.0,1,1499435619.0,104.0,1499435723.0,304.0,408.0,3.923076923076923,-1,70 52 69 48 50 105 71 51 46 107 49 47 106 108 72 45
427,1499437960.0,128,600.0,1,1499441683.0,414.0,1499442097.0,3723.0,4137.0,9.992753623188406,-1,29 64 79 117 55 124 65 26 77 37 56 68 1 47 100 119 70 75 44 41 14 63 123 27 108 46 33 22 91 74 105 12 36 19 118 112 122 80 127 78 48 57 66 93 2 121 94 95 23 39 35 89 58 71 40 50 45 101 61 76 4 21 110 85 34 51 109 17 31 38 106 30 99 43 72 120 52 111 16 88 115 24 15 18 59 53 25 3 103 128 13 73 82 54 90 49 86 7 84 92 102 113 81 87 11 125 60 96 32 5 8 9 116 97 107 98 28 126 83 62 42 20 10 114 69 6 104 67
391,1499436484.0,4,200.0,1,1499436926.0,143.0,1499437069.0,442.0,585.0,4.090909090909091,-1,3 4 1 2
465,1499439424.0,8,300.0,1,1499440077.0,176.0,1499440253.0,653.0,829.0,4.7102272727272725,-1,100 104 102 101 103 99 97 98
453,1499438646.0,64,200.0,1,1499439485.0,86.0,1499439571.0,839.0,925.0,10.755813953488373,-1,96 59 68 75 110 94 99 65 78 101 63 74 87 109 102 95 69 56 72 103 64 93 54 55 60 67 76 107 71 81 97 106 105 77 83 73 66 91 121 84 70 108 98 80 85 90 123 111 53 92 82 124 86 61 112 58 57 62 79 122 104 100 89 88
382,1499436160.0,32,200.0,1,1499436683.0,139.0,1499436822.0,523.0,662.0,4.762589928057554,-1,112 113 125 122 126 119 57 124 101 121 105 102 108 103 118 117 60 104 58 116 110 120 59 107 106 115 128 109 114 111 127 123
420,1499437562.0,4,200.0,1,1499437997.0,144.0,1499438141.0,435.0,579.0,4.020833333333333,-1,103 101 102 104
381,1499436148.0,16,200.0,1,1499436559.0,116.0,1499436675.0,411.0,527.0,4.543103448275862,-1,110 112 114 113 108 109 115 118 117 106 116 120 119 111 107 105
254,1499431517.0,4,200.0,1,1499431519.0,141.0,1499431660.0,2.0,143.0,1.0141843971631206,-1,10 11 9 12
318,1499434390.0,8,300.0,1,1499434391.0,200.0,1499434591.0,1.0,201.0,1.005,-1,1 2 12 10 4 3 11 9
357,1499435628.0,8,300.0,1,1499435824.0,175.0,1499435999.0,196.0,371.0,2.12,-1,100 102 98 97 104 101 99 103
342,1499435083.0,8,300.0,1,1499435431.0,190.0,1499435621.0,348.0,538.0,2.831578947368421,-1,62 59 61 63 64 57 58 60
473,1499439496.0,4,200.0,1,1499439509.0,93.0,1499439602.0,13.0,106.0,1.1397849462365592,-1,5 8 7 6
446,1499438483.0,16,200.0,1,1499438696.0,119.0,1499438815.0,213.0,332.0,2.7899159663865545,-1,125 110 111 109 102 128 107 103 104 106 101 108 112 105 126 127
411,1499437248.0,32,2400.0,1,1499437997.0,1464.0,1499439461.0,749.0,2213.0,1.5116120218579234,-1,77 71 73 83 79 89 86 69 94 87 70 91 66 68 90 96 95 67 76 65 78 92 72 80 81 85 74 75 88 93 84 82
448,1499438574.0,8,300.0,1,1499438821.0,175.0,1499438996.0,247.0,422.0,2.4114285714285715,-1,102 105 104 107 108 103 106 101
278,1499432698.0,4,200.0,1,1499432699.0,94.0,1499432793.0,1.0,95.0,1.0106382978723405,-1,40 39 38 37
443,1499438402.0,8,300.0,1,1499438633.0,181.0,1499438814.0,231.0,412.0,2.276243093922652,-1,120 115 119 116 113 118 114 117
408,1499437131.0,4,200.0,1,1499437132.0,142.0,1499437274.0,1.0,143.0,1.0070422535211268,-1,16 15 14 13
462,1499439079.0,8,300.0,1,1499439303.0,177.0,1499439480.0,224.0,401.0,2.2655367231638417,-1,128 122 121 124 125 123 126 127
352,1499435448.0,64,200.0,1,1499435736.0,84.0,1499435820.0,288.0,372.0,4.428571428571429,-1,113 126 103 64 58 59 52 104 123 121 40 98 108 37 96 38 48 116 107 128 100 63 41 45 97 60 46 117 125 112 105 118 62 122 120 71 94 72 111 44 57 119 102 95 61 51 99 47 50 110 49 42 93 115 70 43 106 127 124 101 114 69 109 39
294,1499433289.0,4,200.0,1,1499433290.0,142.0,1499433432.0,1.0,143.0,1.0070422535211268,-1,115 114 113 116
347,1499435257.0,8,300.0,1,1499435431.0,187.0,1499435618.0,174.0,361.0,1.9304812834224598,-1,119 117 120 114 113 116 115 118
480,1499439663.0,16,200.0,1,1499440407.0,118.0,1499440525.0,744.0,862.0,7.305084745762712,-1,112 103 100 102 104 101 111 108 105 97 110 99 106 98 107 109
279,1499432772.0,4,200.0,1,1499432773.0,139.0,1499432912.0,1.0,140.0,1.0071942446043165,-1,1 3 2 4
475,1499439527.0,32,200.0,1,1499440265.0,137.0,1499440402.0,738.0,875.0,6.386861313868613,-1,118 103 108 112 122 123 120 125 114 121 111 101 127 110 100 115 102 98 117 97 107 104 105 124 116 99 126 113 109 128 119 106
330,1499434767.0,8,300.0,1,1499434768.0,196.0,1499434964.0,1.0,197.0,1.0051020408163265,-1,56 54 55 51 53 52 50 49
346,1499435174.0,8,300.0,1,1499435431.0,184.0,1499435615.0,257.0,441.0,2.3967391304347827,-1,108 109 107 106 112 111 110 105
481,1499439672.0,4,200.0,1,1499440077.0,146.0,1499440223.0,405.0,551.0,3.7739726027397262,-1,126 125 127 128
418,1499437395.0,4,200.0,1,1499437396.0,140.0,1499437536.0,1.0,141.0,1.0071428571428571,-1,82 83 81 84
301,1499433518.0,8,300.0,1,1499433520.0,203.0,1499433723.0,2.0,205.0,1.0098522167487685,-1,67 66 55 68 65 53 54 56
455,1499438793.0,4,200.0,1,1499439001.0,94.0,1499439095.0,208.0,302.0,3.2127659574468086,-1,113 114 115 116
326,1499434650.0,4,200.0,1,1499434651.0,141.0,1499434792.0,1.0,142.0,1.0070921985815602,-1,16 14 13 15
264,1499432103.0,4,200.0,1,1499432105.0,92.0,1499432197.0,2.0,94.0,1.0217391304347827,-1,3 1 2 4
488,1499439911.0,8,300.0,1,1499440588.0,173.0,1499440761.0,677.0,850.0,4.913294797687861,-1,124 122 123 121 128 127 126 125
466,1499439427.0,8,300.0,1,1499440077.0,179.0,1499440256.0,650.0,829.0,4.631284916201118,-1,106 109 112 107 111 105 108 110
396,1499436800.0,8,300.0,1,1499436926.0,179.0,1499437105.0,126.0,305.0,1.7039106145251397,-1,27 25 30 31 26 32 29 28
459,1499438988.0,8,300.0,1,1499439231.0,176.0,1499439407.0,243.0,419.0,2.3806818181818183,-1,116 113 117 119 114 115 118 120
298,1499433426.0,4,200.0,1,1499433427.0,94.0,1499433521.0,1.0,95.0,1.0106382978723405,-1,28 26 27 25
274,1499432618.0,4,200.0,1,1499432620.0,94.0,1499432714.0,2.0,96.0,1.0212765957446808,-1,19 17 20 18
337,1499434856.0,16,200.0,1,1499434857.0,147.0,1499435004.0,1.0,148.0,1.0068027210884354,-1,2 11 108 18 17 3 107 105 20 4 10 9 106 1 12 19
415,1499437384.0,8,300.0,1,1499437385.0,183.0,1499437568.0,1.0,184.0,1.005464480874317,-1,53 33 35 56 55 36 54 34
457,1499438948.0,4,200.0,1,1499439106.0,140.0,1499439246.0,158.0,298.0,2.1285714285714286,-1,122 124 121 123
371,1499435986.0,4,200.0,1,1499436189.0,140.0,1499436329.0,203.0,343.0,2.45,-1,114 113 115 116
284,1499432935.0,16,200.0,1,1499432937.0,130.0,1499433067.0,2.0,132.0,1.0153846153846153,-1,40 4 39 47 41 38 42 45 1 37 2 44 48 3 46 43
333,1499434772.0,4,200.0,1,1499434774.0,140.0,1499434914.0,2.0,142.0,1.0142857142857142,-1,75 74 73 76
336,1499434799.0,8,300.0,1,1499434801.0,176.0,1499434977.0,2.0,178.0,1.0113636363636365,-1,101 102 104 100 98 103 99 97
267,1499432172.0,8,300.0,1,1499432174.0,189.0,1499432363.0,2.0,191.0,1.0105820105820107,-1,24 27 28 22 25 23 26 21
356,1499435623.0,4,200.0,1,1499435625.0,94.0,1499435719.0,2.0,96.0,1.0212765957446808,-1,118 119 120 117
445,1499438438.0,4,200.0,1,1499438678.0,141.0,1499438819.0,240.0,381.0,2.702127659574468,-1,99 100 97 98
361,1499435670.0,4,200.0,1,1499435935.0,139.0,1499436074.0,265.0,404.0,2.906474820143885,-1,57 60 59 58
404,1499437030.0,4,200.0,1,1499437097.0,140.0,1499437237.0,67.0,207.0,1.4785714285714286,-1,60 58 59 57
398,1499436805.0,16,200.0,1,1499436975.0,117.0,1499437092.0,170.0,287.0,2.452991452991453,-1,103 111 101 59 110 104 106 109 112 58 57 107 108 105 60 102
497,1499440295.0,16,200.0,1,1499440945.0,117.0,1499441062.0,650.0,767.0,6.555555555555555,-1,117 107 121 114 122 108 118 115 120 116 113 106 105 119 124 123
345,1499435154.0,32,200.0,1,1499435431.0,146.0,1499435577.0,277.0,423.0,2.8972602739726026,-1,102 78 84 104 100 76 98 94 97 96 95 99 89 80 103 86 88 77 101 93 81 92 82 85 90 79 75 91 87 83 74 73
331,1499434769.0,4,200.0,1,1499434770.0,141.0,1499434911.0,1.0,142.0,1.0070921985815602,-1,67 68 66 65
430,1499438025.0,8,300.0,1,1499438267.0,179.0,1499438446.0,242.0,421.0,2.35195530726257,-1,97 98 99 100 101 102 104 103
368,1499435946.0,16,200.0,1,1499436134.0,117.0,1499436251.0,188.0,305.0,2.606837606837607,-1,105 122 120 111 107 117 106 118 123 119 108 110 124 112 109 121
491,1499440176.0,8,300.0,1,1499440734.0,176.0,1499440910.0,558.0,734.0,4.170454545454546,-1,119 114 115 116 117 113 120 118
314,1499434169.0,32,200.0,1,1499434170.0,155.0,1499434325.0,1.0,156.0,1.0064516129032257,-1,76 10 82 75 13 83 12 20 50 84 80 73 18 49 51 1 16 79 4 74 3 2 14 78 17 81 9 52 11 19 15 77
416,1499437385.0,8,300.0,1,1499437387.0,178.0,1499437565.0,2.0,180.0,1.0112359550561798,-1,67 57 58 66 60 65 59 68
496,1499440274.0,4,200.0,1,1499440830.0,141.0,1499440971.0,556.0,697.0,4.943262411347518,-1,109 111 112 110
372,1499436004.0,4,200.0,1,1499436222.0,93.0,1499436315.0,218.0,311.0,3.3440860215053765,-1,60 59 57 58
463,1499439116.0,16,200.0,1,1499439355.0,117.0,1499439472.0,239.0,356.0,3.0427350427350426,-1,105 99 109 106 112 101 110 97 98 107 104 111 100 103 102 108
375,1499436017.0,8,300.0,1,1499436334.0,174.0,1499436508.0,317.0,491.0,2.82183908045977,-1,115 114 103 102 101 116 113 104
268,1499432219.0,4,200.0,1,1499432221.0,139.0,1499432360.0,2.0,141.0,1.014388489208633,-1,4 3 1 2
405,1499437061.0,8,300.0,1,1499437097.0,213.0,1499437310.0,36.0,249.0,1.1690140845070423,-1,103 106 107 108 105 102 101 104
320,1499434469.0,32,200.0,1,1499434471.0,161.0,1499434632.0,2.0,163.0,1.0124223602484472,-1,14 19 21 78 49 66 74 15 79 51 65 71 75 17 73 18 69 24 70 52 16 68 72 22 77 67 50 80 13 20 23 76
482,1499439695.0,8,300.0,1,1499440407.0,178.0,1499440585.0,712.0,890.0,5.0,-1,113 120 119 115 114 118 117 116
307,1499433746.0,16,200.0,1,1499433747.0,140.0,1499433887.0,1.0,141.0,1.0071428571428571,-1,17 18 20 19 21 54 24 22 23 53 4 55 2 1 56 3
325,1499434624.0,8,300.0,1,1499434626.0,191.0,1499434817.0,2.0,193.0,1.0104712041884816,-1,12 3 1 4 9 2 10 11
434,1499438109.0,4,200.0,1,1499438362.0,93.0,1499438455.0,253.0,346.0,3.7204301075268815,-1,105 106 108 107
399,1499436818.0,8,300.0,1,1499436938.0,179.0,1499437117.0,120.0,299.0,1.670391061452514,-1,127 126 123 124 122 121 125 128
302,1499433540.0,16,200.0,1,1499433541.0,106.0,1499433647.0,1.0,107.0,1.009433962264151,-1,28 76 25 71 74 69 79 73 78 26 80 72 77 75 27 70
458,1499438952.0,16,200.0,1,1499439231.0,120.0,1499439351.0,279.0,399.0,3.325,-1,112 100 111 97 103 98 106 99 101 105 102 109 110 107 108 104
468,1499439448.0,16,200.0,1,1499439466.0,121.0,1499439587.0,18.0,139.0,1.1487603305785123,-1,48 43 42 41 38 39 44 37 45 51 50 40 46 52 47 49
412,1499437275.0,4,200.0,1,1499437276.0,141.0,1499437417.0,1.0,142.0,1.0070921985815602,-1,1 4 2 3
419,1499437507.0,4,200.0,1,1499437997.0,144.0,1499438141.0,490.0,634.0,4.402777777777778,-1,97 100 98 99
290,1499433226.0,4,200.0,1,1499433227.0,140.0,1499433367.0,1.0,141.0,1.0071428571428571,-1,14 13 16 15
474,1499439509.0,16,200.0,1,1499439511.0,136.0,1499439647.0,2.0,138.0,1.0147058823529411,-1,9 22 17 13 16 10 21 24 15 14 23 20 18 19 12 11
440,1499438288.0,4,200.0,1,1499438451.0,94.0,1499438545.0,163.0,257.0,2.734042553191489,-1,102 103 104 101
287,1499433077.0,8,300.0,1,1499433078.0,195.0,1499433273.0,1.0,196.0,1.005128205128205,-1,10 3 12 1 9 11 4 2
367,1499435897.0,4,200.0,1,1499436079.0,139.0,1499436218.0,182.0,321.0,2.3093525179856114,-1,57 58 59 60
449,1499438597.0,8,300.0,1,1499438821.0,171.0,1499438992.0,224.0,395.0,2.309941520467836,-1,123 109 112 121 111 122 124 110
344,1499435120.0,4,200.0,1,1499435431.0,147.0,1499435578.0,311.0,458.0,3.1156462585034013,-1,69 71 70 72
379,1499436049.0,4,200.0,1,1499436377.0,141.0,1499436518.0,328.0,469.0,3.326241134751773,-1,121 124 122 123
499,1499440335.0,8,300.0,1,1499441010.0,173.0,1499441183.0,675.0,848.0,4.901734104046243,-1,99 98 100 101 104 102 97 103
451,1499438604.0,4,200.0,1,1499438824.0,140.0,1499438964.0,220.0,360.0,2.5714285714285716,-1,100 99 97 98
393,1499436616.0,8,300.0,1,1499436926.0,182.0,1499437108.0,310.0,492.0,2.7032967032967035,-1,13 12 15 14 9 10 11 16
339,1499435016.0,8,300.0,1,1499435431.0,195.0,1499435626.0,415.0,610.0,3.128205128205128,-1,39 40 43 38 37 41 42 44
432,1499438045.0,4,200.0,1,1499438267.0,95.0,1499438362.0,222.0,317.0,3.336842105263158,-1,117 118 119 120
402,1499436929.0,16,200.0,1,1499437064.0,122.0,1499437186.0,135.0,257.0,2.1065573770491803,-1,88 84 78 77 79 91 87 83 86 85 80 89 90 81 92 82
486,1499439875.0,4,200.0,1,1499440530.0,92.0,1499440622.0,655.0,747.0,8.119565217391305,-1,106 108 105 107
253,1499431497.0,8,300.0,1,1499431499.0,189.0,1499431688.0,2.0,191.0,1.0105820105820107,-1,3 6 4 7 2 5 1 8
327,1499434710.0,4,200.0,1,1499434711.0,95.0,1499434806.0,1.0,96.0,1.0105263157894737,-1,18 17 19 20
263,1499431920.0,8,300.0,1,1499431921.0,192.0,1499432113.0,1.0,193.0,1.0052083333333333,-1,44 8 7 6 5 41 42 43
461,1499439065.0,4,200.0,1,1499439204.0,94.0,1499439298.0,139.0,233.0,2.478723404255319,-1,125 126 127 128
454,1499438718.0,8,300.0,1,1499439001.0,177.0,1499439178.0,283.0,460.0,2.598870056497175,-1,102 107 101 103 105 106 108 104
251,1499431184.0,4,200.0,1,1499431185.0,141.0,1499431326.0,1.0,142.0,1.0070921985815602,-1,2 3 1 4
433,1499438071.0,4,200.0,1,1499438267.0,142.0,1499438409.0,196.0,338.0,2.380281690140845,-1,124 123 122 121
329,1499434760.0,4,200.0,1,1499434761.0,140.0,1499434901.0,1.0,141.0,1.0071428571428571,-1,26 25 28 27
272,1499432571.0,8,300.0,1,1499432573.0,192.0,1499432765.0,2.0,194.0,1.0104166666666667,-1,1 3 6 2 7 4 8 5
256,1499431605.0,8,300.0,1,1499431607.0,190.0,1499431797.0,2.0,192.0,1.0105263157894737,-1,36 31 34 35 30 32 33 29
348,1499435274.0,32,2400.0,1,1499435581.0,1478.0,1499437059.0,307.0,1785.0,1.2077131258457374,-1,34 89 74 78 54 79 91 65 86 82 92 36 56 83 55 33 76 87 73 53 84 67 90 77 68 75 35 85 88 81 80 66
288,1499433101.0,16,200.0,1,1499433102.0,108.0,1499433210.0,1.0,109.0,1.0092592592592593,-1,21 20 14 22 13 26 17 18 16 25 15 24 19 27 23 28
472,1499439496.0,64,200.0,1,1499441584.0,94.0,1499441678.0,2088.0,2182.0,23.21276595744681,-1,109 70 96 115 76 100 114 118 68 81 99 107 104 88 73 65 93 89 128 97 87 71 82 119 85 84 92 101 72 110 122 111 125 74 95 126 67 120 66 116 91 78 117 127 69 112 98 86 83 106 102 103 75 77 123 80 90 108 79 124 113 105 94 121
409,1499437147.0,8,300.0,1,1499437148.0,196.0,1499437344.0,1.0,197.0,1.0051020408163265,-1,21 17 18 20 22 24 19 23
370,1499435978.0,4,200.0,1,1499436189.0,140.0,1499436329.0,211.0,351.0,2.507142857142857,-1,103 102 101 104
292,1499433264.0,4,200.0,1,1499433266.0,95.0,1499433361.0,2.0,97.0,1.0210526315789474,-1,28 26 25 27
338,1499434971.0,4,200.0,1,1499435431.0,101.0,1499435532.0,460.0,561.0,5.554455445544554,-1,33 36 35 34
283,1499432900.0,16,200.0,1,1499432901.0,107.0,1499433008.0,1.0,108.0,1.0093457943925233,-1,32 28 24 27 35 33 36 30 26 23 21 31 25 29 22 34
316,1499434275.0,4,200.0,1,1499434276.0,141.0,1499434417.0,1.0,142.0,1.0070921985815602,-1,22 21 24 23
353,1499435481.0,16,200.0,1,1499435824.0,120.0,1499435944.0,343.0,463.0,3.8583333333333334,-1,41 37 42 51 47 50 52 43 45 48 46 38 49 40 44 39
262,1499431880.0,4,200.0,1,1499431881.0,94.0,1499431975.0,1.0,95.0,1.0106382978723405,-1,1 3 4 2
442,1499438363.0,32,2400.0,1,1499440077.0,1501.0,1499441578.0,1714.0,3215.0,2.1419053964023984,-1,87 75 82 88 92 69 93 68 74 77 89 72 73 71 78 79 66 94 86 65 96 84 67 70 91 81 90 76 85 83 80 95
343,1499435105.0,4,200.0,1,1499435431.0,99.0,1499435530.0,326.0,425.0,4.292929292929293,-1,67 65 68 66
460,1499439006.0,4,200.0,1,1499439106.0,94.0,1499439200.0,100.0,194.0,2.0638297872340425,-1,128 127 126 125
324,1499434547.0,16,200.0,1,1499434548.0,128.0,1499434676.0,1.0,129.0,1.0078125,-1,102 104 109 110 108 99 106 105 107 101 100 112 111 98 97 103
293,1499433282.0,64,200.0,1,1499433283.0,96.0,1499433379.0,1.0,97.0,1.0104166666666667,-1,2 50 99 105 76 94 93 95 103 101 56 72 12 104 53 54 88 11 111 90 86 100 87 51 74 75 89 107 82 77 109 78 55 112 10 91 98 69 84 79 52 73 3 108 83 71 65 85 110 68 106 80 67 9 96 1 81 66 92 102 70 49 4 97
376,1499436019.0,8,300.0,1,1499436377.0,177.0,1499436554.0,358.0,535.0,3.022598870056497,-1,109 105 111 107 112 106 110 108
439,1499438268.0,16,200.0,1,1499438551.0,123.0,1499438674.0,283.0,406.0,3.3008130081300813,-1,125 108 104 97 101 106 128 102 98 126 127 105 103 100 99 107
477,1499439561.0,8,300.0,1,1499440077.0,183.0,1499440260.0,516.0,699.0,3.819672131147541,-1,114 113 117 120 115 116 119 118
373,1499436010.0,16,200.0,1,1499436255.0,118.0,1499436373.0,245.0,363.0,3.0762711864406778,-1,124 107 108 118 110 119 112 111 105 122 120 123 121 109 106 117
277,1499432661.0,4,200.0,1,1499432662.0,95.0,1499432757.0,1.0,96.0,1.0105263157894737,-1,35 33 36 34
394,1499436673.0,128,600.0,1,1499439656.0,417.0,1499440073.0,2983.0,3400.0,8.15347721822542,-1,65 8 101 11 124 125 88 71 80 62 109 68 59 91 51 94 78 7 55 17 25 106 43 113 3 18 60 90 48 122 77 29 22 108 89 93 9 79 52 83 92 1 112 34 67 104 4 46 41 13 56 37 107 121 102 39 76 12 38 70 119 36 69 84 32 114 116 95 35 96 5 126 21 127 30 123 103 57 2 61 54 73 16 26 44 86 15 98 105 19 75 128 20 115 28 110 58 31 100 111 27 117 53 33 10 47 72 49 63 81 99 82 64 14 74 42 23 97 120 50 118 85 6 40 66 45 87 24
469,1499439471.0,4,200.0,1,1499439485.0,140.0,1499439625.0,14.0,154.0,1.1,-1,125 128 126 127
417,1499437392.0,8,300.0,1,1499437393.0,174.0,1499437567.0,1.0,175.0,1.0057471264367817,-1,77 80 73 76 79 75 74 78
380,1499436086.0,4,200.0,1,1499436512.0,139.0,1499436651.0,426.0,565.0,4.0647482014388485,-1,104 102 103 101
300,1499433478.0,4,200.0,1,1499433479.0,141.0,1499433620.0,1.0,142.0,1.0070921985815602,-1,50 49 51 52
351,1499435369.0,16,200.0,1,1499435625.0,107.0,1499435732.0,256.0,363.0,3.392523364485981,-1,110 62 59 57 111 114 61 58 113 63 60 109 112 116 64 115
385,1499436238.0,4,200.0,1,1499436826.0,142.0,1499436968.0,588.0,730.0,5.140845070422535,-1,57 59 60 58
273,1499432603.0,8,300.0,1,1499432604.0,190.0,1499432794.0,1.0,191.0,1.0052631578947369,-1,12 15 9 10 16 13 11 14
332,1499434769.0,4,200.0,1,1499434770.0,140.0,1499434910.0,1.0,141.0,1.0071428571428571,-1,70 69 72 71
431,1499438038.0,4,200.0,1,1499438122.0,139.0,1499438261.0,84.0,223.0,1.60431654676259,-1,127 126 125 128
429,1499437979.0,8,300.0,1,1499438266.0,177.0,1499438443.0,287.0,464.0,2.621468926553672,-1,114 126 115 128 127 113 116 125
397,1499436801.0,8,300.0,1,1499436938.0,173.0,1499437111.0,137.0,310.0,1.7919075144508672,-1,118 114 115 116 113 120 119 117
403,1499436970.0,8,300.0,1,1499437074.0,190.0,1499437264.0,104.0,294.0,1.5473684210526315,-1,5 4 7 8 3 6 2 1
377,1499436021.0,4,200.0,1,1499436377.0,140.0,1499436517.0,356.0,496.0,3.5428571428571427,-1,120 119 117 118
489,1499439981.0,4,200.0,1,1499440589.0,141.0,1499440730.0,608.0,749.0,5.3120567375886525,-1,114 113 115 116
387,1499436346.0,32,2400.0,1,1499437997.0,1464.0,1499439461.0,1651.0,3115.0,2.1277322404371586,-1,38 52 55 60 44 56 36 59 40 48 57 33 49 61 54 62 37 53 35 39 58 50 42 34 41 46 45 43 64 51 47 63
374,1499436011.0,8,300.0,1,1499436320.0,175.0,1499436495.0,309.0,484.0,2.7657142857142856,-1,60 59 58 126 127 125 57 128
450,1499438600.0,4,200.0,1,1499438821.0,93.0,1499438914.0,221.0,314.0,3.3763440860215055,-1,128 125 126 127
426,1499437931.0,8,300.0,1,1499438182.0,175.0,1499438357.0,251.0,426.0,2.434285714285714,-1,112 109 110 107 105 106 111 108
310,1499434018.0,8,300.0,1,1499434020.0,191.0,1499434211.0,2.0,193.0,1.0104712041884816,-1,27 22 26 24 28 23 25 21
269,1499432347.0,16,200.0,1,1499432348.0,148.0,1499432496.0,1.0,149.0,1.0067567567567568,-1,14 10 9 16 19 12 8 18 6 11 7 5 20 13 17 15
483,1499439779.0,8,300.0,1,1499440407.0,176.0,1499440583.0,628.0,804.0,4.568181818181818,-1,127 124 128 122 123 125 121 126
484,1499439795.0,8,300.0,1,1499440530.0,172.0,1499440702.0,735.0,907.0,5.273255813953488,-1,101 104 99 102 103 100 97 98
303,1499433550.0,4,200.0,1,1499433552.0,139.0,1499433691.0,2.0,141.0,1.014388489208633,-1,1 2 4 3
313,1499434112.0,4,200.0,1,1499434114.0,139.0,1499434253.0,2.0,141.0,1.014388489208633,-1,71 72 69 70
492,1499440206.0,4,200.0,1,1499440589.0,94.0,1499440683.0,383.0,477.0,5.074468085106383,-1,119 118 120 117
392,1499436496.0,4,200.0,1,1499436926.0,142.0,1499437068.0,430.0,572.0,4.028169014084507,-1,6 7 5 8
280,1499432837.0,4,200.0,1,1499432838.0,95.0,1499432933.0,1.0,96.0,1.0105263157894737,-1,7 8 6 5
341,1499435078.0,4,200.0,1,1499435431.0,99.0,1499435530.0,353.0,452.0,4.565656565656566,-1,53 55 54 56
257,1499431656.0,4,200.0,1,1499431657.0,140.0,1499431797.0,1.0,141.0,1.0071428571428571,-1,38 37 40 39
470,1499439471.0,128,600.0,1,1499442102.0,411.0,1499442513.0,2631.0,3042.0,7.401459854014599,-1,107 61 12 13 87 58 105 43 39 16 62 31 49 109 27 78 94 24 75 46 84 15 113 32 54 121 40 60 20 80 93 63 122 86 1 4 57 70 99 119 7 126 89 36 81 66 45 8 34 79 37 114 97 42 59 2 123 115 41 96 125 5 22 117 73 77 65 106 71 95 116 44 103 74 26 108 35 19 53 9 120 110 111 55 21 90 88 33 23 76 11 82 50 25 51 67 64 68 118 127 83 18 104 48 10 29 85 124 28 102 3 98 112 6 52 91 47 92 100 128 17 30 38 14 69 72 56 101
304,1499433575.0,16,200.0,1,1499433577.0,127.0,1499433704.0,2.0,129.0,1.015748031496063,-1,81 96 90 86 83 82 87 89 95 84 94 88 93 92 91 85
322,1499434500.0,16,200.0,1,1499434501.0,105.0,1499434606.0,1.0,106.0,1.0095238095238095,-1,84 88 53 55 85 54 86 56 82 87 81 83 91 89 90 92
438,1499438258.0,4,200.0,1,1499438451.0,92.0,1499438543.0,193.0,285.0,3.097826086956522,-1,100 97 98 99
467,1499439430.0,4,200.0,1,1499439466.0,141.0,1499439607.0,36.0,177.0,1.2553191489361701,-1,35 36 34 33
487,1499439877.0,4,200.0,1,1499440530.0,141.0,1499440671.0,653.0,794.0,5.631205673758865,-1,112 109 110 111
