jobID,submission_time,requested_number_of_processors,requested_time,success,starting_time,execution_time,finish_time,waiting_time,turnaround_time,stretch,consumed_energy,allocated_processors
3186,1500246885.0,16,200.0,1,1500246886.0,111.0,1500246997.0,1.0,112.0,1.009009009009009,-1,18 40 39 38 37 36 35 34 33 24 23 22 21 20 19 17
3212,1500248179.0,8,300.0,1,1500248180.0,185.0,1500248365.0,1.0,186.0,1.0054054054054054,-1,64 63 68 61 62 67 66 65
3155,1500245502.0,8,300.0,1,1500245612.0,178.0,1500245790.0,110.0,288.0,1.6179775280898876,-1,124 117 118 119 120 121 122 123
3176,1500246357.0,4,200.0,1,1500246359.0,140.0,1500246499.0,2.0,142.0,1.0142857142857142,-1,67 68 65 66
3237,1500248839.0,4,200.0,1,1500248841.0,93.0,1500248934.0,2.0,95.0,1.021505376344086,-1,8 7 6 5
3105,1500244066.0,16,200.0,1,1500244217.0,105.0,1500244322.0,151.0,256.0,2.4380952380952383,-1,84 64 63 62 61 56 55 54 53 81 82 83 65 68 67 66
3073,1500242931.0,32,2400.0,1,1500243016.0,1449.0,1500244465.0,85.0,1534.0,1.0586611456176673,-1,120 75 74 73 77 78 79 80 105 106 107 128 108 109 110 111 112 113 114 115 116 117 118 119 76 121 122 123 124 125 126 127
3071,1500242851.0,32,2400.0,1,1500242853.0,1503.0,1500244356.0,2.0,1505.0,1.0013306719893547,-1,36 103 102 101 100 99 98 97 96 95 94 93 37 38 39 40 57 58 59 60 69 70 71 72 89 90 91 92 33 34 35 104
3118,1500244422.0,8,300.0,1,1500244995.0,184.0,1500245179.0,573.0,757.0,4.114130434782608,-1,22 23 24 17 18 19 20 21
3194,1500247173.0,4,200.0,1,1500247174.0,144.0,1500247318.0,1.0,145.0,1.0069444444444444,-1,10 11 12 9
3154,1500245500.0,8,300.0,1,1500245612.0,178.0,1500245790.0,112.0,290.0,1.6292134831460674,-1,112 116 115 114 109 110 111 113
3238,1500248885.0,8,300.0,1,1500248887.0,179.0,1500249066.0,2.0,181.0,1.011173184357542,-1,16 9 10 11 12 13 14 15
3004,1500239917.0,8,300.0,1,1500239919.0,212.0,1500240131.0,2.0,214.0,1.009433962264151,-1,28 21 22 23 24 25 26 27
3211,1500248158.0,4,200.0,1,1500248159.0,142.0,1500248301.0,1.0,143.0,1.0070422535211268,-1,57 58 59 60
3231,1500248559.0,16,200.0,1,1500248560.0,104.0,1500248664.0,1.0,105.0,1.0096153846153846,-1,2 1 3 4 21 22 23 24 57 58 59 60 61 62 63 64
3077,1500243123.0,8,300.0,1,1500243229.0,176.0,1500243405.0,106.0,282.0,1.6022727272727273,-1,28 21 22 23 24 25 26 27
3174,1500246282.0,4,200.0,1,1500246284.0,141.0,1500246425.0,2.0,143.0,1.0141843971631206,-1,77 79 80 78
3160,1500245754.0,16,200.0,1,1500245885.0,122.0,1500246007.0,131.0,253.0,2.0737704918032787,-1,98 96 95 85 89 88 87 86 94 93 92 91 90 100 99 97
3045,1500241848.0,4,200.0,1,1500241933.0,92.0,1500242025.0,85.0,177.0,1.923913043478261,-1,39 37 38 40
3147,1500245155.0,4,200.0,1,1500245382.0,140.0,1500245522.0,227.0,367.0,2.6214285714285714,-1,120 119 118 117
3145,1500245077.0,8,300.0,1,1500245612.0,176.0,1500245788.0,535.0,711.0,4.0397727272727275,-1,68 67 66 65 69 70 71 72
3247,1500249173.0,16,200.0,1,1500249712.0,104.0,1500249816.0,539.0,643.0,6.1826923076923075,-1,108 112 111 110 109 107 106 105 104 103 102 101 100 99 98 97
3138,1500245010.0,4,200.0,1,1500245235.0,142.0,1500245377.0,225.0,367.0,2.584507042253521,-1,121 122 123 124
3184,1500246750.0,8,300.0,1,1500246752.0,171.0,1500246923.0,2.0,173.0,1.0116959064327486,-1,124 125 126 127 123 122 121 128
3006,1500240168.0,16,200.0,1,1500240170.0,168.0,1500240338.0,2.0,170.0,1.0119047619047619,-1,16 8 9 10 11 12 13 14 15 1 4 3 2 5 6 7
3221,1500248381.0,4,200.0,1,1500248382.0,94.0,1500248476.0,1.0,95.0,1.0106382978723405,-1,65 66 67 68
3144,1500245076.0,4,200.0,1,1500245368.0,140.0,1500245508.0,292.0,432.0,3.085714285714286,-1,108 105 106 107
3054,1500242135.0,8,300.0,1,1500242232.0,176.0,1500242408.0,97.0,273.0,1.5511363636363635,-1,35 33 34 36 37 38 39 40
3074,1500242942.0,8,300.0,1,1500243117.0,179.0,1500243296.0,175.0,354.0,1.9776536312849162,-1,4 3 2 1 20 19 18 17
3177,1500246397.0,8,300.0,1,1500246399.0,198.0,1500246597.0,2.0,200.0,1.0101010101010102,-1,103 104 99 97 98 102 101 100
3078,1500243135.0,8,300.0,1,1500243229.0,173.0,1500243402.0,94.0,267.0,1.5433526011560694,-1,30 31 32 41 29 42 43 44
3173,1500246276.0,8,300.0,1,1500246277.0,179.0,1500246456.0,1.0,180.0,1.005586592178771,-1,73 70 71 72 69 76 75 74
3056,1500242196.0,4,200.0,1,1500242235.0,139.0,1500242374.0,39.0,178.0,1.2805755395683454,-1,128 127 126 125
3185,1500246880.0,16,200.0,1,1500246881.0,130.0,1500247011.0,1.0,131.0,1.0076923076923077,-1,3 4 5 6 7 8 9 10 11 12 13 14 15 16 1 2
3047,1500241910.0,8,300.0,1,1500241956.0,173.0,1500242129.0,46.0,219.0,1.2658959537572254,-1,60 58 57 59 116 115 114 113
3220,1500248372.0,4,200.0,1,1500248374.0,139.0,1500248513.0,2.0,141.0,1.014388489208633,-1,64 61 62 63
3043,1500241819.0,8,300.0,1,1500241820.0,175.0,1500241995.0,1.0,176.0,1.0057142857142858,-1,56 33 34 35 36 53 54 55
3062,1500242519.0,8,300.0,1,1500242521.0,177.0,1500242698.0,2.0,179.0,1.0112994350282485,-1,59 57 58 60 69 70 71 72
3205,1500247897.0,8,300.0,1,1500247898.0,182.0,1500248080.0,1.0,183.0,1.0054945054945055,-1,23 21 20 19 18 17 24 22
3069,1500242712.0,4,200.0,1,1500242714.0,99.0,1500242813.0,2.0,101.0,1.02020202020202,-1,105 106 107 108
3026,1500240846.0,8,300.0,1,1500240847.0,198.0,1500241045.0,1.0,199.0,1.005050505050505,-1,31 25 26 27 28 29 30 32
3100,1500243829.0,4,200.0,1,1500244107.0,144.0,1500244251.0,278.0,422.0,2.9305555555555554,-1,48 47 46 45
3064,1500242590.0,4,200.0,1,1500242591.0,141.0,1500242732.0,1.0,142.0,1.0070921985815602,-1,77 78 79 80
3079,1500243142.0,16,200.0,1,1500243304.0,116.0,1500243420.0,162.0,278.0,2.396551724137931,-1,45 19 18 17 4 3 2 1 48 47 46 20 52 51 50 49
3167,1500245947.0,16,200.0,1,1500246068.0,121.0,1500246189.0,121.0,242.0,2.0,-1,72 71 80 79 65 77 76 75 74 73 70 66 67 68 69 78
3093,1500243613.0,32,200.0,1,1500243965.0,138.0,1500244103.0,352.0,490.0,3.550724637681159,-1,17 52 51 50 49 48 47 46 45 44 43 42 41 32 31 30 29 28 27 26 25 24 23 22 21 20 19 18 4 3 2 1
3225,1500248438.0,4,200.0,1,1500248439.0,140.0,1500248579.0,1.0,141.0,1.0071428571428571,-1,96 94 93 95
3015,1500240497.0,8,300.0,1,1500240499.0,195.0,1500240694.0,2.0,197.0,1.0102564102564102,-1,16 15 14 13 4 3 2 1
3243,1500249027.0,4,200.0,1,1500249028.0,92.0,1500249120.0,1.0,93.0,1.0108695652173914,-1,127 125 126 128
3190,1500246991.0,8,300.0,1,1500246993.0,181.0,1500247174.0,2.0,183.0,1.011049723756906,-1,57 58 59 60 61 62 63 64
3052,1500242040.0,8,300.0,1,1500242133.0,178.0,1500242311.0,93.0,271.0,1.5224719101123596,-1,114 113 60 59 58 57 116 115
3008,1500240231.0,16,200.0,1,1500240233.0,171.0,1500240404.0,2.0,173.0,1.0116959064327486,-1,46 25 26 27 28 45 47 48 49 50 51 52 53 54 55 56
3091,1500243597.0,4,200.0,1,1500243788.0,139.0,1500243927.0,191.0,330.0,2.3741007194244603,-1,45 46 47 48
3149,1500245210.0,8,300.0,1,1500245612.0,178.0,1500245790.0,402.0,580.0,3.258426966292135,-1,73 74 75 76 77 78 79 80
3126,1500244657.0,16,200.0,1,1500244995.0,113.0,1500245108.0,338.0,451.0,3.9911504424778763,-1,119 118 117 116 115 114 113 112 111 110 109 120 121 122 123 124
3042,1500241726.0,8,300.0,1,1500241728.0,200.0,1500241928.0,2.0,202.0,1.01,-1,37 38 39 40 113 114 115 116
3202,1500247617.0,4,200.0,1,1500247618.0,140.0,1500247758.0,1.0,141.0,1.0071428571428571,-1,1 4 3 2
3009,1500240258.0,4,200.0,1,1500240260.0,100.0,1500240360.0,2.0,102.0,1.02,-1,29 32 31 30
3135,1500244967.0,4,200.0,1,1500245235.0,141.0,1500245376.0,268.0,409.0,2.900709219858156,-1,118 120 117 119
3213,1500248219.0,4,200.0,1,1500248220.0,96.0,1500248316.0,1.0,97.0,1.0104166666666667,-1,69 70 71 72
3049,1500241987.0,4,200.0,1,1500241988.0,97.0,1500242085.0,1.0,98.0,1.0103092783505154,-1,127 125 126 128
3140,1500245051.0,8,300.0,1,1500245284.0,175.0,1500245459.0,233.0,408.0,2.3314285714285714,-1,100 90 91 92 97 98 99 89
3203,1500247830.0,8,300.0,1,1500247831.0,181.0,1500248012.0,1.0,182.0,1.0055248618784531,-1,2 8 7 6 5 4 3 1
3210,1500248144.0,32,2400.0,1,1500249589.0,1633.0,1500251222.0,1445.0,3078.0,1.8848744641763626,-1,1 13 12 11 10 9 8 7 6 5 4 3 2 32 31 30 29 28 27 26 25 24 23 22 21 20 19 18 17 16 15 14
3068,1500242705.0,16,200.0,1,1500242706.0,107.0,1500242813.0,1.0,108.0,1.0093457943925233,-1,38 36 35 34 33 57 40 39 37 72 71 70 69 60 59 58
3178,1500246461.0,8,300.0,1,1500246463.0,194.0,1500246657.0,2.0,196.0,1.0103092783505154,-1,75 70 69 71 72 73 74 76
3163,1500245860.0,16,200.0,1,1500246011.0,105.0,1500246116.0,151.0,256.0,2.4380952380952383,-1,84 89 90 91 92 93 94 95 96 83 82 81 85 86 87 88
3067,1500242644.0,8,300.0,1,1500242646.0,190.0,1500242836.0,2.0,192.0,1.0105263157894737,-1,99 103 101 104 100 97 98 102
3248,1500249177.0,8,300.0,1,1500249589.0,178.0,1500249767.0,412.0,590.0,3.3146067415730336,-1,124 128 123 122 121 126 127 125
3109,1500244147.0,4,200.0,1,1500244327.0,94.0,1500244421.0,180.0,274.0,2.9148936170212765,-1,56 55 54 53
3121,1500244563.0,8,300.0,1,1500244995.0,183.0,1500245178.0,432.0,615.0,3.360655737704918,-1,75 74 73 80 79 78 77 76
3024,1500240817.0,4,200.0,1,1500240818.0,141.0,1500240959.0,1.0,142.0,1.0070921985815602,-1,13 15 16 14
3037,1500241439.0,16,200.0,1,1500241440.0,141.0,1500241581.0,1.0,142.0,1.0070921985815602,-1,21 22 23 24 25 18 19 20 26 27 28 31 32 30 29 17
3216,1500248249.0,4,200.0,1,1500248250.0,140.0,1500248390.0,1.0,141.0,1.0071428571428571,-1,99 100 97 98
3125,1500244644.0,8,300.0,1,1500244995.0,186.0,1500245181.0,351.0,537.0,2.8870967741935485,-1,107 108 106 105 104 103 102 101
3111,1500244208.0,32,200.0,1,1500244362.0,144.0,1500244506.0,154.0,298.0,2.0694444444444446,-1,57 58 59 60 69 70 71 72 89 90 91 92 93 94 95 29 16 15 14 13 96 30 31 32 33 34 35 36 37 38 39 40
3142,1500245066.0,4,200.0,1,1500245284.0,94.0,1500245378.0,218.0,312.0,3.3191489361702127,-1,128 125 126 127
3108,1500244120.0,8,300.0,1,1500244256.0,170.0,1500244426.0,136.0,306.0,1.8,-1,43 41 42 44 45 46 47 48
3090,1500243566.0,16,200.0,1,1500243821.0,118.0,1500243939.0,255.0,373.0,3.1610169491525424,-1,29 30 31 32 41 42 43 44 21 22 23 24 25 26 27 28
3012,1500240324.0,4,200.0,1,1500240325.0,161.0,1500240486.0,1.0,162.0,1.0062111801242235,-1,86 87 88 85
3104,1500244060.0,4,200.0,1,1500244216.0,141.0,1500244357.0,156.0,297.0,2.106382978723404,-1,16 15 14 13
3103,1500243966.0,8,300.0,1,1500244216.0,176.0,1500244392.0,250.0,426.0,2.4204545454545454,-1,12 11 10 9 6 7 5 8
3217,1500248296.0,32,200.0,1,1500248298.0,155.0,1500248453.0,2.0,157.0,1.0129032258064516,-1,21 108 107 106 105 104 103 102 101 24 23 22 20 19 18 17 16 15 14 13 12 11 10 9 8 7 6 5 4 3 2 1
3113,1500244273.0,4,200.0,1,1500244327.0,94.0,1500244421.0,54.0,148.0,1.574468085106383,-1,83 84 81 82
3112,1500244229.0,32,200.0,1,1500244416.0,155.0,1500244571.0,187.0,342.0,2.206451612903226,-1,20 104 103 102 101 100 99 98 97 28 27 26 25 24 23 22 1 2 3 4 5 6 7 8 9 10 11 12 17 18 19 21
3017,1500240597.0,4,200.0,1,1500240599.0,155.0,1500240754.0,2.0,157.0,1.0129032258064516,-1,28 27 26 25
3096,1500243754.0,8,300.0,1,1500244107.0,178.0,1500244285.0,353.0,531.0,2.9831460674157304,-1,2 20 19 18 17 4 3 1
3010,1500240267.0,32,200.0,1,1500240269.0,201.0,1500240470.0,2.0,203.0,1.0099502487562189,-1,76 60 33 62 63 64 65 66 67 68 69 70 71 72 73 74 75 34 35 36 37 38 61 39 40 41 42 43 44 57 58 59
3005,1500240056.0,16,200.0,1,1500240058.0,173.0,1500240231.0,2.0,175.0,1.0115606936416186,-1,41 40 39 38 30 31 32 33 34 35 36 37 29 44 43 42
3094,1500243725.0,16,200.0,1,1500244094.0,118.0,1500244212.0,369.0,487.0,4.127118644067797,-1,6 7 8 9 10 11 12 13 14 15 16 53 5 54 55 56
3033,1500241233.0,16,200.0,1,1500241235.0,134.0,1500241369.0,2.0,136.0,1.0149253731343284,-1,1 2 3 4 17 18 19 20 21 22 23 24 25 26 27 28
3038,1500241472.0,8,300.0,1,1500241473.0,206.0,1500241679.0,1.0,207.0,1.0048543689320388,-1,33 34 35 36 37 38 39 40
3153,1500245493.0,4,200.0,1,1500245612.0,100.0,1500245712.0,119.0,219.0,2.19,-1,108 106 105 107
3234,1500248639.0,4,200.0,1,1500248640.0,140.0,1500248780.0,1.0,141.0,1.0071428571428571,-1,90 89 92 91
3107,1500244089.0,16,200.0,1,1500244294.0,118.0,1500244412.0,205.0,323.0,2.73728813559322,-1,3 2 1 4 24 23 22 21 20 19 18 17 28 27 26 25
3189,1500246980.0,8,300.0,1,1500246981.0,184.0,1500247165.0,1.0,185.0,1.0054347826086956,-1,49 50 51 52 53 54 55 56
3161,1500245782.0,8,300.0,1,1500245885.0,182.0,1500246067.0,103.0,285.0,1.565934065934066,-1,101 108 107 106 104 102 103 105
3119,1500244519.0,32,2400.0,1,1500244995.0,1498.0,1500246493.0,476.0,1974.0,1.3177570093457944,-1,28 27 26 48 56 45 46 47 44 43 42 41 40 39 38 37 36 35 34 25 52 53 54 33 55 51 50 49 32 31 30 29
3097,1500243797.0,8,300.0,1,1500244107.0,183.0,1500244290.0,310.0,493.0,2.6939890710382515,-1,27 21 22 23 24 25 26 28
3063,1500242588.0,4,200.0,1,1500242589.0,141.0,1500242730.0,1.0,142.0,1.0070921985815602,-1,73 74 75 76
3139,1500245035.0,4,200.0,1,1500245277.0,142.0,1500245419.0,242.0,384.0,2.704225352112676,-1,96 95 94 93
3206,1500247991.0,4,200.0,1,1500247992.0,140.0,1500248132.0,1.0,141.0,1.0071428571428571,-1,60 57 58 59
3086,1500243408.0,8,300.0,1,1500243612.0,171.0,1500243783.0,204.0,375.0,2.192982456140351,-1,45 48 47 46 44 43 42 41
3152,1500245442.0,8,300.0,1,1500245612.0,176.0,1500245788.0,170.0,346.0,1.9659090909090908,-1,97 98 99 100 101 102 103 104
3028,1500240877.0,16,200.0,1,1500240879.0,153.0,1500241032.0,2.0,155.0,1.0130718954248366,-1,51 1 2 3 4 41 42 43 44 45 46 47 48 49 50 52
3075,1500242965.0,16,200.0,1,1500243117.0,108.0,1500243225.0,152.0,260.0,2.4074074074074074,-1,32 31 30 29 28 27 26 24 25 23 22 21 44 43 42 41
3123,1500244625.0,4,200.0,1,1500244995.0,101.0,1500245096.0,370.0,471.0,4.663366336633663,-1,89 92 91 90
3218,1500248326.0,8,300.0,1,1500248328.0,178.0,1500248506.0,2.0,180.0,1.0112359550561798,-1,57 60 59 58 72 71 70 69
3137,1500244991.0,16,200.0,1,1500245277.0,106.0,1500245383.0,286.0,392.0,3.69811320754717,-1,77 76 75 74 73 85 84 83 82 81 80 79 78 88 87 86
3020,1500240627.0,16,200.0,1,1500240629.0,112.0,1500240741.0,2.0,114.0,1.0178571428571428,-1,68 53 54 55 56 57 58 59 60 61 62 63 64 65 66 67
3209,1500248143.0,16,200.0,1,1500248145.0,125.0,1500248270.0,2.0,127.0,1.016,-1,21 9 10 11 12 24 23 13 14 15 16 17 18 19 20 22
3046,1500241906.0,64,200.0,1,1500242423.0,82.0,1500242505.0,517.0,599.0,7.304878048780488,-1,116 122 121 120 119 118 128 127 126 125 33 34 35 36 37 38 39 40 53 54 55 56 57 58 59 60 69 70 71 72 73 74 75 76 77 78 79 80 81 82 83 84 85 86 87 88 89 90 91 92 93 94 95 96 97 98 99 100 113 114 115 117 124 123
3014,1500240444.0,8,300.0,1,1500240445.0,216.0,1500240661.0,1.0,217.0,1.0046296296296295,-1,5 6 7 8 9 10 11 12
3179,1500246553.0,8,300.0,1,1500246554.0,207.0,1500246761.0,1.0,208.0,1.0048309178743962,-1,32 27 26 25 28 29 30 31
3114,1500244293.0,4,200.0,1,1500244426.0,93.0,1500244519.0,133.0,226.0,2.4301075268817205,-1,54 53 56 55
3001,1500239864.0,8,300.0,1,1500239866.0,189.0,1500240055.0,2.0,191.0,1.0105820105820107,-1,1 8 7 6 5 4 3 2
3098,1500243797.0,4,200.0,1,1500244107.0,95.0,1500244202.0,310.0,405.0,4.2631578947368425,-1,30 31 29 32
3110,1500244180.0,8,300.0,1,1500244327.0,177.0,1500244504.0,147.0,324.0,1.8305084745762712,-1,64 63 68 61 62 67 66 65
3192,1500247115.0,4,200.0,1,1500247116.0,98.0,1500247214.0,1.0,99.0,1.010204081632653,-1,5 8 7 6
3122,1500244610.0,8,300.0,1,1500244995.0,185.0,1500245180.0,385.0,570.0,3.081081081081081,-1,87 81 82 83 84 85 86 88
3199,1500247457.0,32,2400.0,1,1500247458.0,1659.0,1500249117.0,1.0,1660.0,1.0006027727546716,-1,50 48 47 46 45 44 43 42 41 40 39 38 37 36 35 34 33 32 31 30 29 28 27 26 25 53 52 51 49 56 55 54
3156,1500245592.0,8,300.0,1,1500245885.0,176.0,1500246061.0,293.0,469.0,2.664772727272727,-1,71 65 69 68 67 66 72 70
3249,1500249189.0,8,300.0,1,1500249772.0,195.0,1500249967.0,583.0,778.0,3.98974358974359,-1,122 121 128 127 126 125 124 123
3166,1500245933.0,4,200.0,1,1500246011.0,139.0,1500246150.0,78.0,217.0,1.5611510791366907,-1,99 100 98 97
3051,1500242022.0,4,200.0,1,1500242090.0,140.0,1500242230.0,68.0,208.0,1.4857142857142858,-1,125 128 127 126
3007,1500240225.0,8,300.0,1,1500240227.0,223.0,1500240450.0,2.0,225.0,1.0089686098654709,-1,18 19 20 21 22 23 24 17
3002,1500239868.0,8,300.0,1,1500239870.0,192.0,1500240062.0,2.0,194.0,1.0104166666666667,-1,10 13 12 11 9 16 15 14
3048,1500241926.0,16,200.0,1,1500241999.0,118.0,1500242117.0,73.0,191.0,1.61864406779661,-1,117 56 55 54 36 35 34 33 53 124 123 122 121 120 119 118
3188,1500246951.0,8,300.0,1,1500246953.0,183.0,1500247136.0,2.0,185.0,1.010928961748634,-1,41 42 43 44 45 46 47 48
3250,1500249227.0,64,200.0,1,1500251208.0,86.0,1500251294.0,1981.0,2067.0,24.03488372093023,-1,98 97 96 95 94 93 92 91 90 89 88 87 86 85 84 83 82 81 80 79 78 77 76 75 74 73 72 71 70 69 68 67 66 65 128 127 126 125 124 123 122 121 120 119 118 117 116 114 115 113 112 111 110 109 108 107 106 105 104 103 102 101 100 99
3164,1500245914.0,8,300.0,1,1500245916.0,171.0,1500246087.0,2.0,173.0,1.0116959064327486,-1,123 117 119 118 124 122 121 120
3246,1500249155.0,8,300.0,1,1500249589.0,179.0,1500249768.0,434.0,613.0,3.4245810055865924,-1,113 118 120 119 114 115 116 117
3146,1500245100.0,4,200.0,1,1500245381.0,140.0,1500245521.0,281.0,421.0,3.007142857142857,-1,109 112 111 110
3183,1500246749.0,64,200.0,1,1500246805.0,87.0,1500246892.0,56.0,143.0,1.6436781609195403,-1,89 120 119 118 117 116 115 114 106 107 108 109 110 111 112 56 55 54 53 52 51 50 49 48 47 46 45 44 43 42 41 32 31 30 29 28 27 26 25 88 87 86 85 84 81 83 82 90 91 92 93 94 95 96 97 98 99 100 101 102 103 104 105 113
3240,1500248913.0,16,200.0,1,1500248914.0,127.0,1500249041.0,1.0,128.0,1.0078740157480315,-1,76 69 68 67 66 65 4 3 2 1 72 73 74 75 70 71
3092,1500243609.0,4,200.0,1,1500243821.0,140.0,1500243961.0,212.0,352.0,2.5142857142857142,-1,49 50 51 52
3011,1500240302.0,8,300.0,1,1500240304.0,221.0,1500240525.0,2.0,223.0,1.009049773755656,-1,78 79 80 81 82 83 84 77
3081,1500243279.0,8,300.0,1,1500243409.0,173.0,1500243582.0,130.0,303.0,1.7514450867052023,-1,24 28 27 26 25 23 22 21
3226,1500248455.0,32,2400.0,1,1500249589.0,1618.0,1500251207.0,1134.0,2752.0,1.7008652657601977,-1,56 58 59 60 61 62 63 64 33 34 35 36 37 38 39 40 41 42 43 44 45 46 47 48 49 50 51 52 53 54 55 57
3157,1500245596.0,4,200.0,1,1500245612.0,146.0,1500245758.0,16.0,162.0,1.1095890410958904,-1,127 128 125 126
3072,1500242916.0,4,200.0,1,1500242918.0,94.0,1500243012.0,2.0,96.0,1.0212765957446808,-1,105 106 107 108
3148,1500245174.0,64,200.0,1,1500245800.0,80.0,1500245880.0,626.0,706.0,8.825,-1,86 84 83 82 81 80 79 78 77 76 75 74 73 72 71 70 69 68 67 66 65 122 123 93 124 125 126 127 128 121 92 91 90 89 88 87 85 94 95 96 97 98 99 100 101 102 103 104 105 106 107 108 109 110 111 112 113 114 115 116 117 118 119 120
3208,1500248081.0,8,300.0,1,1500248082.0,176.0,1500248258.0,1.0,177.0,1.0056818181818181,-1,7 8 6 5 4 3 2 1
3059,1500242267.0,4,200.0,1,1500242273.0,143.0,1500242416.0,6.0,149.0,1.0419580419580419,-1,89 91 92 90
3242,1500249005.0,64,200.0,1,1500249027.0,84.0,1500249111.0,22.0,106.0,1.2619047619047619,-1,123 17 18 19 20 21 22 23 24 57 58 59 60 61 62 63 64 77 78 79 80 81 82 83 84 85 86 87 88 89 90 91 92 93 94 95 96 97 98 99 100 101 102 103 104 105 106 107 108 109 110 111 112 113 114 115 116 117 118 119 120 121 122 124
3241,1500248950.0,4,200.0,1,1500248952.0,95.0,1500249047.0,2.0,97.0,1.0210526315789474,-1,8 7 6 5
3133,1500244873.0,4,200.0,1,1500245235.0,141.0,1500245376.0,362.0,503.0,3.5673758865248226,-1,109 110 111 112
3129,1500244819.0,64,200.0,1,1500245187.0,85.0,1500245272.0,368.0,453.0,5.329411764705882,-1,58 1 2 3 4 5 6 7 8 9 10 11 12 13 14 15 16 17 18 19 20 21 22 23 24 57 59 60 61 62 63 64 65 66 67 68 69 70 71 72 73 74 75 76 77 78 79 80 81 82 83 84 85 86 87 88 93 94 95 96 97 98 99 100
3175,1500246291.0,16,200.0,1,1500246292.0,178.0,1500246470.0,1.0,179.0,1.0056179775280898,-1,81 96 95 94 93 92 91 90 89 88 87 86 85 84 83 82
3040,1500241622.0,8,300.0,1,1500241623.0,178.0,1500241801.0,1.0,179.0,1.0056179775280898,-1,53 57 56 55 54 60 59 58
3088,1500243493.0,16,200.0,1,1500243699.0,118.0,1500243817.0,206.0,324.0,2.7457627118644066,-1,51 21 22 23 24 25 26 27 28 29 30 31 32 49 50 52
3070,1500242762.0,16,200.0,1,1500242763.0,155.0,1500242918.0,1.0,156.0,1.0064516129032257,-1,115 73 74 75 76 77 78 79 80 109 110 111 112 113 114 116
3172,1500246240.0,4,200.0,1,1500246241.0,93.0,1500246334.0,1.0,94.0,1.010752688172043,-1,65 68 67 66
3214,1500248231.0,16,200.0,1,1500248233.0,131.0,1500248364.0,2.0,133.0,1.015267175572519,-1,82 78 79 80 73 74 81 77 76 75 88 87 86 85 84 83
3193,1500247155.0,4,200.0,1,1500247157.0,142.0,1500247299.0,2.0,144.0,1.0140845070422535,-1,3 4 1 2
3162,1500245812.0,8,300.0,1,1500245885.0,173.0,1500246058.0,73.0,246.0,1.4219653179190752,-1,115 109 110 111 112 113 114 116
3080,1500243172.0,4,200.0,1,1500243407.0,139.0,1500243546.0,235.0,374.0,2.6906474820143886,-1,32 31 30 29
3029,1500240892.0,4,200.0,1,1500240894.0,141.0,1500241035.0,2.0,143.0,1.0141843971631206,-1,56 55 54 53
3244,1500249052.0,16,200.0,1,1500249054.0,110.0,1500249164.0,2.0,112.0,1.018181818181818,-1,70 69 68 67 66 65 8 7 6 2 3 5 4 1 72 71
3099,1500243798.0,4,200.0,1,1500244107.0,143.0,1500244250.0,309.0,452.0,3.160839160839161,-1,42 43 44 41
3168,1500245976.0,4,200.0,1,1500246062.0,94.0,1500246156.0,86.0,180.0,1.9148936170212767,-1,112 111 110 109
3130,1500244827.0,16,200.0,1,1500245114.0,117.0,1500245231.0,287.0,404.0,3.452991452991453,-1,110 117 116 115 114 113 112 111 109 124 123 122 121 120 119 118
3115,1500244328.0,4,200.0,1,1500244426.0,93.0,1500244519.0,98.0,191.0,2.053763440860215,-1,83 84 81 82
3150,1500245247.0,8,300.0,1,1500245612.0,181.0,1500245793.0,365.0,546.0,3.016574585635359,-1,86 81 82 83 84 85 87 88
3239,1500248892.0,16,200.0,1,1500248894.0,129.0,1500249023.0,2.0,131.0,1.0155038759689923,-1,61 60 59 58 57 24 23 17 22 21 18 19 20 64 63 62
3102,1500243932.0,4,200.0,1,1500244207.0,139.0,1500244346.0,275.0,414.0,2.9784172661870505,-1,29 32 31 30
3003,1500239916.0,4,200.0,1,1500239917.0,143.0,1500240060.0,1.0,144.0,1.006993006993007,-1,20 19 18 17
3044,1500241831.0,16,200.0,1,1500241832.0,119.0,1500241951.0,1.0,120.0,1.0084033613445378,-1,120 121 122 123 124 125 126 127 128 57 58 59 60 117 118 119
3245,1500249123.0,16,200.0,1,1500249589.0,119.0,1500249708.0,466.0,585.0,4.915966386554622,-1,99 110 111 112 109 108 107 106 105 104 103 102 101 100 98 97
3018,1500240618.0,8,300.0,1,1500240619.0,189.0,1500240808.0,1.0,190.0,1.0052910052910053,-1,32 36 35 34 33 31 30 29
3019,1500240618.0,16,200.0,1,1500240619.0,114.0,1500240733.0,1.0,115.0,1.0087719298245614,-1,45 44 43 42 46 47 48 49 50 51 52 41 37 38 39 40
3224,1500248426.0,4,200.0,1,1500248434.0,93.0,1500248527.0,8.0,101.0,1.086021505376344,-1,91 90 89 92
3127,1500244665.0,8,300.0,1,1500245101.0,176.0,1500245277.0,436.0,612.0,3.477272727272727,-1,90 91 92 125 126 128 127 89
3106,1500244089.0,8,300.0,1,1500244254.0,174.0,1500244428.0,165.0,339.0,1.9482758620689655,-1,49 50 51 52 85 86 87 88
3207,1500248000.0,4,200.0,1,1500248001.0,97.0,1500248098.0,1.0,98.0,1.0103092783505154,-1,63 62 61 64
3136,1500244983.0,8,300.0,1,1500245277.0,181.0,1500245458.0,294.0,475.0,2.6243093922651934,-1,70 72 71 69 68 67 66 65
3227,1500248457.0,4,200.0,1,1500248458.0,94.0,1500248552.0,1.0,95.0,1.0106382978723405,-1,4 1 2 3
3055,1500242142.0,8,300.0,1,1500242232.0,170.0,1500242402.0,90.0,260.0,1.5294117647058822,-1,118 56 120 119 117 53 54 55
3235,1500248659.0,16,200.0,1,1500248661.0,130.0,1500248791.0,2.0,132.0,1.0153846153846153,-1,10 9 8 93 12 11 100 99 98 97 96 5 6 7 95 94
3169,1500246010.0,4,200.0,1,1500246062.0,141.0,1500246203.0,52.0,193.0,1.3687943262411348,-1,114 113 116 115
3082,1500243306.0,8,300.0,1,1500243425.0,175.0,1500243600.0,119.0,294.0,1.68,-1,3 4 17 18 19 20 2 1
3182,1500246728.0,16,200.0,1,1500246729.0,129.0,1500246858.0,1.0,130.0,1.0077519379844961,-1,77 75 74 73 65 66 67 68 69 70 71 72 80 79 78 76
3181,1500246664.0,16,200.0,1,1500246665.0,135.0,1500246800.0,1.0,136.0,1.0074074074074073,-1,47 48 49 44 56 50 54 52 55 41 42 43 51 53 45 46
3134,1500244900.0,4,200.0,1,1500245235.0,142.0,1500245377.0,335.0,477.0,3.359154929577465,-1,113 114 115 116
3201,1500247500.0,128,600.0,1,1500249169.0,415.0,1500249584.0,1669.0,2084.0,5.021686746987951,-1,79 1 2 3 4 5 6 7 8 9 10 11 12 13 14 15 16 17 18 19 20 21 22 23 24 25 26 27 28 29 30 31 32 33 34 35 36 37 38 39 40 41 42 43 44 45 46 47 48 49 50 51 52 53 54 55 56 57 58 59 60 61 62 63 64 65 66 67 68 69 70 71 72 73 74 75 76 77 78 80 81 82 83 84 85 86 87 88 89 90 91 92 93 94 95 96 97 98 99 100 101 102 103 104 105 106 107 108 109 110 111 112 113 114 115 116 117 118 119 120 121 122 123 124 125 126 127 128
3198,1500247453.0,16,200.0,1,1500247456.0,105.0,1500247561.0,3.0,108.0,1.0285714285714285,-1,13 8 7 6 18 17 16 15 14 19 20 21 22 23 24 5
3196,1500247360.0,4,200.0,1,1500247361.0,140.0,1500247501.0,1.0,141.0,1.0071428571428571,-1,3 4 2 1
3021,1500240661.0,32,2400.0,1,1500240662.0,1605.0,1500242267.0,1.0,1606.0,1.0006230529595015,-1,99 97 96 95 94 93 92 71 70 69 98 100 80 79 78 77 76 75 74 73 72 85 86 87 88 89 90 91 84 83 82 81
3031,1500241032.0,32,2400.0,1,1500241033.0,1553.0,1500242586.0,1.0,1554.0,1.0006439150032196,-1,105 109 108 107 106 112 5 6 7 8 9 10 11 12 13 14 15 16 61 62 63 104 64 65 66 67 68 101 102 103 111 110
3219,1500248332.0,8,300.0,1,1500248333.0,199.0,1500248532.0,1.0,200.0,1.0050251256281406,-1,116 109 110 111 112 113 114 115
3215,1500248241.0,8,300.0,1,1500248242.0,187.0,1500248429.0,1.0,188.0,1.0053475935828877,-1,95 93 92 91 90 89 96 94
3131,1500244862.0,8,300.0,1,1500245187.0,177.0,1500245364.0,325.0,502.0,2.8361581920903953,-1,102 103 104 105 106 107 108 101
3116,1500244340.0,16,200.0,1,1500244433.0,105.0,1500244538.0,93.0,198.0,1.8857142857142857,-1,46 47 48 44 49 50 51 52 85 86 88 43 42 41 87 45
3228,1500248470.0,8,300.0,1,1500248471.0,179.0,1500248650.0,1.0,180.0,1.005586592178771,-1,10 9 8 7 6 5 12 11
3030,1500240897.0,4,200.0,1,1500240898.0,142.0,1500241040.0,1.0,143.0,1.0070422535211268,-1,58 57 59 60
3222,1500248397.0,16,200.0,1,1500248398.0,139.0,1500248537.0,1.0,140.0,1.0071942446043165,-1,81 82 83 84 85 86 87 88 73 74 75 76 77 78 79 80
3229,1500248487.0,8,300.0,1,1500248488.0,178.0,1500248666.0,1.0,179.0,1.0056179775280898,-1,20 19 13 15 14 18 17 16
3223,1500248407.0,16,200.0,1,1500248408.0,106.0,1500248514.0,1.0,107.0,1.009433962264151,-1,128 120 121 122 123 124 125 126 127 97 98 99 100 117 118 119
3053,1500242065.0,4,200.0,1,1500242122.0,140.0,1500242262.0,57.0,197.0,1.4071428571428573,-1,121 124 123 122
3095,1500243748.0,16,200.0,1,1500244094.0,119.0,1500244213.0,346.0,465.0,3.907563025210084,-1,87 61 62 63 64 65 66 67 68 81 82 83 84 85 86 88
3023,1500240753.0,8,300.0,1,1500240754.0,192.0,1500240946.0,1.0,193.0,1.0052083333333333,-1,5 6 7 8 9 10 11 12
3050,1500242019.0,16,200.0,1,1500242122.0,105.0,1500242227.0,103.0,208.0,1.980952380952381,-1,33 56 34 35 36 37 38 39 40 55 54 120 119 53 118 117
3083,1500243323.0,8,300.0,1,1500243425.0,182.0,1500243607.0,102.0,284.0,1.5604395604395604,-1,47 46 45 44 43 42 41 48
3158,1500245674.0,8,300.0,1,1500245885.0,176.0,1500246061.0,211.0,387.0,2.1988636363636362,-1,73 80 79 78 77 76 75 74
3060,1500242407.0,8,300.0,1,1500242510.0,183.0,1500242693.0,103.0,286.0,1.5628415300546448,-1,40 36 37 38 39 33 34 35
3232,1500248589.0,16,200.0,1,1500248591.0,124.0,1500248715.0,2.0,126.0,1.0161290322580645,-1,68 65 66 67 80 79 78 77 76 75 74 73 72 71 70 69
3236,1500248811.0,4,200.0,1,1500248813.0,93.0,1500248906.0,2.0,95.0,1.021505376344086,-1,4 3 2 1
3230,1500248524.0,32,2400.0,1,1500249589.0,1612.0,1500251201.0,1065.0,2677.0,1.6606699751861043,-1,68 69 72 70 96 95 94 93 92 91 90 88 89 87 71 73 74 75 76 77 78 79 80 81 82 83 84 85 86 65 66 67
3084,1500243335.0,16,200.0,1,1500243586.0,109.0,1500243695.0,251.0,360.0,3.302752293577982,-1,21 22 23 24 25 26 27 28 29 30 31 32 49 50 51 52
3065,1500242606.0,32,2400.0,1,1500242607.0,1481.0,1500244088.0,1.0,1482.0,1.00067521944632,-1,8 10 11 12 13 14 15 16 88 87 86 85 84 83 82 81 68 67 66 65 64 63 62 61 56 55 54 53 5 6 7 9
3101,1500243901.0,4,200.0,1,1500244107.0,143.0,1500244250.0,206.0,349.0,2.4405594405594404,-1,52 51 50 49
3022,1500240728.0,4,200.0,1,1500240730.0,139.0,1500240869.0,2.0,141.0,1.014388489208633,-1,1 2 3 4
3032,1500241082.0,4,200.0,1,1500241084.0,142.0,1500241226.0,2.0,144.0,1.0140845070422535,-1,2 3 4 1
3057,1500242246.0,16,200.0,1,1500242273.0,121.0,1500242394.0,27.0,148.0,1.2231404958677685,-1,70 73 72 71 69 84 83 82 81 80 79 78 77 76 75 74
3039,1500241603.0,32,2400.0,1,1500241604.0,1507.0,1500243111.0,1.0,1508.0,1.0006635700066357,-1,22 31 30 29 28 27 26 25 24 23 32 21 20 19 18 17 4 3 2 1 41 42 43 44 45 52 51 50 49 48 47 46
3066,1500242617.0,8,300.0,1,1500242619.0,182.0,1500242801.0,2.0,184.0,1.010989010989011,-1,96 89 90 91 92 93 94 95
3085,1500243393.0,8,300.0,1,1500243604.0,173.0,1500243777.0,211.0,384.0,2.2196531791907512,-1,20 19 18 17 4 3 2 1
3159,1500245680.0,4,200.0,1,1500245885.0,96.0,1500245981.0,205.0,301.0,3.1354166666666665,-1,84 83 82 81
3058,1500242247.0,4,200.0,1,1500242273.0,144.0,1500242417.0,26.0,170.0,1.1805555555555556,-1,85 88 87 86
3034,1500241243.0,16,200.0,1,1500241245.0,135.0,1500241380.0,2.0,137.0,1.0148148148148148,-1,36 35 34 33 32 31 30 29 37 38 39 40 41 42 43 44
3233,1500248626.0,8,300.0,1,1500248627.0,192.0,1500248819.0,1.0,193.0,1.0052083333333333,-1,87 88 86 85 84 83 82 81
3117,1500244360.0,16,200.0,1,1500244995.0,122.0,1500245117.0,635.0,757.0,6.204918032786885,-1,10 1 2 3 4 5 6 7 8 9 11 12 13 14 15 16
3025,1500240841.0,8,300.0,1,1500240842.0,191.0,1500241033.0,1.0,192.0,1.0052356020942408,-1,20 19 18 17 24 23 21 22
3200,1500247477.0,4,200.0,1,1500247479.0,141.0,1500247620.0,2.0,143.0,1.0141843971631206,-1,58 57 60 59
3027,1500240853.0,8,300.0,1,1500240854.0,215.0,1500241069.0,1.0,216.0,1.0046511627906978,-1,40 37 39 38 36 33 34 35
3124,1500244637.0,8,300.0,1,1500244995.0,187.0,1500245182.0,358.0,545.0,2.914438502673797,-1,95 96 99 97 98 100 93 94
3087,1500243415.0,128,600.0,1,1500244575.0,416.0,1500244991.0,1160.0,1576.0,3.7884615384615383,-1,89 88 87 86 85 84 83 82 97 98 99 100 101 102 103 104 81 80 79 78 77 76 75 74 73 72 71 70 69 68 67 66 65 64 63 62 61 60 59 58 57 56 55 54 53 52 51 50 49 48 47 46 45 44 43 42 41 40 39 38 37 36 35 34 33 32 31 30 29 28 27 26 25 24 23 22 21 20 19 18 17 16 15 14 13 12 11 10 9 8 7 6 5 4 3 2 1 122 123 124 105 125 126 127 128 106 107 108 109 110 111 112 113 114 115 116 117 118 119 120 121 96 95 94 93 92 91 90
3128,1500244714.0,4,200.0,1,1500244995.0,101.0,1500245096.0,281.0,382.0,3.782178217821782,-1,125 127 128 126
3141,1500245053.0,64,200.0,1,1500245527.0,81.0,1500245608.0,474.0,555.0,6.851851851851852,-1,72 93 92 91 90 89 88 87 86 85 84 83 82 81 80 79 78 77 76 75 74 73 71 70 69 68 67 66 65 128 127 126 125 124 123 122 121 120 119 118 117 116 115 114 113 112 111 110 109 108 107 106 105 104 103 102 101 100 99 98 97 96 95 94
3187,1500246914.0,8,300.0,1,1500246916.0,184.0,1500247100.0,2.0,186.0,1.0108695652173914,-1,25 26 27 28 32 31 29 30
3195,1500247240.0,8,300.0,1,1500247242.0,207.0,1500247449.0,2.0,209.0,1.0096618357487923,-1,15 14 13 8 7 5 6 16
3035,1500241286.0,8,300.0,1,1500241288.0,200.0,1500241488.0,2.0,202.0,1.01,-1,45 52 51 50 49 48 47 46
3076,1500242973.0,8,300.0,1,1500243117.0,182.0,1500243299.0,144.0,326.0,1.7912087912087913,-1,45 46 47 48 49 50 51 52
3036,1500241424.0,4,200.0,1,1500241425.0,141.0,1500241566.0,1.0,142.0,1.0070921985815602,-1,4 3 2 1
3016,1500240538.0,8,300.0,1,1500240540.0,210.0,1500240750.0,2.0,212.0,1.0095238095238095,-1,17 21 20 19 18 24 23 22
3151,1500245341.0,8,300.0,1,1500245612.0,183.0,1500245795.0,271.0,454.0,2.480874316939891,-1,89 90 91 92 93 94 95 96
3165,1500245918.0,4,200.0,1,1500245920.0,139.0,1500246059.0,2.0,141.0,1.014388489208633,-1,126 127 128 125
3061,1500242488.0,4,200.0,1,1500242510.0,93.0,1500242603.0,22.0,115.0,1.2365591397849462,-1,55 53 56 54
3171,1500246185.0,4,200.0,1,1500246186.0,94.0,1500246280.0,1.0,95.0,1.0106382978723405,-1,84 83 82 81
3132,1500244868.0,32,2400.0,1,1500245277.0,1531.0,1500246808.0,409.0,1940.0,1.2671456564337034,-1,15 64 63 62 61 60 59 58 57 24 23 22 21 20 19 18 17 16 12 11 10 9 8 7 6 5 4 3 2 1 14 13
3143,1500245073.0,4,200.0,1,1500245368.0,93.0,1500245461.0,295.0,388.0,4.172043010752688,-1,101 104 103 102
3197,1500247382.0,4,200.0,1,1500247384.0,139.0,1500247523.0,2.0,141.0,1.014388489208633,-1,11 10 9 12
3089,1500243515.0,8,300.0,1,1500243782.0,176.0,1500243958.0,267.0,443.0,2.5170454545454546,-1,17 20 19 18 1 2 3 4
3204,1500247891.0,8,300.0,1,1500247892.0,183.0,1500248075.0,1.0,184.0,1.005464480874317,-1,10 16 15 14 13 12 11 9
3191,1500247025.0,4,200.0,1,1500247026.0,92.0,1500247118.0,1.0,93.0,1.0108695652173914,-1,4 1 2 3
3013,1500240384.0,4,200.0,1,1500240385.0,98.0,1500240483.0,1.0,99.0,1.010204081632653,-1,4 3 2 1
3041,1500241712.0,4,200.0,1,1500241714.0,93.0,1500241807.0,2.0,95.0,1.021505376344086,-1,35 34 33 36
3180,1500246642.0,8,300.0,1,1500246643.0,206.0,1500246849.0,1.0,207.0,1.0048543689320388,-1,36 33 34 35 37 38 39 40
3170,1500246108.0,8,300.0,1,1500246109.0,182.0,1500246291.0,1.0,183.0,1.0054945054945055,-1,102 103 104 105 106 108 101 107
3120,1500244550.0,16,200.0,1,1500244995.0,113.0,1500245108.0,445.0,558.0,4.938053097345133,-1,66 67 68 69 70 71 72 57 58 59 60 61 62 63 64 65
