jobID,submission_time,requested_number_of_processors,requested_time,success,starting_time,execution_time,finish_time,waiting_time,turnaround_time,stretch,consumed_energy,allocated_processors
80,1499365560.0,8,300.0,1,1499365868.0,172.0,1499366040.0,308.0,480.0,2.7906976744186047,-1,60 57 63 58 59 61 64 62
110,1499366457.0,8,300.0,1,1499366474.0,173.0,1499366647.0,17.0,190.0,1.0982658959537572,-1,92 90 89 88 91 86 85 87
15,1499362918.0,8,300.0,1,1499362920.0,172.0,1499363092.0,2.0,174.0,1.0116279069767442,-1,6 11 12 8 7 10 5 9
107,1499366421.0,8,300.0,1,1499366422.0,177.0,1499366599.0,1.0,178.0,1.0056497175141244,-1,111 110 108 107 112 109 106 105
90,1499365837.0,8,300.0,1,1499365984.0,173.0,1499366157.0,147.0,320.0,1.8497109826589595,-1,78 82 77 79 83 81 80 84
147,1499367594.0,8,300.0,1,1499367595.0,172.0,1499367767.0,1.0,173.0,1.005813953488372,-1,20 24 21 19 22 17 23 18
82,1499365562.0,4,200.0,1,1499365868.0,138.0,1499366006.0,306.0,444.0,3.217391304347826,-1,69 72 71 70
199,1499369390.0,8,300.0,1,1499369621.0,174.0,1499369795.0,231.0,405.0,2.3275862068965516,-1,106 108 102 101 107 105 104 103
219,1499370263.0,4,200.0,1,1499370760.0,137.0,1499370897.0,497.0,634.0,4.627737226277373,-1,125 128 127 126
180,1499368818.0,8,300.0,1,1499369103.0,173.0,1499369276.0,285.0,458.0,2.647398843930636,-1,119 118 114 116 117 120 115 113
231,1499370465.0,4,200.0,1,1499371128.0,137.0,1499371265.0,663.0,800.0,5.839416058394161,-1,121 123 122 124
202,1499369414.0,16,200.0,1,1499369761.0,101.0,1499369862.0,347.0,448.0,4.435643564356436,-1,116 119 124 122 114 115 112 123 117 111 109 110 118 113 120 121
209,1499369781.0,8,300.0,1,1499369980.0,170.0,1499370150.0,199.0,369.0,2.1705882352941175,-1,120 116 119 114 115 117 118 113
162,1499368067.0,4,200.0,1,1499368069.0,137.0,1499368206.0,2.0,139.0,1.0145985401459854,-1,1 4 2 3
226,1499370344.0,64,200.0,1,1499372928.0,79.0,1499373007.0,2584.0,2663.0,33.70886075949367,-1,24 63 32 60 31 35 38 41 49 23 36 5 28 44 54 56 16 37 64 3 8 13 62 10 33 40 29 55 43 27 57 30 50 20 18 61 14 39 51 45 19 48 2 26 9 53 22 7 25 58 47 42 52 46 1 17 4 59 6 12 34 21 11 15
131,1499366941.0,16,200.0,1,1499367147.0,114.0,1499367261.0,206.0,320.0,2.807017543859649,-1,109 117 110 120 113 118 115 88 111 119 114 112 86 85 116 87
98,1499366067.0,32,2400.0,1,1499366179.0,1440.0,1499367619.0,112.0,1552.0,1.0777777777777777,-1,37 51 59 48 40 53 49 33 55 54 39 52 64 61 60 63 46 34 56 58 36 62 47 42 45 38 50 57 43 44 41 35
61,1499364819.0,4,200.0,1,1499364821.0,86.0,1499364907.0,2.0,88.0,1.0232558139534884,-1,49 52 50 51
233,1499370572.0,8,300.0,1,1499371243.0,173.0,1499371416.0,671.0,844.0,4.878612716763006,-1,118 120 119 116 113 117 114 115
137,1499367139.0,32,2400.0,1,1499368619.0,1445.0,1499370064.0,1480.0,2925.0,2.0242214532871974,-1,53 59 36 37 34 50 39 56 57 62 44 48 63 41 40 46 42 54 55 47 52 43 61 58 60 45 49 64 51 35 33 38
189,1499369061.0,16,200.0,1,1499369364.0,114.0,1499369478.0,303.0,417.0,3.6578947368421053,-1,100 109 103 111 98 97 105 99 102 110 112 101 104 107 108 106
70,1499365262.0,32,200.0,1,1499365264.0,135.0,1499365399.0,2.0,137.0,1.0148148148148148,-1,54 53 70 21 51 65 11 18 19 56 66 10 13 24 16 52 12 68 20 17 71 50 23 14 55 9 67 49 69 22 15 72
203,1499369439.0,64,200.0,1,1499370066.0,78.0,1499370144.0,627.0,705.0,9.038461538461538,-1,28 45 48 76 49 41 20 72 50 78 27 18 25 44 77 29 40 21 61 57 19 42 70 33 37 53 62 55 23 24 69 52 34 80 64 43 38 36 63 79 47 31 60 32 75 46 56 54 73 58 39 74 68 17 67 65 30 35 66 51 26 71 22 59
188,1499369051.0,4,200.0,1,1499369277.0,88.0,1499369365.0,226.0,314.0,3.5681818181818183,-1,116 115 114 113
236,1499370668.0,4,200.0,1,1499371128.0,87.0,1499371215.0,460.0,547.0,6.287356321839081,-1,128 126 127 125
207,1499369741.0,4,200.0,1,1499369864.0,138.0,1499370002.0,123.0,261.0,1.891304347826087,-1,121 124 122 123
206,1499369660.0,16,200.0,1,1499369864.0,115.0,1499369979.0,204.0,319.0,2.773913043478261,-1,113 106 112 110 105 118 120 116 107 109 111 119 108 117 114 115
143,1499367409.0,8,300.0,1,1499367410.0,173.0,1499367583.0,1.0,174.0,1.0057803468208093,-1,109 112 110 96 93 94 111 95
121,1499366779.0,4,200.0,1,1499366816.0,137.0,1499366953.0,37.0,174.0,1.27007299270073,-1,87 88 85 86
28,1499363491.0,4,200.0,1,1499363492.0,87.0,1499363579.0,1.0,88.0,1.0114942528735633,-1,37 40 38 39
160,1499368023.0,8,300.0,1,1499368024.0,173.0,1499368197.0,1.0,174.0,1.0057803468208093,-1,22 24 23 21 11 9 10 12
111,1499366463.0,4,200.0,1,1499366474.0,138.0,1499366612.0,11.0,149.0,1.0797101449275361,-1,96 93 94 95
60,1499364811.0,8,300.0,1,1499364813.0,171.0,1499364984.0,2.0,173.0,1.0116959064327486,-1,20 18 21 17 19 22 23 24
170,1499368355.0,4,200.0,1,1499368758.0,137.0,1499368895.0,403.0,540.0,3.9416058394160585,-1,128 126 125 127
210,1499369799.0,4,200.0,1,1499369966.0,88.0,1499370054.0,167.0,255.0,2.897727272727273,-1,127 125 128 126
127,1499366814.0,4,200.0,1,1499366971.0,137.0,1499367108.0,157.0,294.0,2.145985401459854,-1,122 123 124 121
62,1499364831.0,8,300.0,1,1499364832.0,174.0,1499365006.0,1.0,175.0,1.0057471264367817,-1,66 56 53 68 65 55 67 54
214,1499370045.0,8,300.0,1,1499370584.0,173.0,1499370757.0,539.0,712.0,4.115606936416185,-1,106 110 105 109 108 107 112 111
232,1499370488.0,8,300.0,1,1499371243.0,174.0,1499371417.0,755.0,929.0,5.339080459770115,-1,109 106 105 108 110 111 107 112
66,1499365068.0,4,200.0,1,1499365069.0,137.0,1499365206.0,1.0,138.0,1.0072992700729928,-1,19 20 17 18
216,1499370220.0,8,300.0,1,1499370584.0,174.0,1499370758.0,364.0,538.0,3.0919540229885056,-1,126 127 123 122 128 121 125 124
59,1499364807.0,16,200.0,1,1499364808.0,114.0,1499364922.0,1.0,115.0,1.0087719298245614,-1,5 4 13 8 9 16 3 7 15 12 10 11 2 14 6 1
155,1499367854.0,8,300.0,1,1499367855.0,170.0,1499368025.0,1.0,171.0,1.0058823529411764,-1,19 16 14 18 15 17 20 13
35,1499363753.0,4,200.0,1,1499363755.0,136.0,1499363891.0,2.0,138.0,1.0147058823529411,-1,45 47 48 46
240,1499370935.0,16,200.0,1,1499371439.0,114.0,1499371553.0,504.0,618.0,5.421052631578948,-1,112 107 108 105 100 98 103 102 106 110 97 111 101 99 109 104
179,1499368772.0,8,300.0,1,1499369012.0,171.0,1499369183.0,240.0,411.0,2.4035087719298245,-1,110 107 111 108 106 105 109 112
50,1499364271.0,4,200.0,1,1499364272.0,138.0,1499364410.0,1.0,139.0,1.0072463768115942,-1,49 51 52 50
249,1499371128.0,8,300.0,1,1499371753.0,172.0,1499371925.0,625.0,797.0,4.633720930232558,-1,122 124 125 126 121 127 128 123
104,1499366275.0,4,200.0,1,1499366362.0,138.0,1499366500.0,87.0,225.0,1.6304347826086956,-1,84 83 81 82
86,1499365592.0,8,300.0,1,1499365868.0,174.0,1499366042.0,276.0,450.0,2.586206896551724,-1,105 106 103 107 102 108 104 101
230,1499370456.0,16,200.0,1,1499371128.0,114.0,1499371242.0,672.0,786.0,6.894736842105263,-1,116 117 113 107 105 109 110 106 118 111 120 114 112 108 115 119
122,1499366797.0,4,200.0,1,1499366830.0,88.0,1499366918.0,33.0,121.0,1.375,-1,90 91 92 89
88,1499365764.0,4,200.0,1,1499365868.0,89.0,1499365957.0,104.0,193.0,2.168539325842697,-1,128 125 126 127
114,1499366542.0,16,200.0,1,1499366627.0,113.0,1499366740.0,85.0,198.0,1.752212389380531,-1,115 121 113 118 126 116 128 123 119 125 114 117 124 127 120 122
248,1499371105.0,4,200.0,1,1499371615.0,137.0,1499371752.0,510.0,647.0,4.7226277372262775,-1,127 126 125 128
11,1499362628.0,32,200.0,1,1499362629.0,136.0,1499362765.0,1.0,137.0,1.0073529411764706,-1,36 30 2 33 7 32 41 9 66 31 35 38 42 37 34 4 29 68 5 40 1 39 44 67 65 11 10 6 12 8 43 3
56,1499364479.0,16,200.0,1,1499364480.0,114.0,1499364594.0,1.0,115.0,1.0087719298245614,-1,20 18 19 6 4 10 2 7 9 1 8 5 3 17 11 12
159,1499367940.0,8,300.0,1,1499367941.0,171.0,1499368112.0,1.0,172.0,1.0058479532163742,-1,26 28 31 27 30 32 25 29
102,1499366241.0,64,200.0,1,1499366282.0,79.0,1499366361.0,41.0,120.0,1.518987341772152,-1,108 70 84 99 90 73 100 115 122 128 95 103 68 79 96 123 127 112 116 89 111 102 77 81 104 86 114 75 88 80 71 92 83 66 69 121 78 120 109 85 74 91 124 117 98 87 107 93 72 119 126 82 65 105 101 125 106 118 67 110 113 97 76 94
57,1499364539.0,16,200.0,1,1499364540.0,113.0,1499364653.0,1.0,114.0,1.008849557522124,-1,24 53 23 54 52 49 55 50 22 16 14 15 51 21 13 56
20,1499363221.0,16,200.0,1,1499363223.0,113.0,1499363336.0,2.0,115.0,1.0176991150442478,-1,28 26 31 22 29 25 21 4 1 27 2 30 24 32 3 23
5,1499362391.0,16,200.0,1,1499362393.0,115.0,1499362508.0,2.0,117.0,1.017391304347826,-1,27 19 20 13 15 24 17 26 25 28 23 16 14 21 22 18
196,1499369276.0,16,200.0,1,1499369506.0,114.0,1499369620.0,230.0,344.0,3.017543859649123,-1,103 116 101 111 104 109 106 114 113 110 107 112 108 102 105 115
136,1499367040.0,4,200.0,1,1499367310.0,138.0,1499367448.0,270.0,408.0,2.9565217391304346,-1,5 6 8 7
213,1499369909.0,16,200.0,1,1499370059.0,114.0,1499370173.0,150.0,264.0,2.3157894736842106,-1,15 16 9 2 3 10 12 5 6 13 1 8 7 14 11 4
69,1499365227.0,32,2400.0,1,1499365868.0,1441.0,1499367309.0,641.0,2082.0,1.4448299791811243,-1,13 15 20 10 1 18 6 31 11 16 27 7 3 14 19 5 30 4 17 28 32 2 29 22 26 12 23 21 8 24 9 25
81,1499365562.0,4,200.0,1,1499365868.0,138.0,1499366006.0,306.0,444.0,3.217391304347826,-1,67 68 66 65
119,1499366770.0,4,200.0,1,1499366787.0,136.0,1499366923.0,17.0,153.0,1.125,-1,96 95 93 94
174,1499368708.0,4,200.0,1,1499368850.0,136.0,1499368986.0,142.0,278.0,2.0441176470588234,-1,116 113 114 115
73,1499365314.0,4,200.0,1,1499365316.0,138.0,1499365454.0,2.0,140.0,1.0144927536231885,-1,96 93 95 94
215,1499370217.0,8,300.0,1,1499370584.0,174.0,1499370758.0,367.0,541.0,3.1091954022988504,-1,117 120 119 115 118 113 114 116
145,1499367502.0,8,300.0,1,1499367504.0,171.0,1499367675.0,2.0,173.0,1.0116959064327486,-1,3 2 8 5 7 1 4 6
116,1499366675.0,4,200.0,1,1499366676.0,138.0,1499366814.0,1.0,139.0,1.0072463768115942,-1,85 88 86 87
65,1499364968.0,8,300.0,1,1499364970.0,173.0,1499365143.0,2.0,175.0,1.0115606936416186,-1,89 85 90 92 87 88 91 86
146,1499367593.0,8,300.0,1,1499367595.0,174.0,1499367769.0,2.0,176.0,1.0114942528735633,-1,13 15 10 11 12 16 14 9
25,1499363414.0,4,200.0,1,1499363415.0,137.0,1499363552.0,1.0,138.0,1.0072992700729928,-1,24 23 22 21
158,1499367924.0,4,200.0,1,1499367925.0,137.0,1499368062.0,1.0,138.0,1.0072992700729928,-1,8 6 5 7
94,1499365913.0,4,200.0,1,1499365985.0,138.0,1499366123.0,72.0,210.0,1.5217391304347827,-1,117 120 119 118
43,1499364074.0,64,200.0,1,1499364076.0,79.0,1499364155.0,2.0,81.0,1.0253164556962024,-1,68 103 81 87 86 100 24 56 108 70 69 22 107 52 109 97 77 99 23 89 21 55 75 94 66 78 84 8 92 85 93 74 51 88 102 83 72 104 82 6 91 7 79 111 50 96 98 5 73 76 112 49 105 110 71 80 106 67 53 65 95 54 101 90
165,1499368177.0,8,300.0,1,1499368619.0,173.0,1499368792.0,442.0,615.0,3.554913294797688,-1,124 122 121 120 117 119 123 118
64,1499364962.0,32,200.0,1,1499364963.0,136.0,1499365099.0,1.0,137.0,1.0073529411764706,-1,50 82 11 6 84 49 81 8 12 1 5 3 15 10 73 76 75 74 52 77 13 83 51 16 14 9 7 4 78 80 79 2
115,1499366596.0,128,600.0,1,1499368208.0,410.0,1499368618.0,1612.0,2022.0,4.931707317073171,-1,82 73 115 69 35 105 103 121 51 46 22 79 110 108 65 101 10 21 20 107 116 72 27 24 112 75 36 29 117 9 68 57 8 109 128 54 125 2 25 28 80 88 18 58 123 17 19 47 15 85 3 31 83 13 120 78 43 11 76 114 33 38 87 84 113 62 77 42 92 40 48 16 63 90 74 60 99 30 37 4 14 59 94 81 45 111 97 124 93 118 41 98 1 49 52 44 96 71 119 106 66 86 34 32 12 39 127 53 5 91 26 104 102 50 70 64 67 23 7 95 100 6 61 122 126 55 56 89
193,1499369195.0,8,300.0,1,1499369414.0,169.0,1499369583.0,219.0,388.0,2.2958579881656807,-1,121 118 123 119 120 124 117 122
223,1499370289.0,4,200.0,1,1499370763.0,88.0,1499370851.0,474.0,562.0,6.386363636363637,-1,102 103 101 104
78,1499365514.0,4,200.0,1,1499365868.0,138.0,1499366006.0,354.0,492.0,3.5652173913043477,-1,52 51 50 49
79,1499365553.0,4,200.0,1,1499365868.0,138.0,1499366006.0,315.0,453.0,3.282608695652174,-1,53 55 54 56
153,1499367763.0,8,300.0,1,1499367764.0,173.0,1499367937.0,1.0,174.0,1.0057803468208093,-1,55 54 50 52 53 51 56 49
19,1499363140.0,16,200.0,1,1499363141.0,114.0,1499363255.0,1.0,115.0,1.0087719298245614,-1,17 12 14 8 11 10 6 15 20 7 19 9 16 18 5 13
123,1499366803.0,16,200.0,1,1499366856.0,114.0,1499366970.0,53.0,167.0,1.4649122807017543,-1,113 118 122 116 128 125 126 124 115 123 114 127 121 117 119 120
21,1499363254.0,4,200.0,1,1499363255.0,88.0,1499363343.0,1.0,89.0,1.0113636363636365,-1,34 35 33 36
63,1499364905.0,4,200.0,1,1499364906.0,138.0,1499365044.0,1.0,139.0,1.0072463768115942,-1,70 72 71 69
31,1499363672.0,4,200.0,1,1499363673.0,137.0,1499363810.0,1.0,138.0,1.0072992700729928,-1,9 10 11 12
172,1499368481.0,8,300.0,1,1499368793.0,172.0,1499368965.0,312.0,484.0,2.813953488372093,-1,120 118 117 119 123 121 124 122
151,1499367713.0,8,300.0,1,1499367714.0,170.0,1499367884.0,1.0,171.0,1.0058823529411764,-1,1 7 5 2 8 3 4 6
17,1499362965.0,8,300.0,1,1499362967.0,174.0,1499363141.0,2.0,176.0,1.0114942528735633,-1,26 21 22 23 27 28 24 25
48,1499364219.0,4,200.0,1,1499364220.0,88.0,1499364308.0,1.0,89.0,1.0113636363636365,-1,15 14 13 16
218,1499370241.0,16,200.0,1,1499370760.0,114.0,1499370874.0,519.0,633.0,5.552631578947368,-1,118 117 115 110 113 120 119 114 111 112 116 109 122 123 121 124
229,1499370385.0,32,2400.0,1,1499372928.0,1439.0,1499374367.0,2543.0,3982.0,2.767199444058374,-1,68 77 88 83 95 96 84 72 65 81 90 93 71 91 75 70 76 89 94 78 73 92 79 74 67 82 66 87 86 69 85 80
242,1499370999.0,4,200.0,1,1499371555.0,87.0,1499371642.0,556.0,643.0,7.390804597701149,-1,100 98 97 99
195,1499369231.0,4,200.0,1,1499369479.0,137.0,1499369616.0,248.0,385.0,2.81021897810219,-1,97 99 100 98
22,1499363364.0,8,300.0,1,1499363366.0,174.0,1499363540.0,2.0,176.0,1.0114942528735633,-1,1 2 7 5 8 4 3 6
101,1499366162.0,16,200.0,1,1499366179.0,101.0,1499366280.0,17.0,118.0,1.1683168316831682,-1,66 68 109 67 114 125 111 126 65 112 128 115 110 127 113 116
49,1499364269.0,8,300.0,1,1499364271.0,172.0,1499364443.0,2.0,174.0,1.0116279069767442,-1,24 17 20 22 18 23 21 19
244,1499371031.0,8,300.0,1,1499371591.0,172.0,1499371763.0,560.0,732.0,4.255813953488372,-1,109 116 111 112 114 113 110 115
247,1499371088.0,16,200.0,1,1499371726.0,113.0,1499371839.0,638.0,751.0,6.646017699115045,-1,102 108 120 103 97 118 106 117 100 119 105 104 101 107 98 99
53,1499364343.0,4,200.0,1,1499364345.0,137.0,1499364482.0,2.0,139.0,1.0145985401459854,-1,77 78 80 79
117,1499366690.0,4,200.0,1,1499366692.0,137.0,1499366829.0,2.0,139.0,1.0145985401459854,-1,92 91 89 90
54,1499364368.0,16,200.0,1,1499364370.0,114.0,1499364484.0,2.0,116.0,1.0175438596491229,-1,90 87 82 89 84 93 86 92 96 95 85 83 91 81 88 94
13,1499362713.0,8,300.0,1,1499362714.0,173.0,1499362887.0,1.0,174.0,1.0057803468208093,-1,17 23 21 18 19 24 20 22
24,1499363411.0,4,200.0,1,1499363413.0,87.0,1499363500.0,2.0,89.0,1.0229885057471264,-1,19 17 18 20
113,1499366495.0,8,300.0,1,1499366613.0,172.0,1499366785.0,118.0,290.0,1.686046511627907,-1,109 96 110 111 94 112 95 93
224,1499370302.0,16,200.0,1,1499370875.0,114.0,1499370989.0,573.0,687.0,6.026315789473684,-1,120 118 114 101 109 103 111 104 117 112 115 102 119 116 113 110
67,1499365073.0,8,300.0,1,1499365075.0,171.0,1499365246.0,2.0,173.0,1.0116959064327486,-1,55 21 56 53 23 22 24 54
12,1499362672.0,4,200.0,1,1499362674.0,87.0,1499362761.0,2.0,89.0,1.0229885057471264,-1,16 15 13 14
204,1499369511.0,8,300.0,1,1499369791.0,173.0,1499369964.0,280.0,453.0,2.6184971098265897,-1,125 97 98 100 99 126 127 128
243,1499371023.0,8,300.0,1,1499371555.0,169.0,1499371724.0,532.0,701.0,4.14792899408284,-1,103 102 108 107 105 104 101 106
164,1499368175.0,4,200.0,1,1499368619.0,89.0,1499368708.0,444.0,533.0,5.98876404494382,-1,115 116 114 113
167,1499368185.0,8,300.0,1,1499368722.0,170.0,1499368892.0,537.0,707.0,4.158823529411765,-1,106 105 111 109 107 108 112 110
51,1499364311.0,8,300.0,1,1499364313.0,174.0,1499364487.0,2.0,176.0,1.0114942528735633,-1,14 53 15 56 54 55 16 13
55,1499364412.0,128,600.0,1,1499365458.0,409.0,1499365867.0,1046.0,1455.0,3.5574572127139366,-1,116 72 44 115 65 51 79 99 42 125 110 104 88 43 118 105 62 25 57 45 63 49 126 81 13 112 117 37 34 61 127 27 40 98 74 33 28 6 3 53 59 60 20 55 19 128 124 89 7 52 108 77 23 66 90 107 11 12 120 76 71 97 9 122 17 8 36 22 24 73 30 48 121 93 82 35 80 84 18 4 83 111 54 67 85 56 29 21 50 94 91 109 78 58 101 70 5 2 47 26 10 114 92 103 46 75 123 1 119 32 106 39 69 68 113 14 41 86 31 64 100 96 16 102 15 38 87 95
7,1499362448.0,4,200.0,1,1499362450.0,138.0,1499362588.0,2.0,140.0,1.0144927536231885,-1,37 39 40 38
32,1499363684.0,8,300.0,1,1499363686.0,175.0,1499363861.0,2.0,177.0,1.0114285714285713,-1,17 13 16 15 18 20 14 19
150,1499367674.0,8,300.0,1,1499367675.0,173.0,1499367848.0,1.0,174.0,1.0057803468208093,-1,39 35 37 40 33 36 34 38
187,1499369032.0,4,200.0,1,1499369275.0,88.0,1499369363.0,243.0,331.0,3.7613636363636362,-1,112 110 111 109
87,1499365649.0,16,200.0,1,1499365868.0,116.0,1499365984.0,219.0,335.0,2.8879310344827585,-1,112 113 122 116 121 114 119 111 110 124 120 118 115 117 109 123
8,1499362472.0,16,200.0,1,1499362473.0,102.0,1499362575.0,1.0,103.0,1.0098039215686274,-1,7 2 41 44 1 6 43 3 9 42 5 8 12 11 4 10
198,1499369367.0,8,300.0,1,1499369618.0,171.0,1499369789.0,251.0,422.0,2.4678362573099415,-1,98 125 126 97 127 100 128 99
144,1499367466.0,128,600.0,1,1499370175.0,408.0,1499370583.0,2709.0,3117.0,7.639705882352941,-1,127 87 6 91 101 25 23 123 54 92 124 44 12 122 53 95 18 70 110 112 43 128 65 30 81 102 79 125 32 103 52 14 48 10 45 97 72 39 114 8 11 50 31 117 84 36 34 57 73 20 96 1 24 98 7 126 67 59 3 42 106 28 85 40 74 38 22 64 71 21 105 47 77 100 63 15 116 88 26 107 13 104 109 86 33 29 75 19 90 119 2 80 9 58 93 55 108 78 68 66 89 99 69 61 94 76 121 27 41 115 17 37 62 83 82 113 111 49 5 16 51 35 118 4 56 46 120 60
77,1499365503.0,4,200.0,1,1499365868.0,89.0,1499365957.0,365.0,454.0,5.101123595505618,-1,45 46 47 48
29,1499363565.0,4,200.0,1,1499363566.0,137.0,1499363703.0,1.0,138.0,1.0072992700729928,-1,2 1 4 3
37,1499363870.0,8,300.0,1,1499363871.0,175.0,1499364046.0,1.0,176.0,1.0057142857142858,-1,3 7 8 1 6 4 2 5
41,1499364026.0,8,300.0,1,1499364028.0,173.0,1499364201.0,2.0,175.0,1.0115606936416186,-1,19 17 14 18 15 16 20 13
93,1499365898.0,4,200.0,1,1499365984.0,89.0,1499366073.0,86.0,175.0,1.9662921348314606,-1,92 91 89 90
39,1499363925.0,32,2400.0,1,1499363927.0,1441.0,1499365368.0,2.0,1443.0,1.0013879250520472,-1,48 46 25 62 40 47 64 60 26 45 37 34 30 35 59 42 41 31 27 38 44 61 29 28 43 36 33 63 57 58 32 39
27,1499363454.0,4,200.0,1,1499363455.0,88.0,1499363543.0,1.0,89.0,1.0113636363636365,-1,36 33 35 34
175,1499368723.0,16,200.0,1,1499368988.0,113.0,1499369101.0,265.0,378.0,3.3451327433628317,-1,113 123 118 127 128 120 114 116 122 117 125 115 121 119 126 124
97,1499366050.0,8,300.0,1,1499366051.0,173.0,1499366224.0,1.0,174.0,1.0057803468208093,-1,72 71 94 93 96 69 70 95
4,1499362310.0,4,200.0,1,1499362312.0,137.0,1499362449.0,2.0,139.0,1.0145985401459854,-1,9 12 11 10
103,1499366274.0,16,200.0,1,1499366362.0,114.0,1499366476.0,88.0,202.0,1.7719298245614035,-1,69 78 70 73 80 67 68 66 74 77 79 65 75 76 72 71
76,1499365443.0,4,200.0,1,1499365868.0,138.0,1499366006.0,425.0,563.0,4.079710144927536,-1,43 41 42 44
183,1499368864.0,4,200.0,1,1499369185.0,137.0,1499369322.0,321.0,458.0,3.343065693430657,-1,106 107 108 105
241,1499370969.0,8,300.0,1,1499371442.0,171.0,1499371613.0,473.0,644.0,3.7660818713450293,-1,124 121 123 128 127 126 125 122
161,1499368041.0,32,2400.0,1,1499368619.0,1442.0,1499370061.0,578.0,2020.0,1.4008321775312067,-1,68 79 76 72 88 81 69 66 92 82 71 91 70 84 89 75 86 65 96 90 80 95 85 93 78 94 73 87 74 67 83 77
192,1499369156.0,32,2400.0,1,1499370584.0,1443.0,1499372027.0,1428.0,2871.0,1.9896049896049897,-1,74 80 67 71 95 84 82 72 86 94 90 68 79 75 78 93 69 81 91 87 89 96 65 73 66 77 76 88 85 70 83 92
124,1499366804.0,8,300.0,1,1499366925.0,168.0,1499367093.0,121.0,289.0,1.7202380952380953,-1,91 93 90 95 89 92 96 94
42,1499364057.0,4,200.0,1,1499364059.0,87.0,1499364146.0,2.0,89.0,1.0229885057471264,-1,1 4 3 2
191,1499369102.0,4,200.0,1,1499369367.0,137.0,1499369504.0,265.0,402.0,2.934306569343066,-1,116 114 115 113
142,1499367289.0,4,200.0,1,1499367405.0,138.0,1499367543.0,116.0,254.0,1.8405797101449275,-1,89 92 90 91
36,1499363755.0,8,300.0,1,1499363756.0,174.0,1499363930.0,1.0,175.0,1.0057471264367817,-1,53 56 54 55 51 50 49 52
84,1499365585.0,16,200.0,1,1499365868.0,115.0,1499365983.0,283.0,398.0,3.4608695652173913,-1,86 91 83 92 82 87 79 81 80 88 77 84 89 85 78 90
46,1499364189.0,4,200.0,1,1499364191.0,136.0,1499364327.0,2.0,138.0,1.0147058823529411,-1,2 3 4 1
171,1499368361.0,32,2400.0,1,1499370584.0,1444.0,1499372028.0,2223.0,3667.0,2.539473684210526,-1,20 1 29 2 24 17 26 11 16 7 23 5 14 12 3 9 18 19 4 28 27 22 8 25 13 30 6 15 21 32 31 10
100,1499366108.0,16,200.0,1,1499366158.0,102.0,1499366260.0,50.0,152.0,1.4901960784313726,-1,105 77 82 83 106 117 107 81 79 78 118 120 108 84 80 119
1,1499361977.0,4,200.0,1,1499361979.0,139.0,1499362118.0,2.0,141.0,1.014388489208633,-1,2 3 4 1
30,1499363630.0,4,200.0,1,1499363632.0,86.0,1499363718.0,2.0,88.0,1.0232558139534884,-1,6 8 7 5
182,1499368838.0,4,200.0,1,1499369103.0,89.0,1499369192.0,265.0,354.0,3.9775280898876404,-1,126 128 125 127
71,1499365275.0,4,200.0,1,1499365276.0,138.0,1499365414.0,1.0,139.0,1.0072463768115942,-1,75 74 76 73
23,1499363396.0,8,300.0,1,1499363397.0,174.0,1499363571.0,1.0,175.0,1.0057471264367817,-1,15 9 16 13 11 10 14 12
96,1499365966.0,8,300.0,1,1499366007.0,174.0,1499366181.0,41.0,215.0,1.235632183908046,-1,123 122 76 74 121 124 73 75
201,1499369397.0,4,200.0,1,1499369621.0,137.0,1499369758.0,224.0,361.0,2.6350364963503647,-1,115 113 116 114
148,1499367598.0,16,200.0,1,1499367599.0,114.0,1499367713.0,1.0,115.0,1.0087719298245614,-1,89 25 32 26 90 88 28 87 85 29 92 30 86 91 31 27
129,1499366842.0,4,200.0,1,1499366971.0,138.0,1499367109.0,129.0,267.0,1.934782608695652,-1,127 128 125 126
139,1499367174.0,4,200.0,1,1499367310.0,137.0,1499367447.0,136.0,273.0,1.9927007299270072,-1,14 15 16 13
74,1499365340.0,16,200.0,1,1499365341.0,116.0,1499365457.0,1.0,117.0,1.0086206896551724,-1,101 105 110 112 107 98 99 111 97 100 103 106 104 109 108 102
118,1499366739.0,16,200.0,1,1499366742.0,113.0,1499366855.0,3.0,116.0,1.0265486725663717,-1,123 119 128 125 126 117 121 113 124 127 114 122 116 120 118 115
34,1499363728.0,16,200.0,1,1499363730.0,113.0,1499363843.0,2.0,115.0,1.0176991150442478,-1,6 4 39 44 7 1 40 41 37 38 5 2 3 8 42 43
105,1499366370.0,16,200.0,1,1499366371.0,102.0,1499366473.0,1.0,103.0,1.0098039215686274,-1,95 88 99 93 92 87 85 100 90 96 98 91 89 94 97 86
112,1499366464.0,32,2400.0,1,1499366601.0,1440.0,1499368041.0,137.0,1577.0,1.0951388888888889,-1,106 75 78 102 80 71 72 66 83 79 101 100 73 74 70 65 84 67 103 108 97 98 81 107 68 99 76 105 69 77 82 104
194,1499369220.0,4,200.0,1,1499369414.0,137.0,1499369551.0,194.0,331.0,2.4160583941605838,-1,128 125 127 126
52,1499364333.0,16,200.0,1,1499364334.0,100.0,1499364434.0,1.0,101.0,1.01,-1,66 2 4 70 1 71 72 75 67 76 69 68 3 74 73 65
212,1499369872.0,8,300.0,1,1499370584.0,177.0,1499370761.0,712.0,889.0,5.022598870056497,-1,99 104 100 102 98 97 103 101
185,1499368964.0,8,300.0,1,1499369189.0,170.0,1499369359.0,225.0,395.0,2.323529411764706,-1,104 100 97 98 99 102 103 101
45,1499364111.0,4,200.0,1,1499364113.0,88.0,1499364201.0,2.0,90.0,1.0227272727272727,-1,118 117 120 119
138,1499367143.0,4,200.0,1,1499367310.0,137.0,1499367447.0,167.0,304.0,2.218978102189781,-1,10 9 11 12
154,1499367823.0,4,200.0,1,1499367824.0,137.0,1499367961.0,1.0,138.0,1.0072992700729928,-1,12 11 9 10
208,1499369745.0,16,200.0,1,1499369980.0,114.0,1499370094.0,235.0,349.0,3.06140350877193,-1,97 102 104 108 101 98 100 107 103 106 110 105 109 112 111 99
222,1499370289.0,64,200.0,1,1499372028.0,79.0,1499372107.0,1739.0,1818.0,23.0126582278481,-1,112 62 99 119 125 115 105 56 48 35 103 57 38 126 37 100 47 121 104 111 128 36 106 55 53 44 59 52 101 34 51 109 120 98 64 118 102 39 127 123 54 60 117 50 116 42 61 58 108 40 41 97 43 33 49 110 114 113 122 124 63 107 45 46
99,1499366103.0,16,200.0,1,1499366104.0,114.0,1499366218.0,1.0,115.0,1.0087719298245614,-1,103 89 98 91 99 86 92 88 104 100 101 85 87 102 90 97
157,1499367908.0,4,200.0,1,1499367909.0,138.0,1499368047.0,1.0,139.0,1.0072463768115942,-1,2 4 1 3
26,1499363451.0,8,300.0,1,1499363453.0,175.0,1499363628.0,2.0,177.0,1.0114285714285713,-1,31 30 27 32 28 29 25 26
234,1499370588.0,8,300.0,1,1499371267.0,173.0,1499371440.0,679.0,852.0,4.92485549132948,-1,125 127 126 123 122 121 128 124
177,1499368753.0,128,600.0,1,1499372108.0,409.0,1499372517.0,3355.0,3764.0,9.202933985330073,-1,110 105 121 84 79 99 63 94 93 5 89 8 112 125 72 69 18 66 90 101 124 80 77 111 27 42 52 50 107 88 54 95 29 43 73 96 4 91 64 82 46 78 11 9 53 41 85 38 24 128 117 14 116 7 37 81 67 122 104 17 51 59 98 6 13 115 118 83 47 15 102 55 87 20 1 31 71 3 32 75 119 100 60 123 25 103 62 16 114 127 22 86 58 33 97 70 21 74 126 92 108 120 106 48 10 56 40 28 65 61 34 26 45 49 76 2 109 35 68 23 30 44 19 36 12 113 57 39
135,1499367031.0,4,200.0,1,1499367310.0,137.0,1499367447.0,279.0,416.0,3.0364963503649633,-1,4 3 1 2
16,1499362937.0,8,300.0,1,1499362939.0,167.0,1499363106.0,2.0,169.0,1.0119760479041917,-1,16 20 15 13 14 18 17 19
186,1499369008.0,8,300.0,1,1499369242.0,170.0,1499369412.0,234.0,404.0,2.376470588235294,-1,122 124 127 126 121 125 123 128
40,1499364019.0,4,200.0,1,1499364020.0,137.0,1499364157.0,1.0,138.0,1.0072992700729928,-1,12 9 11 10
166,1499368178.0,8,300.0,1,1499368722.0,173.0,1499368895.0,544.0,717.0,4.144508670520231,-1,98 100 99 101 102 97 103 104
38,1499363894.0,16,200.0,1,1499363895.0,102.0,1499363997.0,1.0,103.0,1.0098039215686274,-1,9 12 19 22 14 13 23 15 17 24 10 20 11 21 18 16
217,1499370223.0,4,200.0,1,1499370758.0,137.0,1499370895.0,535.0,672.0,4.905109489051095,-1,106 107 108 105
221,1499370283.0,4,200.0,1,1499370763.0,137.0,1499370900.0,480.0,617.0,4.5036496350364965,-1,100 97 99 98
9,1499362494.0,4,200.0,1,1499362495.0,139.0,1499362634.0,1.0,140.0,1.0071942446043165,-1,47 48 45 46
237,1499370670.0,4,200.0,1,1499371301.0,137.0,1499371438.0,631.0,768.0,5.605839416058394,-1,98 99 97 100
228,1499370362.0,4,200.0,1,1499370875.0,90.0,1499370965.0,513.0,603.0,6.7,-1,123 124 122 121
211,1499369858.0,4,200.0,1,1499370004.0,88.0,1499370092.0,146.0,234.0,2.659090909090909,-1,124 122 123 121
106,1499366416.0,4,200.0,1,1499366418.0,87.0,1499366505.0,2.0,89.0,1.0229885057471264,-1,101 102 103 104
83,1499365565.0,4,200.0,1,1499365868.0,138.0,1499366006.0,303.0,441.0,3.1956521739130435,-1,75 76 73 74
250,1499371138.0,8,300.0,1,1499371765.0,172.0,1499371937.0,627.0,799.0,4.645348837209302,-1,115 114 113 112 110 116 109 111
134,1499367004.0,4,200.0,1,1499367111.0,137.0,1499367248.0,107.0,244.0,1.781021897810219,-1,128 126 125 127
227,1499370354.0,8,300.0,1,1499371128.0,171.0,1499371299.0,774.0,945.0,5.526315789473684,-1,100 102 101 99 104 103 97 98
178,1499368753.0,32,2400.0,1,1499370584.0,1443.0,1499372027.0,1831.0,3274.0,2.268884268884269,-1,64 37 42 47 54 51 61 41 44 57 33 38 58 49 52 36 59 50 60 45 63 46 56 48 40 34 39 43 62 35 55 53
3,1499362290.0,8,300.0,1,1499362292.0,172.0,1499362464.0,2.0,174.0,1.0116279069767442,-1,3 6 4 7 5 2 8 1
152,1499367721.0,16,200.0,1,1499367723.0,113.0,1499367836.0,2.0,115.0,1.0176991150442478,-1,26 28 27 41 43 30 47 29 31 46 44 32 42 25 45 48
132,1499366953.0,32,200.0,1,1499367269.0,135.0,1499367404.0,316.0,451.0,3.3407407407407406,-1,121 114 109 88 93 123 122 118 87 124 110 117 116 92 86 126 94 115 120 128 95 90 113 85 111 125 91 127 89 112 119 96
68,1499365183.0,8,300.0,1,1499365184.0,171.0,1499365355.0,1.0,172.0,1.0058479532163742,-1,3 4 6 2 7 1 8 5
85,1499365588.0,8,300.0,1,1499365868.0,173.0,1499366041.0,280.0,453.0,2.6184971098265897,-1,97 94 98 99 95 96 100 93
128,1499366834.0,8,300.0,1,1499367094.0,173.0,1499367267.0,260.0,433.0,2.5028901734104045,-1,91 89 92 95 96 94 90 93
197,1499369284.0,8,300.0,1,1499369585.0,174.0,1499369759.0,301.0,475.0,2.7298850574712645,-1,122 118 117 124 120 119 123 121
181,1499368831.0,4,200.0,1,1499369103.0,137.0,1499369240.0,272.0,409.0,2.9854014598540144,-1,122 124 121 123
235,1499370658.0,64,200.0,1,1499373008.0,79.0,1499373087.0,2350.0,2429.0,30.746835443037973,-1,60 25 34 58 8 35 7 4 38 63 6 12 47 50 13 54 32 14 61 51 44 27 42 46 64 9 45 21 20 10 48 17 59 15 11 49 41 62 26 16 56 1 19 2 22 3 33 18 40 52 30 43 31 5 36 24 28 39 57 37 23 55 29 53
130,1499366879.0,4,200.0,1,1499367110.0,137.0,1499367247.0,231.0,368.0,2.6861313868613137,-1,122 124 123 121
245,1499371051.0,4,200.0,1,1499371591.0,87.0,1499371678.0,540.0,627.0,7.206896551724138,-1,119 117 118 120
184,1499368902.0,4,200.0,1,1499369185.0,88.0,1499369273.0,283.0,371.0,4.215909090909091,-1,110 112 111 109
72,1499365293.0,16,200.0,1,1499365294.0,102.0,1499365396.0,1.0,103.0,1.0098039215686274,-1,86 81 80 78 88 77 85 84 79 90 91 82 89 83 87 92
91,1499365871.0,4,200.0,1,1499365984.0,88.0,1499366072.0,113.0,201.0,2.284090909090909,-1,88 87 86 85
169,1499368300.0,4,200.0,1,1499368711.0,137.0,1499368848.0,411.0,548.0,4.0,-1,116 114 113 115
120,1499366771.0,4,200.0,1,1499366787.0,137.0,1499366924.0,16.0,153.0,1.1167883211678833,-1,111 110 112 109
225,1499370320.0,32,200.0,1,1499370991.0,135.0,1499371126.0,671.0,806.0,5.970370370370371,-1,98 117 103 115 107 126 110 99 104 101 123 100 116 97 125 112 127 106 113 128 124 108 105 118 111 119 120 114 102 122 109 121
149,1499367611.0,8,300.0,1,1499367613.0,173.0,1499367786.0,2.0,175.0,1.0115606936416186,-1,111 96 112 94 93 109 110 95
163,1499368169.0,16,200.0,1,1499368619.0,102.0,1499368721.0,450.0,552.0,5.411764705882353,-1,104 110 97 106 99 105 100 103 112 111 98 109 108 107 102 101
125,1499366810.0,8,300.0,1,1499366956.0,172.0,1499367128.0,146.0,318.0,1.8488372093023255,-1,112 87 111 85 109 110 86 88
239,1499370774.0,4,200.0,1,1499371301.0,137.0,1499371438.0,527.0,664.0,4.846715328467154,-1,103 104 102 101
126,1499366812.0,8,300.0,1,1499366971.0,175.0,1499367146.0,159.0,334.0,1.9085714285714286,-1,119 120 114 113 118 116 115 117
205,1499369586.0,4,200.0,1,1499369796.0,91.0,1499369887.0,210.0,301.0,3.3076923076923075,-1,102 101 103 104
10,1499362529.0,32,200.0,1,1499362530.0,136.0,1499362666.0,1.0,137.0,1.0073529411764706,-1,54 15 60 19 59 24 49 55 25 17 63 50 14 61 21 56 62 23 16 53 13 51 57 22 20 28 26 18 52 27 64 58
75,1499365417.0,8,300.0,1,1499365868.0,172.0,1499366040.0,451.0,623.0,3.622093023255814,-1,38 34 39 35 36 40 33 37
44,1499364082.0,4,200.0,1,1499364083.0,139.0,1499364222.0,1.0,140.0,1.0071942446043165,-1,114 116 113 115
133,1499366968.0,32,2400.0,1,1499368619.0,1439.0,1499370058.0,1651.0,3090.0,2.147324530924253,-1,4 14 27 10 24 5 15 2 22 11 20 23 18 6 8 16 25 31 29 12 7 19 26 32 17 9 28 13 30 1 3 21
58,1499364583.0,16,200.0,1,1499364585.0,114.0,1499364699.0,2.0,116.0,1.0175438596491229,-1,73 68 65 74 76 78 66 72 75 69 80 67 70 71 79 77
108,1499366451.0,8,300.0,1,1499366452.0,173.0,1499366625.0,1.0,174.0,1.0057803468208093,-1,114 120 117 115 118 119 113 116
200,1499369393.0,4,200.0,1,1499369621.0,90.0,1499369711.0,228.0,318.0,3.533333333333333,-1,111 110 112 109
92,1499365876.0,8,300.0,1,1499365985.0,174.0,1499366159.0,109.0,283.0,1.6264367816091954,-1,112 113 116 114 110 115 109 111
89,1499365809.0,8,300.0,1,1499365959.0,172.0,1499366131.0,150.0,322.0,1.872093023255814,-1,125 45 48 127 46 47 128 126
156,1499367870.0,4,200.0,1,1499367872.0,137.0,1499368009.0,2.0,139.0,1.0145985401459854,-1,24 21 22 23
33,1499363693.0,16,200.0,1,1499363694.0,101.0,1499363795.0,1.0,102.0,1.00990099009901,-1,21 31 36 25 26 35 23 34 32 30 22 24 29 27 33 28
47,1499364204.0,8,300.0,1,1499364205.0,172.0,1499364377.0,1.0,173.0,1.005813953488372,-1,10 5 12 8 11 9 6 7
173,1499368636.0,16,200.0,1,1499368897.0,114.0,1499369011.0,261.0,375.0,3.289473684210526,-1,106 112 98 102 109 99 97 107 111 104 103 108 100 110 101 105
190,1499369081.0,4,200.0,1,1499369277.0,88.0,1499369365.0,196.0,284.0,3.227272727272727,-1,119 118 117 120
168,1499368188.0,4,200.0,1,1499368619.0,138.0,1499368757.0,431.0,569.0,4.1231884057971016,-1,128 126 125 127
176,1499368724.0,8,300.0,1,1499369012.0,175.0,1499369187.0,288.0,463.0,2.645714285714286,-1,102 103 99 98 100 104 97 101
140,1499367254.0,16,200.0,1,1499367310.0,102.0,1499367412.0,56.0,158.0,1.5490196078431373,-1,28 17 31 22 18 24 29 26 19 32 23 27 20 25 21 30
238,1499370704.0,8,300.0,1,1499371417.0,172.0,1499371589.0,713.0,885.0,5.145348837209302,-1,113 118 119 114 115 117 116 120
14,1499362896.0,4,200.0,1,1499362897.0,89.0,1499362986.0,1.0,90.0,1.0112359550561798,-1,2 1 4 3
6,1499362398.0,8,300.0,1,1499362400.0,169.0,1499362569.0,2.0,171.0,1.0118343195266273,-1,35 32 29 31 33 30 36 34
141,1499367277.0,4,200.0,1,1499367405.0,138.0,1499367543.0,128.0,266.0,1.9275362318840579,-1,86 85 88 87
246,1499371067.0,4,200.0,1,1499371615.0,137.0,1499371752.0,548.0,685.0,5.0,-1,122 121 124 123
109,1499366452.0,8,300.0,1,1499366453.0,172.0,1499366625.0,1.0,173.0,1.005813953488372,-1,122 125 121 126 127 124 128 123
2,1499362073.0,8,300.0,1,1499362074.0,173.0,1499362247.0,1.0,174.0,1.0057803468208093,-1,12 8 10 9 5 11 7 6
220,1499370264.0,128,600.0,1,1499372518.0,408.0,1499372926.0,2254.0,2662.0,6.5245098039215685,-1,33 53 74 2 51 16 122 3 117 23 110 109 100 120 22 127 66 97 101 4 128 99 11 19 102 107 45 86 10 76 80 15 103 61 106 81 54 48 62 46 58 71 124 37 95 35 75 21 94 92 30 79 18 9 93 52 72 27 114 25 84 38 14 64 63 78 65 82 29 26 47 112 125 28 119 5 77 56 91 31 39 115 36 49 7 87 90 41 111 6 12 98 44 108 85 113 13 126 118 17 55 32 70 105 20 96 88 24 50 40 60 68 104 69 121 89 83 67 73 59 42 8 116 123 34 57 1 43
95,1499365947.0,32,200.0,1,1499366042.0,135.0,1499366177.0,95.0,230.0,1.7037037037037037,-1,38 65 36 59 67 66 44 39 63 42 34 55 68 52 53 43 64 35 61 37 49 41 62 56 50 57 33 60 58 40 51 54
18,1499363012.0,4,200.0,1,1499363014.0,137.0,1499363151.0,2.0,139.0,1.0145985401459854,-1,2 4 3 1
