jobID,submission_time,requested_number_of_processors,requested_time,success,starting_time,execution_time,finish_time,waiting_time,turnaround_time,stretch,consumed_energy,allocated_processors
2447,1500209250.0,8,300.0,1,1500209251.0,215.0,1500209466.0,1.0,216.0,1.0046511627906978,-1,13 16 18 15 14 17 20 19
2417,1500208326.0,4,200.0,1,1500208802.0,146.0,1500208948.0,476.0,622.0,4.260273972602739,-1,9 12 10 11
2286,1500203228.0,16,200.0,1,1500203230.0,153.0,1500203383.0,2.0,155.0,1.0130718954248366,-1,39 7 8 4 3 38 58 59 57 1 5 40 60 2 6 37
2443,1500209122.0,8,300.0,1,1500209123.0,186.0,1500209309.0,1.0,187.0,1.0053763440860215,-1,45 48 59 60 46 58 57 47
2433,1500208879.0,4,200.0,1,1500208995.0,141.0,1500209136.0,116.0,257.0,1.822695035460993,-1,15 13 16 14
2458,1500209642.0,16,200.0,1,1500209644.0,129.0,1500209773.0,2.0,131.0,1.0155038759689923,-1,29 30 75 32 73 80 69 31 76 71 74 72 70 78 77 79
2327,1500205153.0,8,300.0,1,1500206069.0,176.0,1500206245.0,916.0,1092.0,6.204545454545454,-1,76 71 72 74 75 69 70 73
2357,1500206338.0,8,300.0,1,1500206542.0,182.0,1500206724.0,204.0,386.0,2.120879120879121,-1,91 105 106 92 107 108 90 89
2296,1500203792.0,4,200.0,1,1500203794.0,141.0,1500203935.0,2.0,143.0,1.0141843971631206,-1,63 62 64 61
2379,1500207219.0,8,300.0,1,1500207272.0,176.0,1500207448.0,53.0,229.0,1.3011363636363635,-1,98 105 97 107 108 100 106 99
2472,1500210150.0,4,200.0,1,1500210151.0,141.0,1500210292.0,1.0,142.0,1.0070921985815602,-1,61 62 63 64
2449,1500209347.0,4,200.0,1,1500209349.0,139.0,1500209488.0,2.0,141.0,1.014388489208633,-1,27 25 26 28
2487,1500210669.0,32,2400.0,1,1500210947.0,1508.0,1500212455.0,278.0,1786.0,1.1843501326259946,-1,123 15 20 17 68 122 31 30 32 29 25 66 125 13 10 28 11 26 27 18 19 128 124 12 14 127 9 126 65 67 16 121
2267,1500202418.0,4,200.0,1,1500202419.0,93.0,1500202512.0,1.0,94.0,1.010752688172043,-1,3 1 2 4
2303,1500204131.0,8,300.0,1,1500204133.0,208.0,1500204341.0,2.0,210.0,1.0096153846153846,-1,21 28 27 23 24 22 26 25
2330,1500205271.0,8,300.0,1,1500206069.0,178.0,1500206247.0,798.0,976.0,5.48314606741573,-1,94 93 91 95 96 90 92 89
2297,1500203926.0,64,200.0,1,1500203927.0,99.0,1500204026.0,1.0,100.0,1.0101010101010102,-1,36 72 48 3 22 44 17 40 37 9 10 38 51 5 28 73 29 12 75 19 1 30 26 69 11 35 76 65 4 66 47 2 13 16 49 71 18 39 25 42 46 45 41 74 8 7 27 20 33 14 31 52 70 32 6 24 23 34 21 43 67 50 68 15
2258,1500202054.0,16,200.0,1,1500202055.0,138.0,1500202193.0,1.0,139.0,1.0072463768115942,-1,5 43 2 1 6 38 44 8 3 39 40 42 4 37 7 41
2387,1500207338.0,16,200.0,1,1500207538.0,123.0,1500207661.0,200.0,323.0,2.6260162601626016,-1,17 6 8 9 2 19 1 18 3 4 11 10 7 5 20 12
2467,1500209969.0,4,200.0,1,1500209971.0,144.0,1500210115.0,2.0,146.0,1.0138888888888888,-1,29 30 32 31
2343,1500205706.0,4,200.0,1,1500206252.0,141.0,1500206393.0,546.0,687.0,4.872340425531915,-1,91 92 90 89
2307,1500204351.0,32,2400.0,1,1500204352.0,1507.0,1500205859.0,1.0,1508.0,1.0006635700066357,-1,99 100 19 85 21 90 83 88 24 92 81 89 86 95 26 82 94 22 27 96 18 23 20 25 91 98 87 84 93 28 17 97
2426,1500208692.0,4,200.0,1,1500208802.0,150.0,1500208952.0,110.0,260.0,1.7333333333333334,-1,72 71 70 69
2365,1500206564.0,4,200.0,1,1500206710.0,143.0,1500206853.0,146.0,289.0,2.020979020979021,-1,128 127 125 126
2305,1500204329.0,32,2400.0,1,1500204330.0,1495.0,1500205825.0,1.0,1496.0,1.0006688963210701,-1,30 6 75 77 71 73 67 10 61 63 72 65 66 76 74 70 9 64 69 12 80 62 5 11 7 68 32 8 31 79 29 78
2430,1500208814.0,64,200.0,1,1500208959.0,82.0,1500209041.0,145.0,227.0,2.768292682926829,-1,105 90 82 21 9 69 61 28 25 86 83 71 52 31 22 58 10 30 62 68 56 60 107 84 111 65 94 63 112 110 50 67 59 85 92 57 89 49 106 11 64 72 27 53 55 51 108 26 12 109 81 70 32 96 54 88 93 91 24 29 95 87 23 66
2395,1500207554.0,4,200.0,1,1500207661.0,143.0,1500207804.0,107.0,250.0,1.7482517482517483,-1,119 117 120 118
2340,1500205573.0,8,300.0,1,1500206250.0,177.0,1500206427.0,677.0,854.0,4.824858757062147,-1,75 74 73 69 70 76 71 72
2477,1500210330.0,32,2400.0,1,1500210331.0,1480.0,1500211811.0,1.0,1481.0,1.0006756756756756,-1,104 108 117 119 102 36 116 112 113 64 110 105 114 62 60 59 115 118 61 58 35 109 34 106 63 111 107 33 57 103 101 120
2287,1500203385.0,32,200.0,1,1500203387.0,194.0,1500203581.0,2.0,196.0,1.0103092783505154,-1,28 14 19 11 48 47 25 41 27 9 15 24 46 21 42 18 22 43 12 36 16 45 34 35 33 13 44 20 10 23 17 26
2418,1500208360.0,8,300.0,1,1500208802.0,186.0,1500208988.0,442.0,628.0,3.3763440860215055,-1,13 19 18 17 20 16 14 15
2497,1500211090.0,16,200.0,1,1500211679.0,121.0,1500211800.0,589.0,710.0,5.867768595041323,-1,82 76 73 80 79 71 75 78 69 83 70 81 72 77 84 74
2300,1500204056.0,4,200.0,1,1500204058.0,100.0,1500204158.0,2.0,102.0,1.02,-1,4 1 3 2
2391,1500207474.0,8,300.0,1,1500207661.0,178.0,1500207839.0,187.0,365.0,2.050561797752809,-1,105 28 106 25 27 108 107 26
2498,1500211149.0,8,300.0,1,1500211679.0,191.0,1500211870.0,530.0,721.0,3.774869109947644,-1,91 90 92 87 86 88 85 89
2285,1500203211.0,8,300.0,1,1500203212.0,202.0,1500203414.0,1.0,203.0,1.004950495049505,-1,55 69 54 56 71 72 53 70
2332,1500205323.0,8,300.0,1,1500206078.0,172.0,1500206250.0,755.0,927.0,5.3895348837209305,-1,97 78 77 99 79 100 80 98
2413,1500208124.0,4,200.0,1,1500208125.0,140.0,1500208265.0,1.0,141.0,1.0071428571428571,-1,21 22 24 23
2374,1500207023.0,8,300.0,1,1500207112.0,179.0,1500207291.0,89.0,268.0,1.4972067039106145,-1,121 117 124 122 118 119 123 120
2382,1500207275.0,8,300.0,1,1500207420.0,175.0,1500207595.0,145.0,320.0,1.8285714285714285,-1,82 125 81 126 128 84 83 127
2275,1500202933.0,8,300.0,1,1500202935.0,202.0,1500203137.0,2.0,204.0,1.00990099009901,-1,34 33 27 25 28 26 36 35
2383,1500207295.0,8,300.0,1,1500207436.0,177.0,1500207613.0,141.0,318.0,1.7966101694915255,-1,115 113 112 110 114 109 111 116
2293,1500203678.0,16,200.0,1,1500203679.0,143.0,1500203822.0,1.0,144.0,1.006993006993007,-1,8 16 14 3 11 13 7 12 6 2 4 1 5 10 15 9
2265,1500202368.0,8,300.0,1,1500202369.0,215.0,1500202584.0,1.0,216.0,1.0046511627906978,-1,38 37 41 42 43 40 39 44
2351,1500206078.0,16,200.0,1,1500206435.0,105.0,1500206540.0,357.0,462.0,4.4,-1,79 95 70 69 93 94 74 72 77 73 78 80 76 75 96 71
2373,1500206883.0,4,200.0,1,1500207112.0,142.0,1500207254.0,229.0,371.0,2.612676056338028,-1,114 115 113 116
2291,1500203496.0,16,200.0,1,1500203497.0,158.0,1500203655.0,1.0,159.0,1.0063291139240507,-1,70 61 65 29 31 68 71 63 67 62 30 64 66 32 69 72
2448,1500209277.0,4,200.0,1,1500209278.0,141.0,1500209419.0,1.0,142.0,1.0070921985815602,-1,23 21 22 24
2355,1500206306.0,8,300.0,1,1500206512.0,171.0,1500206683.0,206.0,377.0,2.2046783625730995,-1,122 123 124 121 119 117 120 118
2313,1500204586.0,4,200.0,1,1500204588.0,142.0,1500204730.0,2.0,144.0,1.0140845070422535,-1,110 112 111 109
2439,1500209038.0,16,200.0,1,1500209039.0,105.0,1500209144.0,1.0,106.0,1.0095238095238095,-1,100 97 80 104 73 78 99 101 76 98 74 103 79 77 75 102
2314,1500204588.0,32,2400.0,1,1500204735.0,1462.0,1500206197.0,147.0,1609.0,1.100547195622435,-1,105 123 120 106 111 109 125 128 126 112 116 122 117 127 118 103 124 114 119 14 13 104 115 121 16 113 101 15 110 107 102 108
2322,1500205030.0,32,2400.0,1,1500206069.0,1465.0,1500207534.0,1039.0,2504.0,1.7092150170648464,-1,11 3 28 21 40 2 9 38 8 23 6 4 18 7 27 33 36 37 5 35 20 34 19 22 12 24 17 1 39 25 26 10
2329,1500205173.0,8,300.0,1,1500206069.0,177.0,1500206246.0,896.0,1073.0,6.062146892655368,-1,88 87 81 83 84 86 85 82
2473,1500210158.0,8,300.0,1,1500210159.0,175.0,1500210334.0,1.0,176.0,1.0057142857142858,-1,68 67 65 31 30 29 32 66
2470,1500210115.0,8,300.0,1,1500210116.0,189.0,1500210305.0,1.0,190.0,1.0052910052910053,-1,25 27 34 35 28 33 36 26
2302,1500204109.0,8,300.0,1,1500204110.0,217.0,1500204327.0,1.0,218.0,1.0046082949308757,-1,16 18 15 17 13 20 19 14
2403,1500207828.0,4,200.0,1,1500207829.0,140.0,1500207969.0,1.0,141.0,1.0071428571428571,-1,22 24 21 23
2450,1500209396.0,8,300.0,1,1500209397.0,184.0,1500209581.0,1.0,185.0,1.0054347826086956,-1,33 9 12 10 11 36 34 35
2393,1500207518.0,8,300.0,1,1500207711.0,180.0,1500207891.0,193.0,373.0,2.0722222222222224,-1,48 47 46 45 50 49 51 52
2376,1500207147.0,8,300.0,1,1500207259.0,172.0,1500207431.0,112.0,284.0,1.6511627906976745,-1,116 109 111 113 112 115 110 114
2480,1500210497.0,8,300.0,1,1500210498.0,183.0,1500210681.0,1.0,184.0,1.005464480874317,-1,17 25 26 28 18 19 20 27
2491,1500210862.0,32,200.0,1,1500211262.0,138.0,1500211400.0,400.0,538.0,3.898550724637681,-1,41 48 45 22 54 4 51 5 50 23 38 47 46 8 39 40 1 55 37 56 44 3 53 43 52 7 6 2 42 49 24 21
2276,1500202938.0,4,200.0,1,1500202940.0,146.0,1500203086.0,2.0,148.0,1.0136986301369864,-1,38 40 39 37
2344,1500205731.0,8,300.0,1,1500206256.0,175.0,1500206431.0,525.0,700.0,4.0,-1,77 96 79 95 93 80 78 94
2451,1500209432.0,32,2400.0,1,1500209433.0,1641.0,1500211074.0,1.0,1642.0,1.000609384521633,-1,3 50 44 41 7 47 53 1 56 48 37 5 51 22 52 46 38 39 49 8 54 55 23 45 42 6 2 4 24 43 40 21
2465,1500209880.0,16,200.0,1,1500209882.0,156.0,1500210038.0,2.0,158.0,1.0128205128205128,-1,33 36 13 57 60 64 61 15 62 63 34 59 58 14 35 16
2318,1500204762.0,16,200.0,1,1500205797.0,121.0,1500205918.0,1035.0,1156.0,9.553719008264462,-1,41 51 54 47 56 44 46 50 52 55 53 48 43 42 45 49
2370,1500206788.0,16,200.0,1,1500207003.0,105.0,1500207108.0,215.0,320.0,3.0476190476190474,-1,123 112 114 117 116 110 115 113 111 119 122 118 124 109 121 120
2424,1500208611.0,4,200.0,1,1500208802.0,150.0,1500208952.0,191.0,341.0,2.2733333333333334,-1,54 55 53 56
2420,1500208402.0,4,200.0,1,1500208802.0,148.0,1500208950.0,400.0,548.0,3.7027027027027026,-1,28 26 27 25
2326,1500205150.0,4,200.0,1,1500205831.0,144.0,1500205975.0,681.0,825.0,5.729166666666667,-1,72 71 70 69
2454,1500209504.0,8,300.0,1,1500209505.0,186.0,1500209691.0,1.0,187.0,1.0053763440860215,-1,14 17 20 16 18 19 13 15
2363,1500206470.0,32,2400.0,1,1500206774.0,1515.0,1500208289.0,304.0,1819.0,1.2006600660066007,-1,86 102 92 96 73 78 89 75 69 76 87 71 91 14 77 80 85 74 101 103 15 93 16 88 104 79 70 95 94 90 13 72
2319,1500204810.0,16,200.0,1,1500205831.0,123.0,1500205954.0,1021.0,1144.0,9.300813008130081,-1,6 64 10 8 9 7 5 12 65 62 11 68 63 66 67 61
2394,1500207550.0,16,200.0,1,1500207711.0,108.0,1500207819.0,161.0,269.0,2.490740740740741,-1,59 65 55 56 57 61 53 67 63 66 54 62 64 68 60 58
2381,1500207274.0,8,300.0,1,1500207295.0,177.0,1500207472.0,21.0,198.0,1.11864406779661,-1,124 122 121 117 119 123 118 120
2371,1500206855.0,4,200.0,1,1500207003.0,142.0,1500207145.0,148.0,290.0,2.0422535211267605,-1,128 126 125 127
2264,1500202308.0,16,200.0,1,1500202310.0,142.0,1500202452.0,2.0,144.0,1.0140845070422535,-1,28 25 36 17 19 21 24 20 18 34 23 35 22 27 26 33
2427,1500208693.0,8,300.0,1,1500208802.0,189.0,1500208991.0,109.0,298.0,1.5767195767195767,-1,76 80 74 75 78 73 77 79
2457,1500209617.0,16,200.0,1,1500209619.0,131.0,1500209750.0,2.0,133.0,1.015267175572519,-1,36 57 59 68 67 62 66 60 65 58 33 35 63 34 64 61
2266,1500202386.0,4,200.0,1,1500202387.0,94.0,1500202481.0,1.0,95.0,1.0106382978723405,-1,11 12 9 10
2422,1500208512.0,8,300.0,1,1500208802.0,186.0,1500208988.0,290.0,476.0,2.5591397849462365,-1,43 44 42 41 45 48 47 46
2352,1500206081.0,4,200.0,1,1500206463.0,140.0,1500206603.0,382.0,522.0,3.7285714285714286,-1,81 84 83 82
2360,1500206385.0,8,300.0,1,1500206642.0,184.0,1500206826.0,257.0,441.0,2.3967391304347827,-1,84 82 83 98 100 99 97 81
2375,1500207142.0,16,200.0,1,1500207151.0,117.0,1500207268.0,9.0,126.0,1.0769230769230769,-1,97 99 126 108 105 100 81 127 98 84 107 125 106 82 83 128
2306,1500204344.0,4,200.0,1,1500204346.0,146.0,1500204492.0,2.0,148.0,1.0136986301369864,-1,13 14 16 15
2468,1500210094.0,8,300.0,1,1500210096.0,189.0,1500210285.0,2.0,191.0,1.0105820105820107,-1,16 15 11 13 14 12 9 10
2469,1500210108.0,4,200.0,1,1500210109.0,105.0,1500210214.0,1.0,106.0,1.0095238095238095,-1,20 18 17 19
2459,1500209658.0,4,200.0,1,1500209659.0,140.0,1500209799.0,1.0,141.0,1.0071428571428571,-1,84 83 82 81
2478,1500210333.0,4,200.0,1,1500210334.0,141.0,1500210475.0,1.0,142.0,1.0070921985815602,-1,121 124 122 123
2359,1500206348.0,4,200.0,1,1500206544.0,140.0,1500206684.0,196.0,336.0,2.4,-1,95 94 93 96
2444,1500209131.0,4,200.0,1,1500209133.0,94.0,1500209227.0,2.0,96.0,1.0212765957446808,-1,63 64 61 62
2489,1500210775.0,8,300.0,1,1500211080.0,176.0,1500211256.0,305.0,481.0,2.7329545454545454,-1,22 40 24 21 39 23 38 37
2440,1500209048.0,4,200.0,1,1500209050.0,92.0,1500209142.0,2.0,94.0,1.0217391304347827,-1,10 11 12 9
2304,1500204275.0,32,2400.0,1,1500204276.0,1515.0,1500205791.0,1.0,1516.0,1.0006600660066007,-1,34 36 56 49 2 43 47 53 38 48 44 52 35 33 51 4 59 3 39 58 54 42 37 40 55 46 60 45 50 57 41 1
2479,1500210477.0,8,300.0,1,1500210479.0,178.0,1500210657.0,2.0,180.0,1.0112359550561798,-1,16 12 14 10 11 9 15 13
2437,1500208961.0,4,200.0,1,1500208997.0,94.0,1500209091.0,36.0,130.0,1.3829787234042554,-1,35 33 36 34
2481,1500210574.0,8,300.0,1,1500210576.0,172.0,1500210748.0,2.0,174.0,1.0116279069767442,-1,29 32 67 30 66 68 65 31
2312,1500204569.0,4,200.0,1,1500204571.0,93.0,1500204664.0,2.0,95.0,1.021505376344086,-1,106 107 108 105
2384,1500207309.0,4,200.0,1,1500207453.0,139.0,1500207592.0,144.0,283.0,2.035971223021583,-1,100 98 97 99
2368,1500206696.0,4,200.0,1,1500207003.0,141.0,1500207144.0,307.0,448.0,3.1773049645390072,-1,100 99 97 98
2396,1500207575.0,4,200.0,1,1500207711.0,96.0,1500207807.0,136.0,232.0,2.4166666666666665,-1,29 32 30 31
2446,1500209217.0,4,200.0,1,1500209218.0,140.0,1500209358.0,1.0,141.0,1.0071428571428571,-1,11 12 9 10
2274,1500202907.0,8,300.0,1,1500202909.0,203.0,1500203112.0,2.0,205.0,1.0098522167487685,-1,22 19 24 21 18 20 23 17
2350,1500206060.0,4,200.0,1,1500206398.0,139.0,1500206537.0,338.0,477.0,3.431654676258993,-1,91 89 90 92
2435,1500208919.0,16,200.0,1,1500208996.0,109.0,1500209105.0,77.0,186.0,1.7064220183486238,-1,113 47 117 118 124 116 121 48 114 123 45 46 115 122 119 120
2494,1500210981.0,16,200.0,1,1500211404.0,118.0,1500211522.0,423.0,541.0,4.584745762711864,-1,50 47 54 41 42 45 52 44 51 55 46 56 49 53 43 48
2323,1500205046.0,32,2400.0,1,1500206069.0,1472.0,1500207541.0,1023.0,2495.0,1.6949728260869565,-1,45 47 32 66 56 59 50 42 53 57 63 58 61 41 48 62 49 67 64 52 51 54 60 43 29 55 46 31 68 65 44 30
2309,1500204472.0,8,300.0,1,1500204474.0,189.0,1500204663.0,2.0,191.0,1.0105820105820107,-1,121 123 120 118 122 119 117 124
2339,1500205508.0,8,300.0,1,1500206202.0,181.0,1500206383.0,694.0,875.0,4.834254143646409,-1,123 122 128 127 121 126 125 124
2278,1500203005.0,8,300.0,1,1500203006.0,213.0,1500203219.0,1.0,214.0,1.0046948356807512,-1,63 57 59 58 62 61 64 60
2252,1500201702.0,8,300.0,1,1500201703.0,210.0,1500201913.0,1.0,211.0,1.0047619047619047,-1,23 22 19 21 18 24 17 20
2259,1500202072.0,8,300.0,1,1500202073.0,204.0,1500202277.0,1.0,205.0,1.0049019607843137,-1,46 51 47 52 49 45 48 50
2401,1500207753.0,8,300.0,1,1500207790.0,180.0,1500207970.0,37.0,217.0,1.2055555555555555,-1,6 5 1 2 4 7 8 3
2338,1500205489.0,4,200.0,1,1500206202.0,148.0,1500206350.0,713.0,861.0,5.8175675675675675,-1,120 118 117 119
2254,1500201851.0,8,300.0,1,1500201853.0,195.0,1500202048.0,2.0,197.0,1.0102564102564102,-1,5 8 1 6 4 2 3 7
2325,1500205144.0,4,200.0,1,1500205831.0,145.0,1500205976.0,687.0,832.0,5.7379310344827585,-1,31 32 29 30
2337,1500205472.0,4,200.0,1,1500206202.0,96.0,1500206298.0,730.0,826.0,8.604166666666666,-1,113 116 114 115
2490,1500210849.0,4,200.0,1,1500210850.0,93.0,1500210943.0,1.0,94.0,1.010752688172043,-1,10 9 11 12
2335,1500205419.0,4,200.0,1,1500205932.0,140.0,1500206072.0,513.0,653.0,4.664285714285715,-1,80 77 78 79
2499,1500211202.0,8,300.0,1,1500211679.0,176.0,1500211855.0,477.0,653.0,3.710227272727273,-1,95 100 98 93 99 96 94 97
2268,1500202482.0,4,200.0,1,1500202483.0,143.0,1500202626.0,1.0,144.0,1.006993006993007,-1,8 7 5 6
2366,1500206608.0,32,200.0,1,1500206857.0,141.0,1500206998.0,249.0,390.0,2.765957446808511,-1,98 122 117 81 113 97 84 107 127 116 83 114 100 110 124 105 121 119 120 108 123 115 99 118 106 125 112 111 109 126 128 82
2269,1500202711.0,16,200.0,1,1500202712.0,147.0,1500202859.0,1.0,148.0,1.0068027210884354,-1,4 10 5 9 1 7 16 12 6 3 13 15 8 2 14 11
2257,1500202040.0,16,200.0,1,1500202041.0,147.0,1500202188.0,1.0,148.0,1.0068027210884354,-1,34 36 27 10 11 12 24 25 28 35 33 9 23 26 21 22
2255,1500201882.0,4,200.0,1,1500201884.0,141.0,1500202025.0,2.0,143.0,1.0141843971631206,-1,12 9 10 11
2400,1500207733.0,4,200.0,1,1500207734.0,140.0,1500207874.0,1.0,141.0,1.0071428571428571,-1,128 126 125 127
2399,1500207677.0,4,200.0,1,1500207711.0,143.0,1500207854.0,34.0,177.0,1.2377622377622377,-1,124 122 121 123
2347,1500205898.0,4,200.0,1,1500206383.0,140.0,1500206523.0,485.0,625.0,4.464285714285714,-1,111 109 110 112
2298,1500203957.0,8,300.0,1,1500203959.0,216.0,1500204175.0,2.0,218.0,1.0092592592592593,-1,58 57 56 59 53 54 60 55
2452,1500209465.0,16,200.0,1,1500209466.0,131.0,1500209597.0,1.0,132.0,1.0076335877862594,-1,68 58 67 62 61 59 60 30 31 65 64 66 29 32 63 57
2289,1500203427.0,4,200.0,1,1500203429.0,102.0,1500203531.0,2.0,104.0,1.0196078431372548,-1,7 5 8 6
2282,1500203146.0,16,200.0,1,1500203147.0,114.0,1500203261.0,1.0,115.0,1.0087719298245614,-1,19 10 15 11 13 18 17 20 22 24 9 16 21 14 23 12
2415,1500208246.0,4,200.0,1,1500208247.0,139.0,1500208386.0,1.0,140.0,1.0071942446043165,-1,2 1 3 4
2500,1500211213.0,4,200.0,1,1500211805.0,93.0,1500211898.0,592.0,685.0,7.365591397849462,-1,70 69 72 71
2310,1500204524.0,4,200.0,1,1500204525.0,141.0,1500204666.0,1.0,142.0,1.0070921985815602,-1,15 14 16 13
2488,1500210717.0,8,300.0,1,1500211080.0,177.0,1500211257.0,363.0,540.0,3.0508474576271185,-1,2 7 6 4 5 1 8 3
2279,1500203007.0,8,300.0,1,1500203009.0,209.0,1500203218.0,2.0,211.0,1.0095693779904307,-1,68 29 31 30 32 65 67 66
2434,1500208886.0,8,300.0,1,1500208995.0,183.0,1500209178.0,109.0,292.0,1.5956284153005464,-1,18 17 19 43 41 20 42 44
2397,1500207631.0,16,200.0,1,1500207711.0,120.0,1500207831.0,80.0,200.0,1.6666666666666667,-1,98 114 83 97 115 113 100 82 116 81 112 111 110 109 84 99
2464,1500209837.0,4,200.0,1,1500209838.0,142.0,1500209980.0,1.0,143.0,1.0070422535211268,-1,25 28 27 26
2292,1500203506.0,8,300.0,1,1500203507.0,213.0,1500203720.0,1.0,214.0,1.0046948356807512,-1,74 76 73 79 78 77 80 75
2369,1500206787.0,4,200.0,1,1500207003.0,141.0,1500207144.0,216.0,357.0,2.5319148936170213,-1,108 107 105 106
2277,1500202978.0,16,200.0,1,1500202979.0,143.0,1500203122.0,1.0,144.0,1.006993006993007,-1,42 50 46 45 51 49 47 44 56 52 43 55 53 41 54 48
2311,1500204553.0,4,200.0,1,1500204554.0,140.0,1500204694.0,1.0,141.0,1.0071428571428571,-1,104 102 103 101
2346,1500205787.0,4,200.0,1,1500206383.0,142.0,1500206525.0,596.0,738.0,5.197183098591549,-1,107 105 108 106
2262,1500202279.0,4,200.0,1,1500202280.0,94.0,1500202374.0,1.0,95.0,1.0106382978723405,-1,12 10 11 9
2294,1500203679.0,32,200.0,1,1500203681.0,176.0,1500203857.0,2.0,178.0,1.0113636363636365,-1,46 33 27 38 35 22 17 23 49 20 41 52 21 34 28 39 36 44 37 25 18 26 51 47 45 50 24 40 42 43 19 48
2273,1500202893.0,8,300.0,1,1500202895.0,206.0,1500203101.0,2.0,208.0,1.0097087378640777,-1,13 10 16 9 15 14 11 12
2353,1500206194.0,8,300.0,1,1500206463.0,175.0,1500206638.0,269.0,444.0,2.537142857142857,-1,97 115 99 114 116 98 100 113
2442,1500209107.0,4,200.0,1,1500209109.0,93.0,1500209202.0,2.0,95.0,1.021505376344086,-1,36 33 35 34
2460,1500209675.0,8,300.0,1,1500209676.0,187.0,1500209863.0,1.0,188.0,1.0053475935828877,-1,93 89 94 91 96 95 92 90
2349,1500206026.0,4,200.0,1,1500206397.0,141.0,1500206538.0,371.0,512.0,3.631205673758865,-1,86 88 87 85
2392,1500207494.0,16,200.0,1,1500207711.0,108.0,1500207819.0,217.0,325.0,3.009259259259259,-1,44 42 43 38 24 33 34 41 40 23 37 39 36 21 35 22
2466,1500209894.0,4,200.0,1,1500209896.0,142.0,1500210038.0,2.0,144.0,1.0140845070422535,-1,65 66 68 67
2361,1500206408.0,16,200.0,1,1500206653.0,117.0,1500206770.0,245.0,362.0,3.094017094017094,-1,79 76 80 88 69 74 87 75 72 70 86 71 73 85 77 78
2280,1500203051.0,16,200.0,1,1500203052.0,126.0,1500203178.0,1.0,127.0,1.007936507936508,-1,72 82 69 71 73 75 84 78 76 80 70 74 77 79 81 83
2331,1500205311.0,4,200.0,1,1500205831.0,96.0,1500205927.0,520.0,616.0,6.416666666666667,-1,78 77 79 80
2402,1500207764.0,8,300.0,1,1500207790.0,186.0,1500207976.0,26.0,212.0,1.1397849462365592,-1,10 17 9 18 11 12 19 20
2388,1500207430.0,4,200.0,1,1500207538.0,142.0,1500207680.0,108.0,250.0,1.7605633802816902,-1,22 21 23 24
2410,1500207976.0,16,200.0,1,1500207977.0,129.0,1500208106.0,1.0,130.0,1.0077519379844961,-1,51 97 49 21 24 83 99 52 50 81 22 98 100 23 84 82
2414,1500208130.0,8,300.0,1,1500208131.0,195.0,1500208326.0,1.0,196.0,1.005128205128205,-1,37 41 43 44 38 39 40 42
2455,1500209554.0,8,300.0,1,1500209556.0,189.0,1500209745.0,2.0,191.0,1.0105820105820107,-1,27 26 86 28 25 88 87 85
2315,1500204675.0,4,200.0,1,1500205797.0,142.0,1500205939.0,1122.0,1264.0,8.901408450704226,-1,4 1 3 2
2407,1500207893.0,8,300.0,1,1500207895.0,188.0,1500208083.0,2.0,190.0,1.0106382978723405,-1,32 68 31 66 67 29 30 65
2485,1500210640.0,8,300.0,1,1500210753.0,179.0,1500210932.0,113.0,292.0,1.6312849162011174,-1,67 30 65 31 68 32 66 29
2425,1500208613.0,16,200.0,1,1500208802.0,132.0,1500208934.0,189.0,321.0,2.4318181818181817,-1,65 64 30 61 60 62 66 58 59 68 63 57 29 67 32 31
2260,1500202098.0,4,200.0,1,1500202099.0,144.0,1500202243.0,1.0,145.0,1.0069444444444444,-1,55 54 56 53
2429,1500208812.0,8,300.0,1,1500208815.0,176.0,1500208991.0,3.0,179.0,1.0170454545454546,-1,102 104 100 99 98 97 101 103
2321,1500204994.0,4,200.0,1,1500205797.0,98.0,1500205895.0,803.0,901.0,9.193877551020408,-1,59 58 60 57
2270,1500202727.0,4,200.0,1,1500202729.0,100.0,1500202829.0,2.0,102.0,1.02,-1,17 20 19 18
2476,1500210322.0,16,200.0,1,1500210324.0,118.0,1500210442.0,2.0,120.0,1.0169491525423728,-1,12 20 28 10 17 15 16 27 11 14 9 19 26 18 13 25
2362,1500206438.0,4,200.0,1,1500206642.0,143.0,1500206785.0,204.0,347.0,2.4265734265734267,-1,115 116 113 114
2356,1500206310.0,8,300.0,1,1500206528.0,177.0,1500206705.0,218.0,395.0,2.231638418079096,-1,126 112 110 128 109 127 125 111
2272,1500202889.0,8,300.0,1,1500202890.0,200.0,1500203090.0,1.0,201.0,1.005,-1,4 1 8 6 3 5 7 2
2409,1500207975.0,8,300.0,1,1500207977.0,197.0,1500208174.0,2.0,199.0,1.0101522842639594,-1,4 5 3 7 6 1 8 2
2441,1500209072.0,16,200.0,1,1500209074.0,125.0,1500209199.0,2.0,127.0,1.016,-1,55 49 22 24 27 51 23 56 26 54 50 21 25 52 28 53
2474,1500210183.0,32,2400.0,1,1500210184.0,1489.0,1500211673.0,1.0,1490.0,1.0006715916722633,-1,76 85 97 83 82 88 79 84 72 95 86 87 90 80 93 89 71 91 96 73 98 81 69 70 77 78 94 75 74 99 100 92
2411,1500207982.0,8,300.0,1,1500207984.0,188.0,1500208172.0,2.0,190.0,1.0106382978723405,-1,10 12 19 18 17 9 20 11
2486,1500210665.0,4,200.0,1,1500210767.0,93.0,1500210860.0,102.0,195.0,2.096774193548387,-1,121 122 123 124
2263,1500202303.0,4,200.0,1,1500202305.0,141.0,1500202446.0,2.0,143.0,1.0141843971631206,-1,15 16 13 14
2328,1500205172.0,4,200.0,1,1500205831.0,96.0,1500205927.0,659.0,755.0,7.864583333333333,-1,75 74 76 73
2378,1500207195.0,64,200.0,1,1500207622.0,85.0,1500207707.0,427.0,512.0,6.023529411764706,-1,114 55 45 29 128 57 81 122 61 41 126 97 33 60 52 37 84 83 121 31 116 109 100 98 58 44 64 65 110 43 51 35 46 40 99 62 47 127 39 38 56 113 53 82 48 124 49 54 125 32 112 42 66 63 36 67 123 111 30 50 34 59 115 68
2281,1500203095.0,16,200.0,1,1500203097.0,124.0,1500203221.0,2.0,126.0,1.0161290322580645,-1,86 2 5 87 85 40 8 7 4 37 6 3 38 39 1 88
2431,1500208868.0,16,200.0,1,1500208869.0,119.0,1500208988.0,1.0,120.0,1.0084033613445378,-1,123 118 115 116 125 126 122 119 113 127 128 124 121 117 120 114
2348,1500205974.0,16,200.0,1,1500206389.0,118.0,1500206507.0,415.0,533.0,4.516949152542373,-1,126 123 127 14 15 101 122 124 103 121 102 104 128 13 125 16
2317,1500204737.0,64,200.0,1,1500205981.0,84.0,1500206065.0,1244.0,1328.0,15.80952380952381,-1,31 18 4 7 56 52 47 28 2 66 27 10 46 50 24 76 32 42 1 70 72 22 57 19 45 60 11 6 59 17 30 8 63 29 69 74 25 41 65 5 26 3 20 23 21 73 54 67 61 43 62 64 49 68 51 44 12 9 48 53 55 58 75 71
2405,1500207864.0,16,200.0,1,1500207866.0,129.0,1500207995.0,2.0,131.0,1.0155038759689923,-1,41 42 25 54 43 53 37 26 28 38 39 55 27 56 40 44
2367,1500206610.0,4,200.0,1,1500207003.0,140.0,1500207143.0,393.0,533.0,3.807142857142857,-1,84 83 81 82
2308,1500204412.0,16,200.0,1,1500204413.0,133.0,1500204546.0,1.0,134.0,1.0075187969924813,-1,101 110 116 108 105 103 104 107 109 115 113 102 114 112 111 106
2345,1500205742.0,16,200.0,1,1500206354.0,105.0,1500206459.0,612.0,717.0,6.828571428571428,-1,114 81 118 113 115 120 97 100 116 117 119 83 82 84 99 98
2483,1500210608.0,8,300.0,1,1500210662.0,177.0,1500210839.0,54.0,231.0,1.305084745762712,-1,16 13 10 14 11 15 12 9
2253,1500201708.0,8,300.0,1,1500201709.0,215.0,1500201924.0,1.0,216.0,1.0046511627906978,-1,33 36 28 34 25 27 26 35
2432,1500208874.0,8,300.0,1,1500208988.0,180.0,1500209168.0,114.0,294.0,1.6333333333333333,-1,4 5 1 2 8 6 7 3
2295,1500203715.0,8,300.0,1,1500203716.0,209.0,1500203925.0,1.0,210.0,1.0047846889952152,-1,55 58 54 59 56 53 57 60
2342,1500205618.0,4,200.0,1,1500206251.0,141.0,1500206392.0,633.0,774.0,5.48936170212766,-1,88 85 87 86
2428,1500208792.0,16,200.0,1,1500208802.0,130.0,1500208932.0,10.0,140.0,1.0769230769230769,-1,92 87 91 95 82 94 88 84 93 83 86 96 85 81 90 89
2398,1500207657.0,128,600.0,1,1500208391.0,407.0,1500208798.0,734.0,1141.0,2.8034398034398036,-1,88 43 37 15 20 91 72 21 83 77 57 111 117 41 84 86 19 95 73 104 6 5 119 116 103 47 64 65 46 113 48 61 45 30 55 85 27 60 40 36 109 49 31 78 33 68 106 105 58 122 13 24 18 128 10 66 44 34 108 22 52 25 124 93 51 98 101 11 35 17 14 102 42 100 29 120 80 107 114 12 82 2 3 54 32 63 23 26 92 123 90 94 16 70 67 96 74 8 69 39 97 1 110 56 79 118 38 62 126 127 115 71 75 59 81 125 50 53 9 89 4 87 112 99 76 28 121 7
2421,1500208434.0,8,300.0,1,1500208802.0,188.0,1500208990.0,368.0,556.0,2.9574468085106385,-1,38 34 33 40 39 36 35 37
2436,1500208937.0,4,200.0,1,1500208996.0,143.0,1500209139.0,59.0,202.0,1.4125874125874125,-1,127 125 126 128
2316,1500204712.0,8,300.0,1,1500205797.0,182.0,1500205979.0,1085.0,1267.0,6.961538461538462,-1,36 33 37 34 35 38 39 40
2386,1500207334.0,4,200.0,1,1500207477.0,140.0,1500207617.0,143.0,283.0,2.0214285714285714,-1,124 121 122 123
2495,1500211005.0,4,200.0,1,1500211080.0,97.0,1500211177.0,75.0,172.0,1.7731958762886597,-1,48 47 46 45
2290,1500203487.0,16,200.0,1,1500203489.0,115.0,1500203604.0,2.0,117.0,1.017391304347826,-1,37 59 50 56 60 54 52 53 55 38 58 39 49 51 40 57
2320,1500204907.0,8,300.0,1,1500205864.0,181.0,1500206045.0,957.0,1138.0,6.287292817679558,-1,87 85 86 88 83 82 84 81
2261,1500202217.0,8,300.0,1,1500202219.0,194.0,1500202413.0,2.0,196.0,1.0103092783505154,-1,3 8 4 5 1 7 2 6
2341,1500205574.0,4,200.0,1,1500206251.0,94.0,1500206345.0,677.0,771.0,8.202127659574469,-1,81 82 83 84
2461,1500209704.0,4,200.0,1,1500209706.0,93.0,1500209799.0,2.0,95.0,1.021505376344086,-1,12 11 10 9
2462,1500209712.0,4,200.0,1,1500209713.0,139.0,1500209852.0,1.0,140.0,1.0071942446043165,-1,14 16 13 15
2299,1500204026.0,4,200.0,1,1500204027.0,146.0,1500204173.0,1.0,147.0,1.0068493150684932,-1,63 62 61 64
2358,1500206340.0,16,200.0,1,1500206544.0,104.0,1500206648.0,204.0,308.0,2.9615384615384617,-1,74 76 79 85 73 75 78 87 72 69 88 77 70 86 80 71
2251,1500201668.0,16,200.0,1,1500201669.0,121.0,1500201790.0,1.0,122.0,1.0082644628099173,-1,5 6 2 3 8 1 13 4 7 9 10 15 12 16 14 11
2256,1500202018.0,8,300.0,1,1500202020.0,186.0,1500202206.0,2.0,188.0,1.010752688172043,-1,20 16 18 17 13 19 14 15
2385,1500207328.0,8,300.0,1,1500207477.0,180.0,1500207657.0,149.0,329.0,1.8277777777777777,-1,120 108 107 105 118 119 117 106
2484,1500210633.0,8,300.0,1,1500210686.0,174.0,1500210860.0,53.0,227.0,1.3045977011494252,-1,19 26 17 28 18 27 25 20
2284,1500203194.0,4,200.0,1,1500203195.0,147.0,1500203342.0,1.0,148.0,1.0068027210884354,-1,49 51 52 50
2423,1500208578.0,4,200.0,1,1500208802.0,151.0,1500208953.0,224.0,375.0,2.4834437086092715,-1,50 52 51 49
2354,1500206194.0,8,300.0,1,1500206512.0,175.0,1500206687.0,318.0,493.0,2.817142857142857,-1,102 13 104 16 15 103 101 14
2364,1500206538.0,4,200.0,1,1500206687.0,140.0,1500206827.0,149.0,289.0,2.0642857142857145,-1,124 121 123 122
2288,1500203398.0,4,200.0,1,1500203400.0,150.0,1500203550.0,2.0,152.0,1.0133333333333334,-1,3 1 2 4
2404,1500207838.0,4,200.0,1,1500207839.0,140.0,1500207979.0,1.0,141.0,1.0071428571428571,-1,33 36 34 35
2419,1500208389.0,4,200.0,1,1500208802.0,149.0,1500208951.0,413.0,562.0,3.771812080536913,-1,22 21 24 23
2412,1500208035.0,8,300.0,1,1500208037.0,177.0,1500208214.0,2.0,179.0,1.0112994350282485,-1,27 28 34 26 36 33 35 25
2445,1500209199.0,8,300.0,1,1500209201.0,193.0,1500209394.0,2.0,195.0,1.0103626943005182,-1,1 6 5 7 2 4 3 8
2463,1500209809.0,8,300.0,1,1500209810.0,200.0,1500210010.0,1.0,201.0,1.005,-1,10 11 20 17 18 9 12 19
2456,1500209605.0,4,200.0,1,1500209607.0,92.0,1500209699.0,2.0,94.0,1.0217391304347827,-1,12 11 9 10
2471,1500210136.0,4,200.0,1,1500210138.0,140.0,1500210278.0,2.0,142.0,1.0142857142857142,-1,60 58 59 57
2482,1500210588.0,8,300.0,1,1500210589.0,174.0,1500210763.0,1.0,175.0,1.0057471264367817,-1,128 124 123 121 126 127 125 122
2333,1500205352.0,8,300.0,1,1500206202.0,179.0,1500206381.0,850.0,1029.0,5.748603351955308,-1,15 104 13 102 14 101 16 103
2336,1500205445.0,8,300.0,1,1500206202.0,176.0,1500206378.0,757.0,933.0,5.301136363636363,-1,108 105 106 112 109 107 110 111
2377,1500207182.0,4,200.0,1,1500207272.0,141.0,1500207413.0,90.0,231.0,1.6382978723404256,-1,82 81 84 83
2453,1500209466.0,16,200.0,1,1500209468.0,105.0,1500209573.0,2.0,107.0,1.019047619047619,-1,77 70 84 79 76 69 80 81 73 75 78 72 82 71 74 83
2389,1500207469.0,4,200.0,1,1500207538.0,94.0,1500207632.0,69.0,163.0,1.7340425531914894,-1,26 28 27 25
2496,1500211055.0,32,2400.0,1,1500211527.0,1613.0,1500213140.0,472.0,2085.0,1.2926224426534407,-1,52 2 39 44 21 48 41 40 38 43 50 3 56 42 54 1 55 37 6 47 22 24 4 53 51 8 45 5 49 23 7 46
2334,1500205377.0,4,200.0,1,1500205864.0,146.0,1500206010.0,487.0,633.0,4.335616438356165,-1,99 100 97 98
2380,1500207243.0,4,200.0,1,1500207272.0,143.0,1500207415.0,29.0,172.0,1.2027972027972027,-1,126 127 125 128
2406,1500207878.0,8,300.0,1,1500207879.0,184.0,1500208063.0,1.0,185.0,1.0054347826086956,-1,57 62 63 64 60 61 58 59
2438,1500208987.0,4,200.0,1,1500208997.0,141.0,1500209138.0,10.0,151.0,1.070921985815603,-1,39 38 37 40
2283,1500203180.0,16,200.0,1,1500203182.0,136.0,1500203318.0,2.0,138.0,1.0147058823529411,-1,33 48 46 36 27 45 44 47 34 26 28 35 41 43 25 42
2301,1500204090.0,8,300.0,1,1500204091.0,214.0,1500204305.0,1.0,215.0,1.0046728971962617,-1,10 7 12 5 11 9 8 6
2390,1500207473.0,16,200.0,1,1500207666.0,120.0,1500207786.0,193.0,313.0,2.6083333333333334,-1,8 5 17 19 1 18 4 11 20 12 7 3 10 2 9 6
2408,1500207899.0,4,200.0,1,1500207901.0,139.0,1500208040.0,2.0,141.0,1.014388489208633,-1,47 48 46 45
2372,1500206870.0,4,200.0,1,1500207112.0,141.0,1500207253.0,242.0,383.0,2.7163120567375887,-1,112 110 111 109
2475,1500210214.0,4,200.0,1,1500210215.0,95.0,1500210310.0,1.0,96.0,1.0105263157894737,-1,103 101 102 104
2492,1500210881.0,4,200.0,1,1500211080.0,142.0,1500211222.0,199.0,341.0,2.4014084507042255,-1,41 42 43 44
2324,1500205094.0,8,300.0,1,1500205864.0,179.0,1500206043.0,770.0,949.0,5.301675977653631,-1,94 96 89 95 92 91 93 90
2493,1500210937.0,16,200.0,1,1500211404.0,116.0,1500211520.0,467.0,583.0,5.025862068965517,-1,8 39 37 5 2 21 6 3 7 1 38 24 23 22 4 40
2271,1500202730.0,4,200.0,1,1500202731.0,148.0,1500202879.0,1.0,149.0,1.0067567567567568,-1,23 22 21 24
2416,1500208312.0,8,300.0,1,1500208802.0,182.0,1500208984.0,490.0,672.0,3.6923076923076925,-1,8 1 6 4 3 5 2 7
