jobID,submission_time,requested_number_of_processors,requested_time,success,starting_time,execution_time,finish_time,waiting_time,turnaround_time,stretch,consumed_energy,allocated_processors
1777,1500177037.0,8,300.0,1,1500177039.0,195.0,1500177234.0,2.0,197.0,1.0102564102564102,-1,4 1 6 5 2 3 7 8
1855,1500180122.0,16,200.0,1,1500180123.0,151.0,1500180274.0,1.0,152.0,1.0066225165562914,-1,16 18 13 19 14 12 22 24 20 21 9 15 10 23 11 17
1970,1500184645.0,32,2400.0,1,1500185359.0,1479.0,1500186838.0,714.0,2193.0,1.4827586206896552,-1,77 76 64 32 80 79 62 31 65 66 63 69 42 39 71 29 73 38 44 37 78 75 74 72 30 70 41 40 67 61 68 43
1890,1500181584.0,4,200.0,1,1500181586.0,92.0,1500181678.0,2.0,94.0,1.0217391304347827,-1,56 54 55 53
1796,1500177775.0,4,200.0,1,1500177776.0,96.0,1500177872.0,1.0,97.0,1.0104166666666667,-1,6 8 5 7
1760,1500176473.0,8,300.0,1,1500176474.0,186.0,1500176660.0,1.0,187.0,1.0053763440860215,-1,126 121 125 122 123 127 124 128
1897,1500181759.0,8,300.0,1,1500182084.0,174.0,1500182258.0,325.0,499.0,2.867816091954023,-1,51 52 53 49 56 55 50 54
1794,1500177612.0,8,300.0,1,1500177613.0,191.0,1500177804.0,1.0,192.0,1.0052356020942408,-1,81 82 83 71 72 70 84 69
1871,1500180738.0,16,200.0,1,1500180739.0,140.0,1500180879.0,1.0,141.0,1.0071428571428571,-1,18 34 17 22 13 15 23 19 35 16 36 14 24 21 33 20
1988,1500185236.0,4,200.0,1,1500185910.0,141.0,1500186051.0,674.0,815.0,5.780141843971631,-1,123 124 122 121
1986,1500185142.0,16,200.0,1,1500185920.0,119.0,1500186039.0,778.0,897.0,7.53781512605042,-1,109 112 113 102 98 99 97 110 100 116 114 104 115 101 103 111
1929,1500182689.0,8,300.0,1,1500184287.0,186.0,1500184473.0,1598.0,1784.0,9.591397849462366,-1,46 47 50 45 49 51 48 52
1982,1500184999.0,16,200.0,1,1500185801.0,104.0,1500185905.0,802.0,906.0,8.711538461538462,-1,112 126 123 105 121 106 124 107 109 122 127 111 125 110 108 128
1967,1500184415.0,8,300.0,1,1500185230.0,175.0,1500185405.0,815.0,990.0,5.6571428571428575,-1,91 92 90 119 120 89 118 117
1987,1500185183.0,32,200.0,1,1500186055.0,139.0,1500186194.0,872.0,1011.0,7.273381294964029,-1,125 101 99 123 118 113 127 116 112 126 106 100 97 107 98 105 124 108 122 115 109 102 103 111 121 110 114 120 117 119 104 128
1764,1500176632.0,16,200.0,1,1500176633.0,149.0,1500176782.0,1.0,150.0,1.0067114093959733,-1,40 36 39 35 28 37 25 33 22 23 26 38 34 27 21 24
1776,1500176964.0,4,200.0,1,1500176965.0,95.0,1500177060.0,1.0,96.0,1.0105263157894737,-1,63 64 61 62
1844,1500179661.0,4,200.0,1,1500179662.0,140.0,1500179802.0,1.0,141.0,1.0071428571428571,-1,95 94 93 96
1980,1500184859.0,16,200.0,1,1500185688.0,119.0,1500185807.0,829.0,948.0,7.966386554621849,-1,98 100 119 115 97 103 101 117 118 113 99 116 102 120 104 114
1806,1500178128.0,32,2400.0,1,1500178130.0,1631.0,1500179761.0,2.0,1633.0,1.0012262415695892,-1,109 125 106 104 103 118 128 97 105 113 127 124 121 111 114 102 99 100 122 123 107 115 120 112 108 98 110 116 117 126 119 101
1923,1500182408.0,8,300.0,1,1500184259.0,179.0,1500184438.0,1851.0,2030.0,11.340782122905027,-1,91 95 93 89 90 94 92 96
1811,1500178371.0,4,200.0,1,1500178373.0,139.0,1500178512.0,2.0,141.0,1.014388489208633,-1,3 2 1 4
1887,1500181510.0,8,300.0,1,1500181512.0,174.0,1500181686.0,2.0,176.0,1.0114942528735633,-1,118 117 121 122 120 124 123 119
1972,1500184689.0,32,2400.0,1,1500185508.0,1518.0,1500187026.0,819.0,2337.0,1.5395256916996047,-1,88 85 54 47 53 91 93 60 48 45 56 96 87 46 49 90 50 82 55 52 57 94 92 86 83 84 51 59 95 89 58 81
1856,1500180336.0,4,200.0,1,1500180337.0,142.0,1500180479.0,1.0,143.0,1.0070422535211268,-1,1 4 3 2
1944,1500183373.0,4,200.0,1,1500184892.0,152.0,1500185044.0,1519.0,1671.0,10.993421052631579,-1,93 94 95 96
1873,1500180785.0,16,200.0,1,1500180786.0,108.0,1500180894.0,1.0,109.0,1.0092592592592593,-1,89 93 60 46 59 47 48 45 58 90 95 92 91 57 94 96
1872,1500180772.0,8,300.0,1,1500180774.0,216.0,1500180990.0,2.0,218.0,1.0092592592592593,-1,40 41 38 43 44 39 42 37
1997,1500185624.0,8,300.0,1,1500186702.0,179.0,1500186881.0,1078.0,1257.0,7.022346368715084,-1,13 16 15 14 12 11 10 9
1858,1500180337.0,4,200.0,1,1500180339.0,139.0,1500180478.0,2.0,141.0,1.014388489208633,-1,9 12 10 11
1969,1500184465.0,4,200.0,1,1500185311.0,94.0,1500185405.0,846.0,940.0,10.0,-1,124 122 121 123
1953,1500183696.0,8,300.0,1,1500185050.0,179.0,1500185229.0,1354.0,1533.0,8.564245810055866,-1,93 103 95 94 102 104 96 101
1819,1500178593.0,8,300.0,1,1500178781.0,177.0,1500178958.0,188.0,365.0,2.062146892655367,-1,46 58 48 60 59 57 45 47
1975,1500184759.0,64,200.0,1,1500186530.0,83.0,1500186613.0,1771.0,1854.0,22.337349397590362,-1,121 15 126 125 23 102 110 21 26 12 8 108 9 97 109 112 98 13 6 104 34 1 2 16 27 115 111 18 17 19 33 107 103 120 3 117 28 127 122 114 35 99 7 101 123 25 118 11 20 105 100 5 4 24 124 14 106 113 36 128 119 10 116 22
1857,1500180336.0,4,200.0,1,1500180337.0,95.0,1500180432.0,1.0,96.0,1.0105263157894737,-1,5 7 8 6
1978,1500184795.0,4,200.0,1,1500185508.0,142.0,1500185650.0,713.0,855.0,6.02112676056338,-1,126 128 127 125
1835,1500179444.0,32,200.0,1,1500179445.0,150.0,1500179595.0,1.0,151.0,1.0066666666666666,-1,52 47 50 60 41 58 44 59 34 46 28 38 36 55 33 42 49 48 40 37 45 35 25 53 39 26 43 27 57 51 54 56
1906,1500181936.0,8,300.0,1,1500182363.0,174.0,1500182537.0,427.0,601.0,3.454022988505747,-1,125 127 45 126 47 128 48 46
1859,1500180348.0,4,200.0,1,1500180350.0,139.0,1500180489.0,2.0,141.0,1.014388489208633,-1,16 15 13 14
1903,1500181841.0,32,2400.0,1,1500182808.0,1446.0,1500184254.0,967.0,2413.0,1.6687413554633472,-1,85 82 73 95 92 87 2 7 79 77 84 86 76 90 80 4 96 78 81 75 83 8 94 88 93 74 89 5 3 1 6 91
1874,1500180844.0,16,200.0,1,1500180845.0,109.0,1500180954.0,1.0,110.0,1.0091743119266054,-1,56 55 7 54 27 50 25 5 52 8 26 28 51 53 6 49
1961,1500184068.0,4,200.0,1,1500185083.0,95.0,1500185178.0,1015.0,1110.0,11.68421052631579,-1,128 126 127 125
1863,1500180482.0,8,300.0,1,1500180484.0,171.0,1500180655.0,2.0,173.0,1.0116959064327486,-1,12 10 3 9 1 4 11 2
1920,1500182326.0,4,200.0,1,1500182572.0,141.0,1500182713.0,246.0,387.0,2.74468085106383,-1,27 25 28 26
1893,1500181653.0,64,200.0,1,1500182748.0,81.0,1500182829.0,1095.0,1176.0,14.518518518518519,-1,34 45 61 12 41 119 14 25 15 51 58 124 64 24 123 36 48 122 52 53 28 38 50 16 121 42 37 40 128 117 46 33 39 18 47 127 22 55 57 60 27 17 62 19 26 13 21 11 10 126 59 43 35 120 44 56 125 20 54 118 9 49 23 63
1758,1500176410.0,64,200.0,1,1500176411.0,84.0,1500176495.0,1.0,85.0,1.0119047619047619,-1,91 89 82 99 63 110 120 67 75 105 83 62 100 98 87 30 77 61 68 93 116 86 92 80 85 102 115 70 97 84 108 119 113 73 78 90 69 71 107 104 111 94 114 109 32 64 101 81 117 79 66 29 106 103 88 95 72 112 31 96 118 74 65 76
1993,1500185467.0,16,200.0,1,1500186341.0,105.0,1500186446.0,874.0,979.0,9.323809523809524,-1,112 117 119 115 105 113 110 106 118 107 120 108 116 114 109 111
1787,1500177425.0,16,200.0,1,1500177426.0,108.0,1500177534.0,1.0,109.0,1.0092592592592593,-1,95 89 91 81 94 82 86 88 83 92 84 90 96 85 93 87
1925,1500182564.0,8,300.0,1,1500184285.0,176.0,1500184461.0,1721.0,1897.0,10.778409090909092,-1,15 10 12 11 9 16 14 13
1781,1500177321.0,16,200.0,1,1500177323.0,128.0,1500177451.0,2.0,130.0,1.015625,-1,9 4 14 15 5 11 7 13 6 3 1 16 10 12 8 2
1899,1500181787.0,4,200.0,1,1500182084.0,142.0,1500182226.0,297.0,439.0,3.091549295774648,-1,63 64 61 62
1852,1500179891.0,8,300.0,1,1500179892.0,183.0,1500180075.0,1.0,184.0,1.005464480874317,-1,52 51 49 47 46 50 45 48
1817,1500178512.0,8,300.0,1,1500178781.0,176.0,1500178957.0,269.0,445.0,2.528409090909091,-1,34 36 28 27 33 35 26 25
1904,1500181872.0,8,300.0,1,1500182262.0,176.0,1500182438.0,390.0,566.0,3.215909090909091,-1,51 56 49 54 53 55 50 52
1854,1500180102.0,8,300.0,1,1500180104.0,192.0,1500180296.0,2.0,194.0,1.0104166666666667,-1,4 3 6 1 8 5 7 2
1930,1500182728.0,128,600.0,1,1500184478.0,409.0,1500184887.0,1750.0,2159.0,5.278728606356968,-1,76 18 25 57 99 41 1 47 22 50 60 92 70 103 77 123 84 10 115 12 114 27 80 31 58 40 119 116 38 34 61 51 53 73 62 35 39 107 88 64 71 122 110 43 85 30 79 32 5 46 8 112 9 42 111 105 82 95 54 21 125 101 63 56 87 128 29 69 106 91 4 120 104 7 24 102 55 74 44 93 19 48 89 94 126 16 28 14 109 33 96 121 78 67 100 20 26 49 52 37 90 81 17 113 68 72 97 3 45 66 6 108 86 124 15 36 83 117 23 98 59 75 118 127 13 2 65 11
1963,1500184107.0,16,200.0,1,1500185228.0,105.0,1500185333.0,1121.0,1226.0,11.676190476190476,-1,73 86 82 77 76 83 79 85 78 88 75 84 74 80 81 87
1974,1500184750.0,16,200.0,1,1500185508.0,107.0,1500185615.0,758.0,865.0,8.08411214953271,-1,116 111 113 108 105 106 118 114 115 117 107 119 112 109 120 110
1945,1500183391.0,4,200.0,1,1500184892.0,106.0,1500184998.0,1501.0,1607.0,15.160377358490566,-1,99 97 100 98
1914,1500182092.0,8,300.0,1,1500182565.0,177.0,1500182742.0,473.0,650.0,3.672316384180791,-1,50 55 54 49 56 53 51 52
1913,1500182060.0,32,2400.0,1,1500182960.0,1447.0,1500184407.0,900.0,2347.0,1.6219765031098825,-1,114 99 113 102 69 65 68 105 30 108 70 32 97 100 106 109 104 101 66 111 115 98 112 31 67 71 103 107 72 110 116 29
1898,1500181785.0,4,200.0,1,1500182084.0,143.0,1500182227.0,299.0,442.0,3.090909090909091,-1,60 58 57 59
1767,1500176742.0,4,200.0,1,1500176744.0,140.0,1500176884.0,2.0,142.0,1.0142857142857142,-1,1 4 2 3
1950,1500183593.0,16,200.0,1,1500185023.0,105.0,1500185128.0,1430.0,1535.0,14.619047619047619,-1,62 66 64 55 65 57 68 58 61 67 56 59 53 60 54 63
1861,1500180465.0,8,300.0,1,1500180466.0,174.0,1500180640.0,1.0,175.0,1.0057471264367817,-1,25 27 5 6 8 26 7 28
1999,1500185695.0,4,200.0,1,1500186341.0,140.0,1500186481.0,646.0,786.0,5.614285714285714,-1,125 128 127 126
1880,1500181145.0,16,200.0,1,1500181240.0,121.0,1500181361.0,95.0,216.0,1.7851239669421488,-1,57 52 47 51 59 55 53 56 58 50 48 45 54 49 46 60
1792,1500177589.0,8,300.0,1,1500177590.0,182.0,1500177772.0,1.0,183.0,1.0054945054945055,-1,65 62 66 64 68 63 67 61
1754,1500176277.0,16,200.0,1,1500176399.0,125.0,1500176524.0,122.0,247.0,1.976,-1,38 28 27 33 42 44 40 39 41 35 43 26 36 25 34 37
1951,1500183599.0,32,200.0,1,1500185083.0,139.0,1500185222.0,1484.0,1623.0,11.676258992805755,-1,37 111 109 113 77 79 110 75 78 105 119 115 120 107 76 74 40 117 73 114 116 80 108 118 43 41 39 38 106 42 44 112
1766,1500176686.0,4,200.0,1,1500176687.0,95.0,1500176782.0,1.0,96.0,1.0105263157894737,-1,49 51 52 50
1998,1500185677.0,8,300.0,1,1500186702.0,181.0,1500186883.0,1025.0,1206.0,6.662983425414365,-1,21 20 23 24 19 18 17 22
1983,1500185025.0,4,200.0,1,1500185655.0,139.0,1500185794.0,630.0,769.0,5.532374100719425,-1,125 128 126 127
1785,1500177414.0,4,200.0,1,1500177416.0,141.0,1500177557.0,2.0,143.0,1.0141843971631206,-1,70 69 72 71
1836,1500179469.0,4,200.0,1,1500179471.0,140.0,1500179611.0,2.0,142.0,1.0142857142857142,-1,8 7 5 6
1936,1500183069.0,8,300.0,1,1500184892.0,188.0,1500185080.0,1823.0,2011.0,10.696808510638299,-1,50 47 48 51 46 45 52 49
1807,1500178136.0,8,300.0,1,1500178189.0,175.0,1500178364.0,53.0,228.0,1.302857142857143,-1,64 3 63 1 62 61 2 4
1755,1500176310.0,4,200.0,1,1500176399.0,142.0,1500176541.0,89.0,231.0,1.6267605633802817,-1,47 48 45 46
1788,1500177460.0,32,200.0,1,1500177461.0,165.0,1500177626.0,1.0,166.0,1.006060606060606,-1,108 7 111 16 112 10 110 3 13 105 2 102 103 14 101 9 109 100 1 12 99 104 107 11 98 4 5 6 97 106 8 15
1790,1500177519.0,4,200.0,1,1500177520.0,95.0,1500177615.0,1.0,96.0,1.0105263157894737,-1,120 117 119 118
1824,1500178719.0,4,200.0,1,1500178832.0,142.0,1500178974.0,113.0,255.0,1.795774647887324,-1,96 94 93 95
1905,1500181913.0,8,300.0,1,1500182269.0,174.0,1500182443.0,356.0,530.0,3.045977011494253,-1,124 121 122 119 118 120 117 123
1938,1500183148.0,4,200.0,1,1500184285.0,97.0,1500184382.0,1137.0,1234.0,12.721649484536082,-1,42 44 41 43
1876,1500181085.0,32,2400.0,1,1500181086.0,1479.0,1500182565.0,1.0,1480.0,1.0006761325219744,-1,17 34 43 23 38 12 15 19 40 33 18 22 10 36 14 20 39 27 44 26 28 16 9 11 37 42 41 13 35 25 24 21
1939,1500183185.0,8,300.0,1,1500184892.0,187.0,1500185079.0,1707.0,1894.0,10.128342245989305,-1,69 32 29 31 72 70 71 30
1886,1500181464.0,32,2400.0,1,1500181488.0,1467.0,1500182955.0,24.0,1491.0,1.016359918200409,-1,68 65 108 32 100 70 106 105 116 31 113 109 103 102 99 69 98 115 66 97 101 67 29 104 110 30 72 112 107 114 71 111
1941,1500183277.0,4,200.0,1,1500184892.0,151.0,1500185043.0,1615.0,1766.0,11.695364238410596,-1,79 78 80 77
1948,1500183526.0,8,300.0,1,1500184892.0,185.0,1500185077.0,1366.0,1551.0,8.383783783783784,-1,118 113 116 120 119 115 114 117
1753,1500176182.0,8,300.0,1,1500176399.0,184.0,1500176583.0,217.0,401.0,2.1793478260869565,-1,18 21 19 24 22 17 20 23
1820,1500178618.0,8,300.0,1,1500178832.0,173.0,1500179005.0,214.0,387.0,2.2369942196531793,-1,7 1 6 4 5 8 2 3
1768,1500176857.0,4,200.0,1,1500176859.0,140.0,1500176999.0,2.0,142.0,1.0142857142857142,-1,6 7 8 5
1798,1500177854.0,4,200.0,1,1500177855.0,140.0,1500177995.0,1.0,141.0,1.0071428571428571,-1,1 4 2 3
1875,1500181078.0,8,300.0,1,1500181080.0,180.0,1500181260.0,2.0,182.0,1.011111111111111,-1,1 6 4 5 8 7 2 3
1779,1500177106.0,4,200.0,1,1500177107.0,141.0,1500177248.0,1.0,142.0,1.0070921985815602,-1,11 12 10 9
1865,1500180586.0,4,200.0,1,1500180587.0,141.0,1500180728.0,1.0,142.0,1.0070921985815602,-1,13 15 16 14
1841,1500179649.0,4,200.0,1,1500179650.0,139.0,1500179789.0,1.0,140.0,1.0071942446043165,-1,27 25 26 28
1921,1500182352.0,8,300.0,1,1500184259.0,175.0,1500184434.0,1907.0,2082.0,11.897142857142857,-1,88 82 84 86 85 87 83 81
1911,1500182039.0,4,200.0,1,1500182542.0,92.0,1500182634.0,503.0,595.0,6.467391304347826,-1,48 46 47 45
1847,1500179712.0,4,200.0,1,1500179752.0,140.0,1500179892.0,40.0,180.0,1.2857142857142858,-1,21 22 24 23
1761,1500176516.0,8,300.0,1,1500176518.0,177.0,1500176695.0,2.0,179.0,1.0112994350282485,-1,4 3 6 1 8 7 2 5
1877,1500181106.0,16,200.0,1,1500181108.0,127.0,1500181235.0,2.0,129.0,1.015748031496063,-1,51 48 53 57 50 45 55 46 49 56 52 54 59 60 58 47
1793,1500177592.0,4,200.0,1,1500177593.0,96.0,1500177689.0,1.0,97.0,1.0104166666666667,-1,31 29 32 30
1932,1500182869.0,8,300.0,1,1500184287.0,179.0,1500184466.0,1418.0,1597.0,8.921787709497206,-1,60 55 54 58 59 56 53 57
1973,1500184719.0,8,300.0,1,1500185508.0,175.0,1500185683.0,789.0,964.0,5.508571428571429,-1,102 104 100 101 97 103 98 99
1907,1500181949.0,4,200.0,1,1500182084.0,95.0,1500182179.0,135.0,230.0,2.4210526315789473,-1,126 127 125 128
1918,1500182280.0,16,200.0,1,1500182572.0,107.0,1500182679.0,292.0,399.0,3.7289719626168223,-1,21 9 15 19 17 12 10 22 11 16 13 20 14 23 18 24
1946,1500183482.0,4,200.0,1,1500184892.0,152.0,1500185044.0,1410.0,1562.0,10.276315789473685,-1,104 103 102 101
1774,1500176913.0,8,300.0,1,1500176915.0,192.0,1500177107.0,2.0,194.0,1.0104166666666667,-1,54 50 56 53 49 51 55 52
1894,1500181667.0,16,200.0,1,1500181690.0,105.0,1500181795.0,23.0,128.0,1.2190476190476192,-1,126 54 55 127 121 125 53 124 122 128 56 120 123 117 118 119
1957,1500183880.0,4,200.0,1,1500185083.0,142.0,1500185225.0,1203.0,1345.0,9.471830985915492,-1,124 121 122 123
1795,1500177699.0,4,200.0,1,1500177701.0,141.0,1500177842.0,2.0,143.0,1.0141843971631206,-1,2 4 1 3
1771,1500176866.0,4,200.0,1,1500176867.0,97.0,1500176964.0,1.0,98.0,1.0103092783505154,-1,25 27 28 26
1882,1500181330.0,32,2400.0,1,1500181332.0,1471.0,1500182803.0,2.0,1473.0,1.0013596193065941,-1,73 79 8 84 7 95 82 92 91 76 96 5 94 78 81 83 86 93 75 4 89 2 3 6 88 90 87 74 1 85 80 77
1763,1500176617.0,8,300.0,1,1500176619.0,190.0,1500176809.0,2.0,192.0,1.0105263157894737,-1,14 19 17 15 16 18 20 13
1845,1500179701.0,8,300.0,1,1500179752.0,180.0,1500179932.0,51.0,231.0,1.2833333333333334,-1,12 10 9 8 11 5 6 7
1891,1500181591.0,8,300.0,1,1500181593.0,174.0,1500181767.0,2.0,176.0,1.0114942528735633,-1,64 62 58 57 63 61 60 59
1821,1500178656.0,16,200.0,1,1500178832.0,118.0,1500178950.0,176.0,294.0,2.4915254237288136,-1,16 15 12 56 9 11 52 50 14 10 53 49 13 54 51 55
1804,1500178120.0,32,200.0,1,1500178121.0,140.0,1500178261.0,1.0,141.0,1.0071428571428571,-1,7 55 9 84 50 86 53 56 10 83 78 49 6 51 54 80 5 12 81 15 79 13 88 85 82 52 14 8 11 87 77 16
1812,1500178375.0,4,200.0,1,1500178376.0,93.0,1500178469.0,1.0,94.0,1.010752688172043,-1,5 7 6 8
1797,1500177824.0,16,200.0,1,1500177825.0,108.0,1500177933.0,1.0,109.0,1.0092592592592593,-1,14 53 9 54 15 11 55 52 56 51 16 12 49 13 10 50
1981,1500184881.0,64,200.0,1,1500186617.0,81.0,1500186698.0,1736.0,1817.0,22.432098765432098,-1,110 28 100 117 11 122 12 104 9 114 99 27 2 6 19 23 126 112 105 10 113 98 4 97 115 24 124 123 3 8 108 15 5 101 106 33 107 17 26 127 128 7 119 18 1 116 103 25 13 125 22 21 109 102 34 111 16 120 36 14 118 35 121 20
1786,1500177424.0,8,300.0,1,1500177425.0,186.0,1500177611.0,1.0,187.0,1.0053763440860215,-1,73 75 79 78 76 77 80 74
1813,1500178395.0,64,200.0,1,1500178517.0,81.0,1500178598.0,122.0,203.0,2.506172839506173,-1,31 13 66 86 62 85 70 73 2 49 92 61 29 50 67 69 84 90 89 71 4 14 15 82 95 11 68 72 80 74 91 12 96 63 54 75 64 3 51 1 93 78 77 87 94 79 65 7 9 83 52 10 16 56 32 88 55 6 8 76 30 81 5 53
1829,1500179083.0,4,200.0,1,1500179085.0,94.0,1500179179.0,2.0,96.0,1.0212765957446808,-1,26 27 25 28
1895,1500181687.0,32,200.0,1,1500181942.0,137.0,1500182079.0,255.0,392.0,2.8613138686131387,-1,120 124 62 49 58 57 47 48 53 61 63 122 118 119 55 64 51 60 46 54 123 50 127 45 59 126 128 125 117 121 56 52
1991,1500185408.0,4,200.0,1,1500185910.0,95.0,1500186005.0,502.0,597.0,6.28421052631579,-1,126 127 125 128
1808,1500178142.0,4,200.0,1,1500178203.0,92.0,1500178295.0,61.0,153.0,1.6630434782608696,-1,67 68 65 66
1838,1500179546.0,32,2400.0,1,1500179547.0,1700.0,1500181247.0,1.0,1701.0,1.0005882352941176,-1,82 74 80 73 83 63 31 75 64 79 76 71 69 77 66 85 30 87 78 32 67 81 84 86 65 68 70 88 62 61 29 72
1995,1500185621.0,16,200.0,1,1500186371.0,107.0,1500186478.0,750.0,857.0,8.009345794392523,-1,2 9 12 3 7 4 1 5 6 11 8 13 15 14 16 10
1850,1500179843.0,16,200.0,1,1500179845.0,128.0,1500179973.0,2.0,130.0,1.015625,-1,37 26 25 39 34 13 15 35 16 28 38 33 14 36 27 40
1928,1500182686.0,8,300.0,1,1500184285.0,181.0,1500184466.0,1599.0,1780.0,9.834254143646408,-1,40 35 36 34 39 37 33 38
2000,1500185723.0,32,200.0,1,1500186702.0,141.0,1500186843.0,979.0,1120.0,7.943262411347518,-1,33 34 25 110 27 36 105 103 102 98 107 99 26 101 116 108 112 117 115 113 97 35 120 114 104 106 119 28 100 111 109 118
1959,1500183949.0,8,300.0,1,1500185132.0,179.0,1500185311.0,1183.0,1362.0,7.608938547486034,-1,67 65 66 64 62 63 61 68
1773,1500176912.0,4,200.0,1,1500176913.0,94.0,1500177007.0,1.0,95.0,1.0106382978723405,-1,2 4 1 3
1842,1500179652.0,16,200.0,1,1500179654.0,116.0,1500179770.0,2.0,118.0,1.0172413793103448,-1,37 43 39 40 34 45 35 44 48 46 42 38 33 36 47 41
1756,1500176328.0,4,200.0,1,1500176399.0,97.0,1500176496.0,71.0,168.0,1.731958762886598,-1,51 52 50 49
1770,1500176866.0,8,300.0,1,1500176867.0,191.0,1500177058.0,1.0,192.0,1.0052356020942408,-1,18 21 19 20 17 24 22 23
1979,1500184837.0,4,200.0,1,1500185608.0,139.0,1500185747.0,771.0,910.0,6.546762589928058,-1,124 123 122 121
1996,1500185622.0,8,300.0,1,1500186702.0,177.0,1500186879.0,1080.0,1257.0,7.101694915254237,-1,2 1 6 3 4 8 5 7
1843,1500179658.0,16,200.0,1,1500179659.0,122.0,1500179781.0,1.0,123.0,1.0081967213114753,-1,89 58 51 92 52 56 55 53 49 59 91 90 57 54 50 60
1900,1500181789.0,8,300.0,1,1500182084.0,181.0,1500182265.0,295.0,476.0,2.6298342541436464,-1,123 124 118 119 120 117 122 121
1869,1500180652.0,8,300.0,1,1500180654.0,177.0,1500180831.0,2.0,179.0,1.0112994350282485,-1,6 8 7 25 5 27 26 28
1883,1500181342.0,32,200.0,1,1500181343.0,140.0,1500181483.0,1.0,141.0,1.0071428571428571,-1,125 128 116 108 126 121 107 104 103 110 98 105 100 124 117 127 106 101 97 114 109 115 120 102 119 111 123 113 122 99 118 112
1947,1500183491.0,8,300.0,1,1500184892.0,184.0,1500185076.0,1401.0,1585.0,8.61413043478261,-1,109 112 105 111 110 107 106 108
1901,1500181794.0,8,300.0,1,1500182184.0,175.0,1500182359.0,390.0,565.0,3.2285714285714286,-1,46 127 47 128 125 45 48 126
1822,1500178668.0,4,200.0,1,1500178832.0,142.0,1500178974.0,164.0,306.0,2.1549295774647885,-1,63 64 61 62
1849,1500179836.0,4,200.0,1,1500179837.0,139.0,1500179976.0,1.0,140.0,1.0071942446043165,-1,4 2 3 1
1816,1500178512.0,8,300.0,1,1500178781.0,176.0,1500178957.0,269.0,445.0,2.528409090909091,-1,18 22 24 23 19 21 17 20
1888,1500181514.0,4,200.0,1,1500181516.0,142.0,1500181658.0,2.0,144.0,1.0140845070422535,-1,128 126 127 125
1827,1500178891.0,8,300.0,1,1500178955.0,178.0,1500179133.0,64.0,242.0,1.3595505617977528,-1,53 51 56 54 50 52 49 55
1823,1500178673.0,32,200.0,1,1500178832.0,140.0,1500178972.0,159.0,299.0,2.1357142857142857,-1,71 30 90 81 69 31 91 78 67 84 74 89 73 66 85 77 92 80 83 32 65 76 29 88 79 86 72 82 75 68 70 87
1851,1500179849.0,4,200.0,1,1500179850.0,140.0,1500179990.0,1.0,141.0,1.0071428571428571,-1,42 44 43 41
1896,1500181689.0,4,200.0,1,1500182084.0,95.0,1500182179.0,395.0,490.0,5.157894736842105,-1,47 45 48 46
1800,1500177968.0,16,200.0,1,1500177970.0,133.0,1500178103.0,2.0,135.0,1.0150375939849625,-1,15 16 54 12 11 49 14 52 9 53 10 13 51 56 55 50
1916,1500182139.0,8,300.0,1,1500184259.0,178.0,1500184437.0,2120.0,2298.0,12.910112359550562,-1,7 8 6 3 1 2 4 5
1809,1500178228.0,8,300.0,1,1500178258.0,189.0,1500178447.0,30.0,219.0,1.1587301587301588,-1,76 70 73 72 75 74 69 71
1778,1500177064.0,32,2400.0,1,1500177065.0,1710.0,1500178775.0,1.0,1711.0,1.0005847953216374,-1,17 40 41 25 60 38 35 18 28 45 23 36 46 39 59 47 33 24 34 48 58 43 44 26 42 37 57 22 19 20 27 21
1926,1500182659.0,8,300.0,1,1500184285.0,184.0,1500184469.0,1626.0,1810.0,9.83695652173913,-1,17 21 18 20 23 19 24 22
1752,1500176089.0,16,200.0,1,1500176399.0,107.0,1500176506.0,310.0,417.0,3.897196261682243,-1,5 14 2 4 1 3 11 15 7 12 6 13 16 8 9 10
1784,1500177359.0,8,300.0,1,1500177360.0,183.0,1500177543.0,1.0,184.0,1.005464480874317,-1,66 32 67 29 31 30 68 65
1789,1500177497.0,8,300.0,1,1500177499.0,189.0,1500177688.0,2.0,191.0,1.0105820105820107,-1,113 114 116 50 52 49 115 51
1919,1500182286.0,4,200.0,1,1500182542.0,139.0,1500182681.0,256.0,395.0,2.841726618705036,-1,125 126 127 128
1801,1500178003.0,8,300.0,1,1500178005.0,180.0,1500178185.0,2.0,182.0,1.011111111111111,-1,64 4 63 3 62 61 1 2
1968,1500184420.0,16,200.0,1,1500185311.0,106.0,1500185417.0,891.0,997.0,9.40566037735849,-1,57 95 53 59 103 54 93 101 55 56 96 58 102 60 94 104
1803,1500178075.0,8,300.0,1,1500178077.0,176.0,1500178253.0,2.0,178.0,1.0113636363636365,-1,74 73 76 75 69 70 71 72
1833,1500179411.0,4,200.0,1,1500179412.0,140.0,1500179552.0,1.0,141.0,1.0071428571428571,-1,19 20 18 17
1994,1500185530.0,4,200.0,1,1500186341.0,141.0,1500186482.0,811.0,952.0,6.75177304964539,-1,124 122 121 123
1915,1500182115.0,8,300.0,1,1500182565.0,178.0,1500182743.0,450.0,628.0,3.5280898876404496,-1,57 63 61 62 59 60 64 58
1815,1500178457.0,64,200.0,1,1500178747.0,81.0,1500178828.0,290.0,371.0,4.580246913580247,-1,67 14 69 66 95 30 78 79 85 12 74 71 4 55 88 83 65 3 7 80 29 10 87 51 49 70 72 77 75 96 94 86 93 61 15 6 31 53 8 50 5 63 2 1 56 68 9 92 84 11 73 81 52 54 89 91 32 13 62 16 82 64 76 90
1830,1500179147.0,4,200.0,1,1500179149.0,139.0,1500179288.0,2.0,141.0,1.014388489208633,-1,3 1 2 4
1814,1500178437.0,4,200.0,1,1500178602.0,141.0,1500178743.0,165.0,306.0,2.1702127659574466,-1,2 4 1 3
1985,1500185053.0,4,200.0,1,1500185910.0,92.0,1500186002.0,857.0,949.0,10.315217391304348,-1,106 105 108 107
1881,1500181248.0,16,200.0,1,1500181253.0,111.0,1500181364.0,5.0,116.0,1.045045045045045,-1,32 63 65 67 71 69 72 29 30 70 68 31 66 61 64 62
1878,1500181120.0,4,200.0,1,1500181122.0,141.0,1500181263.0,2.0,143.0,1.0141843971631206,-1,91 89 92 90
1917,1500182256.0,8,300.0,1,1500184259.0,177.0,1500184436.0,2003.0,2180.0,12.31638418079096,-1,78 76 77 74 75 79 80 73
1927,1500182681.0,4,200.0,1,1500184285.0,143.0,1500184428.0,1604.0,1747.0,12.216783216783217,-1,27 26 25 28
1937,1500183122.0,16,200.0,1,1500184892.0,127.0,1500185019.0,1770.0,1897.0,14.937007874015748,-1,59 67 60 64 65 61 63 58 68 57 62 56 55 53 66 54
1935,1500183060.0,8,300.0,1,1500184892.0,183.0,1500185075.0,1832.0,2015.0,11.010928961748634,-1,44 38 39 37 41 43 40 42
1984,1500185050.0,16,200.0,1,1500185812.0,104.0,1500185916.0,762.0,866.0,8.326923076923077,-1,120 104 102 103 118 113 115 119 117 99 101 116 114 98 97 100
1783,1500177338.0,8,300.0,1,1500177339.0,187.0,1500177526.0,1.0,188.0,1.0053475935828877,-1,53 64 61 54 62 56 63 55
1828,1500179010.0,16,200.0,1,1500179012.0,105.0,1500179117.0,2.0,107.0,1.019047619047619,-1,6 20 17 5 4 21 8 24 19 22 23 1 2 3 7 18
1954,1500183715.0,4,200.0,1,1500185080.0,141.0,1500185221.0,1365.0,1506.0,10.680851063829786,-1,88 86 87 85
1931,1500182825.0,32,2400.0,1,1500184892.0,1475.0,1500186367.0,2067.0,3542.0,2.4013559322033897,-1,27 8 18 20 1 33 36 7 19 4 17 21 28 35 34 2 14 9 26 25 15 10 16 6 13 23 5 3 22 12 24 11
1965,1500184242.0,4,200.0,1,1500185198.0,140.0,1500185338.0,956.0,1096.0,7.828571428571428,-1,126 127 128 125
1868,1500180622.0,4,200.0,1,1500180624.0,140.0,1500180764.0,2.0,142.0,1.0142857142857142,-1,58 60 57 59
1791,1500177588.0,4,200.0,1,1500177590.0,94.0,1500177684.0,2.0,96.0,1.0212765957446808,-1,53 56 55 54
1966,1500184401.0,8,300.0,1,1500185228.0,175.0,1500185403.0,827.0,1002.0,5.725714285714286,-1,112 114 115 111 109 113 116 110
1846,1500179705.0,4,200.0,1,1500179752.0,140.0,1500179892.0,47.0,187.0,1.3357142857142856,-1,19 18 20 17
1992,1500185410.0,4,200.0,1,1500185920.0,94.0,1500186014.0,510.0,604.0,6.425531914893617,-1,120 119 118 117
1977,1500184785.0,8,300.0,1,1500185620.0,175.0,1500185795.0,835.0,1010.0,5.771428571428571,-1,106 111 109 110 105 112 107 108
1848,1500179723.0,4,200.0,1,1500179767.0,141.0,1500179908.0,44.0,185.0,1.3120567375886525,-1,99 98 97 100
1751,1500175970.0,128,600.0,1,1500175971.0,423.0,1500176394.0,1.0,424.0,1.0023640661938533,-1,11 92 79 71 65 7 56 115 19 88 121 109 5 10 32 111 15 60 27 91 105 33 67 12 9 17 125 95 100 128 16 113 101 45 3 120 74 1 98 52 68 53 119 35 22 83 90 78 48 106 82 20 58 54 114 110 124 116 66 86 31 42 102 25 24 46 26 99 97 127 38 77 29 49 107 2 103 70 73 112 43 61 84 14 62 118 34 6 94 30 4 44 50 89 40 39 37 28 75 47 57 80 59 117 126 64 13 81 87 76 21 23 63 69 85 36 72 123 51 18 55 108 122 41 96 104 8 93
1990,1500185404.0,8,300.0,1,1500186341.0,185.0,1500186526.0,937.0,1122.0,6.064864864864865,-1,100 102 103 99 98 104 101 97
1832,1500179393.0,8,300.0,1,1500179395.0,182.0,1500179577.0,2.0,184.0,1.010989010989011,-1,16 15 2 13 3 1 4 14
1955,1500183781.0,4,200.0,1,1500185080.0,143.0,1500185223.0,1299.0,1442.0,10.083916083916083,-1,89 90 91 92
1772,1500176872.0,16,200.0,1,1500176874.0,144.0,1500177018.0,2.0,146.0,1.0138888888888888,-1,47 36 45 40 46 38 44 41 34 42 37 43 33 35 39 48
1765,1500176647.0,8,300.0,1,1500176648.0,204.0,1500176852.0,1.0,205.0,1.0049019607843137,-1,45 47 48 43 42 41 44 46
1885,1500181406.0,16,200.0,1,1500181407.0,119.0,1500181526.0,1.0,120.0,1.0084033613445378,-1,57 61 64 56 63 54 52 49 60 62 50 59 53 58 55 51
1759,1500176460.0,16,200.0,1,1500176500.0,127.0,1500176627.0,40.0,167.0,1.31496062992126,-1,72 68 63 61 30 66 71 67 64 65 62 29 70 32 69 31
1870,1500180701.0,8,300.0,1,1500180702.0,188.0,1500180890.0,1.0,189.0,1.0053191489361701,-1,11 2 1 10 12 3 4 9
1933,1500182918.0,8,300.0,1,1500184287.0,180.0,1500184467.0,1369.0,1549.0,8.605555555555556,-1,61 118 62 119 120 63 117 64
1818,1500178537.0,8,300.0,1,1500178781.0,177.0,1500178958.0,244.0,421.0,2.378531073446328,-1,44 39 42 41 43 38 37 40
1839,1500179600.0,8,300.0,1,1500179602.0,171.0,1500179773.0,2.0,173.0,1.0116959064327486,-1,13 4 15 1 16 14 3 2
1976,1500184783.0,4,200.0,1,1500185508.0,95.0,1500185603.0,725.0,820.0,8.631578947368421,-1,122 124 123 121
1866,1500180593.0,16,200.0,1,1500180594.0,107.0,1500180701.0,1.0,108.0,1.0093457943925233,-1,18 22 20 44 41 42 17 46 45 19 43 24 23 21 48 47
1910,1500182037.0,8,300.0,1,1500182448.0,172.0,1500182620.0,411.0,583.0,3.38953488372093,-1,120 124 119 122 118 123 121 117
1834,1500179434.0,4,200.0,1,1500179436.0,140.0,1500179576.0,2.0,142.0,1.0142857142857142,-1,23 24 22 21
1805,1500178124.0,8,300.0,1,1500178126.0,181.0,1500178307.0,2.0,183.0,1.011049723756906,-1,93 92 96 95 90 91 89 94
1962,1500184069.0,16,200.0,1,1500185228.0,127.0,1500185355.0,1159.0,1286.0,10.125984251968504,-1,30 70 69 32 42 71 29 31 38 44 41 37 72 40 43 39
1889,1500181584.0,8,300.0,1,1500181585.0,172.0,1500181757.0,1.0,173.0,1.005813953488372,-1,48 52 45 49 51 47 46 50
1853,1500179922.0,16,200.0,1,1500179924.0,117.0,1500180041.0,2.0,119.0,1.017094017094017,-1,23 24 54 17 55 60 59 58 22 53 21 20 57 19 56 18
1924,1500182552.0,4,200.0,1,1500182572.0,147.0,1500182719.0,20.0,167.0,1.1360544217687074,-1,37 39 38 40
1831,1500179267.0,8,300.0,1,1500179268.0,184.0,1500179452.0,1.0,185.0,1.0054347826086956,-1,7 10 9 12 8 5 6 11
1943,1500183348.0,8,300.0,1,1500184892.0,183.0,1500185075.0,1544.0,1727.0,9.437158469945356,-1,90 87 85 89 92 86 91 88
1862,1500180471.0,8,300.0,1,1500180472.0,173.0,1500180645.0,1.0,174.0,1.0057803468208093,-1,39 35 40 37 36 34 33 38
1864,1500180492.0,4,200.0,1,1500180493.0,93.0,1500180586.0,1.0,94.0,1.010752688172043,-1,43 42 44 41
1942,1500183287.0,4,200.0,1,1500184892.0,150.0,1500185042.0,1605.0,1755.0,11.7,-1,83 81 82 84
1958,1500183902.0,8,300.0,1,1500185132.0,175.0,1500185307.0,1230.0,1405.0,8.028571428571428,-1,59 54 58 60 57 55 53 56
1884,1500181398.0,4,200.0,1,1500181400.0,139.0,1500181539.0,2.0,141.0,1.014388489208633,-1,48 45 46 47
1825,1500178855.0,4,200.0,1,1500178955.0,140.0,1500179095.0,100.0,240.0,1.7142857142857142,-1,12 10 9 11
1940,1500183235.0,4,200.0,1,1500184892.0,149.0,1500185041.0,1657.0,1806.0,12.120805369127517,-1,75 76 73 74
1934,1500183016.0,8,300.0,1,1500184287.0,180.0,1500184467.0,1271.0,1451.0,8.061111111111112,-1,123 127 122 128 121 125 124 126
1757,1500176392.0,8,300.0,1,1500176399.0,179.0,1500176578.0,7.0,186.0,1.0391061452513966,-1,53 60 54 57 56 59 55 58
1802,1500178011.0,8,300.0,1,1500178013.0,186.0,1500178199.0,2.0,188.0,1.010752688172043,-1,29 66 32 30 31 67 68 65
1971,1500184666.0,64,200.0,1,1500185421.0,83.0,1500185504.0,755.0,838.0,10.096385542168674,-1,58 111 117 110 86 57 85 123 90 112 101 115 127 56 116 121 52 113 100 118 114 106 105 94 98 55 89 95 54 97 46 96 53 120 107 48 59 87 124 109 103 93 119 125 122 51 92 49 104 84 108 81 126 47 102 88 91 128 83 82 45 99 50 60
1960,1500184026.0,8,300.0,1,1500185198.0,175.0,1500185373.0,1172.0,1347.0,7.6971428571428575,-1,52 51 48 50 47 49 46 45
1909,1500182015.0,16,200.0,1,1500182442.0,119.0,1500182561.0,427.0,546.0,4.588235294117647,-1,49 56 57 51 50 55 59 62 61 54 64 60 52 63 58 53
1810,1500178240.0,4,200.0,1,1500178242.0,140.0,1500178382.0,2.0,142.0,1.0142857142857142,-1,31 29 30 32
1860,1500180396.0,8,300.0,1,1500180397.0,180.0,1500180577.0,1.0,181.0,1.0055555555555555,-1,23 20 17 18 22 21 24 19
1922,1500182369.0,4,200.0,1,1500182572.0,142.0,1500182714.0,203.0,345.0,2.4295774647887325,-1,34 35 33 36
1826,1500178888.0,4,200.0,1,1500178955.0,140.0,1500179095.0,67.0,207.0,1.4785714285714286,-1,14 13 15 16
1775,1500176915.0,4,200.0,1,1500176917.0,95.0,1500177012.0,2.0,97.0,1.0210526315789474,-1,57 60 58 59
1799,1500177961.0,4,200.0,1,1500177963.0,140.0,1500178103.0,2.0,142.0,1.0142857142857142,-1,5 6 7 8
1782,1500177325.0,4,200.0,1,1500177326.0,140.0,1500177466.0,1.0,141.0,1.0071428571428571,-1,49 52 50 51
1867,1500180602.0,8,300.0,1,1500180603.0,184.0,1500180787.0,1.0,185.0,1.0054347826086956,-1,50 53 55 49 54 56 52 51
1908,1500181986.0,32,2400.0,1,1500182834.0,1446.0,1500184280.0,848.0,2294.0,1.586445366528354,-1,44 12 18 26 25 14 37 15 21 34 13 43 28 20 35 11 24 10 9 19 17 33 42 22 23 16 39 27 41 38 40 36
1956,1500183783.0,16,200.0,1,1500185088.0,105.0,1500185193.0,1305.0,1410.0,13.428571428571429,-1,30 71 45 70 69 32 50 31 72 49 52 51 46 48 29 47
1989,1500185324.0,32,200.0,1,1500186198.0,138.0,1500186336.0,874.0,1012.0,7.333333333333333,-1,108 121 114 110 126 117 122 97 104 112 125 123 103 118 105 113 106 115 116 124 100 128 102 119 99 111 107 120 101 109 127 98
1879,1500181133.0,32,200.0,1,1500181135.0,152.0,1500181287.0,2.0,154.0,1.013157894736842,-1,99 117 107 95 121 116 104 108 102 98 94 96 93 103 122 100 120 124 106 112 123 118 114 101 105 110 115 113 111 97 119 109
1892,1500181627.0,32,200.0,1,1500181799.0,138.0,1500181937.0,172.0,310.0,2.246376811594203,-1,46 124 54 60 45 119 58 57 47 120 59 52 64 127 117 61 48 126 51 122 123 128 62 63 55 50 49 53 125 118 121 56
1769,1500176865.0,8,300.0,1,1500176866.0,209.0,1500177075.0,1.0,210.0,1.0047846889952152,-1,16 15 11 10 9 12 13 14
1912,1500182040.0,32,2400.0,1,1500182834.0,1448.0,1500184282.0,794.0,2242.0,1.548342541436464,-1,118 120 55 123 50 119 63 125 117 128 61 56 57 48 45 124 127 59 53 51 121 62 46 58 49 47 52 64 54 60 126 122
1780,1500177113.0,8,300.0,1,1500177114.0,189.0,1500177303.0,1.0,190.0,1.0052910052910053,-1,51 16 15 52 49 13 14 50
1902,1500181828.0,8,300.0,1,1500182232.0,173.0,1500182405.0,404.0,577.0,3.3352601156069364,-1,61 58 57 63 59 62 64 60
1762,1500176550.0,4,200.0,1,1500176551.0,142.0,1500176693.0,1.0,143.0,1.0070422535211268,-1,9 12 10 11
1952,1500183612.0,8,300.0,1,1500185048.0,174.0,1500185222.0,1436.0,1610.0,9.25287356321839,-1,82 97 100 99 81 83 98 84
1949,1500183585.0,8,300.0,1,1500184892.0,186.0,1500185078.0,1307.0,1493.0,8.026881720430108,-1,123 124 121 122 128 126 127 125
1840,1500179641.0,16,200.0,1,1500179642.0,105.0,1500179747.0,1.0,106.0,1.0095238095238095,-1,23 17 20 18 5 10 11 21 19 24 8 6 12 22 7 9
1837,1500179480.0,4,200.0,1,1500179481.0,140.0,1500179621.0,1.0,141.0,1.0071428571428571,-1,11 9 10 12
1964,1500184163.0,8,300.0,1,1500185228.0,178.0,1500185406.0,1065.0,1243.0,6.98314606741573,-1,98 108 107 99 106 105 100 97
