jobID,submission_time,requested_number_of_processors,requested_time,success,starting_time,execution_time,finish_time,waiting_time,turnaround_time,stretch,consumed_energy,allocated_processors
475,1500102485.0,4,200.0,1,1500102487.0,140.0,1500102627.0,2.0,142.0,1.0142857142857142,-1,68 66 65 67
347,1500097027.0,8,300.0,1,1500097029.0,184.0,1500097213.0,2.0,186.0,1.0108695652173914,-1,66 62 61 68 65 64 63 67
390,1500098782.0,4,200.0,1,1500099325.0,141.0,1500099466.0,543.0,684.0,4.851063829787234,-1,96 93 95 94
332,1500096148.0,16,200.0,1,1500096347.0,105.0,1500096452.0,199.0,304.0,2.895238095238095,-1,77 3 5 7 4 1 25 78 6 79 27 2 26 28 8 80
350,1500097248.0,16,200.0,1,1500097249.0,124.0,1500097373.0,1.0,125.0,1.0080645161290323,-1,6 20 7 8 16 11 5 15 17 19 13 18 10 14 12 9
451,1500101575.0,16,200.0,1,1500101576.0,140.0,1500101716.0,1.0,141.0,1.0071428571428571,-1,13 2 11 10 7 16 5 1 4 6 3 15 9 8 14 12
488,1500103053.0,4,200.0,1,1500103330.0,93.0,1500103423.0,277.0,370.0,3.978494623655914,-1,39 40 37 38
331,1500096148.0,16,200.0,1,1500096276.0,105.0,1500096381.0,128.0,233.0,2.219047619047619,-1,119 120 117 110 113 105 109 118 111 116 114 112 108 107 115 106
403,1500099540.0,4,200.0,1,1500099541.0,140.0,1500099681.0,1.0,141.0,1.0071428571428571,-1,60 59 57 58
439,1500101012.0,16,200.0,1,1500101014.0,121.0,1500101135.0,2.0,123.0,1.0165289256198347,-1,15 4 9 10 16 14 3 7 11 8 2 12 6 1 13 5
301,1500095169.0,8,300.0,1,1500095417.0,185.0,1500095602.0,248.0,433.0,2.3405405405405406,-1,6 1 5 4 8 7 3 2
440,1500101122.0,8,300.0,1,1500101123.0,210.0,1500101333.0,1.0,211.0,1.0047619047619047,-1,19 20 24 17 18 23 21 22
426,1500100549.0,8,300.0,1,1500100550.0,193.0,1500100743.0,1.0,194.0,1.005181347150259,-1,62 67 68 66 63 65 64 61
297,1500095015.0,8,300.0,1,1500095302.0,183.0,1500095485.0,287.0,470.0,2.568306010928962,-1,97 96 99 93 94 95 98 100
376,1500098395.0,4,200.0,1,1500099075.0,147.0,1500099222.0,680.0,827.0,5.625850340136054,-1,99 98 100 97
496,1500103309.0,16,200.0,1,1500103862.0,118.0,1500103980.0,553.0,671.0,5.686440677966102,-1,45 20 14 47 44 43 13 46 41 18 17 15 48 42 16 19
395,1500099127.0,8,300.0,1,1500099405.0,178.0,1500099583.0,278.0,456.0,2.561797752808989,-1,31 32 65 68 29 30 66 67
406,1500099589.0,4,200.0,1,1500099591.0,139.0,1500099730.0,2.0,141.0,1.014388489208633,-1,47 46 48 45
441,1500101130.0,4,200.0,1,1500101131.0,97.0,1500101228.0,1.0,98.0,1.0103092783505154,-1,25 26 28 27
352,1500097269.0,4,200.0,1,1500097271.0,144.0,1500097415.0,2.0,146.0,1.0138888888888888,-1,42 44 43 41
413,1500099857.0,16,200.0,1,1500099858.0,145.0,1500100003.0,1.0,146.0,1.006896551724138,-1,121 76 119 113 116 117 123 124 120 73 75 122 115 74 118 114
287,1500094607.0,4,200.0,1,1500094609.0,141.0,1500094750.0,2.0,143.0,1.0141843971631206,-1,3 1 2 4
254,1500093359.0,4,200.0,1,1500093360.0,147.0,1500093507.0,1.0,148.0,1.0068027210884354,-1,24 21 23 22
377,1500098401.0,8,300.0,1,1500099075.0,184.0,1500099259.0,674.0,858.0,4.663043478260869,-1,104 106 107 108 101 103 102 105
500,1500103334.0,128,600.0,1,1500105094.0,409.0,1500105503.0,1760.0,2169.0,5.30317848410758,-1,110 3 44 92 53 74 126 112 12 108 83 15 11 60 77 99 62 118 88 16 13 8 40 26 111 10 94 124 89 81 33 29 100 23 20 76 79 9 42 45 47 98 55 51 85 14 1 64 4 120 35 46 105 43 109 123 75 72 17 71 84 102 82 28 2 127 115 25 7 97 116 56 101 117 27 107 106 66 36 24 70 113 58 65 122 6 21 67 30 50 63 49 34 48 103 78 87 5 119 128 90 37 114 61 41 31 96 91 73 19 39 121 68 38 125 32 86 52 18 59 80 93 22 57 104 95 54 69
274,1500094097.0,8,300.0,1,1500094098.0,217.0,1500094315.0,1.0,218.0,1.0046082949308757,-1,27 26 34 35 33 28 36 25
265,1500093616.0,4,200.0,1,1500093618.0,101.0,1500093719.0,2.0,103.0,1.0198019801980198,-1,2 3 4 1
472,1500102344.0,4,200.0,1,1500102345.0,141.0,1500102486.0,1.0,142.0,1.0070921985815602,-1,97 100 99 98
266,1500093630.0,4,200.0,1,1500093631.0,142.0,1500093773.0,1.0,143.0,1.0070422535211268,-1,37 40 39 38
333,1500096373.0,32,2400.0,1,1500096375.0,1609.0,1500097984.0,2.0,1611.0,1.0012430080795525,-1,102 84 126 127 83 92 96 81 89 82 99 87 86 88 125 95 121 128 93 94 97 85 91 100 123 122 98 101 103 124 90 104
415,1500099952.0,16,200.0,1,1500099953.0,157.0,1500100110.0,1.0,158.0,1.0063694267515924,-1,57 59 55 58 46 45 54 50 52 56 49 48 53 47 60 51
461,1500101925.0,4,200.0,1,1500101926.0,141.0,1500102067.0,1.0,142.0,1.0070921985815602,-1,105 107 108 106
474,1500102456.0,4,200.0,1,1500102457.0,140.0,1500102597.0,1.0,141.0,1.0071428571428571,-1,12 10 11 9
304,1500095288.0,16,200.0,1,1500095433.0,127.0,1500095560.0,145.0,272.0,2.141732283464567,-1,74 34 75 76 79 35 80 81 82 73 36 84 83 33 77 78
455,1500101716.0,8,300.0,1,1500101718.0,191.0,1500101909.0,2.0,193.0,1.0104712041884816,-1,93 94 99 95 97 100 96 98
416,1500099960.0,8,300.0,1,1500099962.0,209.0,1500100171.0,2.0,211.0,1.0095693779904307,-1,68 66 64 67 61 62 65 63
478,1500102627.0,8,300.0,1,1500102629.0,179.0,1500102808.0,2.0,181.0,1.011173184357542,-1,94 93 11 95 10 9 96 12
456,1500101756.0,8,300.0,1,1500101757.0,188.0,1500101945.0,1.0,189.0,1.0053191489361701,-1,1 4 2 7 8 6 5 3
349,1500097128.0,4,200.0,1,1500097129.0,139.0,1500097268.0,1.0,140.0,1.0071942446043165,-1,1 2 3 4
428,1500100611.0,8,300.0,1,1500100613.0,186.0,1500100799.0,2.0,188.0,1.010752688172043,-1,52 29 51 50 32 30 49 31
399,1500099336.0,4,200.0,1,1500099408.0,142.0,1500099550.0,72.0,214.0,1.5070422535211268,-1,103 101 104 102
322,1500095964.0,8,300.0,1,1500096021.0,180.0,1500096201.0,57.0,237.0,1.3166666666666667,-1,6 3 4 5 2 8 7 1
364,1500097812.0,4,200.0,1,1500097813.0,145.0,1500097958.0,1.0,146.0,1.006896551724138,-1,2 3 1 4
476,1500102530.0,4,200.0,1,1500102532.0,140.0,1500102672.0,2.0,142.0,1.0142857142857142,-1,32 29 30 31
442,1500101161.0,16,200.0,1,1500101162.0,150.0,1500101312.0,1.0,151.0,1.0066666666666666,-1,15 9 1 7 8 10 5 13 11 16 14 4 3 2 6 12
345,1500096928.0,8,300.0,1,1500096975.0,184.0,1500097159.0,47.0,231.0,1.2554347826086956,-1,59 55 54 56 60 58 57 53
438,1500100951.0,4,200.0,1,1500100952.0,140.0,1500101092.0,1.0,141.0,1.0071428571428571,-1,24 22 21 23
486,1500102935.0,16,200.0,1,1500103205.0,121.0,1500103326.0,270.0,391.0,3.231404958677686,-1,51 50 56 55 59 52 58 38 54 53 57 40 60 37 39 49
494,1500103253.0,32,200.0,1,1500103632.0,139.0,1500103771.0,379.0,518.0,3.726618705035971,-1,43 48 74 92 72 78 44 86 70 79 76 80 71 87 75 81 83 82 47 89 84 88 41 91 45 73 46 42 85 69 77 90
310,1500095529.0,4,200.0,1,1500095565.0,142.0,1500095707.0,36.0,178.0,1.2535211267605635,-1,117 118 119 120
493,1500103211.0,8,300.0,1,1500103582.0,178.0,1500103760.0,371.0,549.0,3.0842696629213484,-1,118 119 117 116 120 115 114 113
320,1500095872.0,4,200.0,1,1500095876.0,143.0,1500096019.0,4.0,147.0,1.027972027972028,-1,116 113 115 114
424,1500100466.0,32,2400.0,1,1500100467.0,1659.0,1500102126.0,1.0,1660.0,1.0006027727546716,-1,43 91 42 85 84 77 87 46 69 83 44 89 86 75 48 73 82 72 76 92 90 79 71 88 80 47 81 70 45 41 74 78
369,1500098073.0,4,200.0,1,1500098074.0,152.0,1500098226.0,1.0,153.0,1.006578947368421,-1,83 84 82 81
468,1500102126.0,32,2400.0,1,1500102132.0,1495.0,1500103627.0,6.0,1501.0,1.0040133779264213,-1,81 71 75 79 45 80 76 89 73 91 47 44 72 78 69 90 92 83 41 85 46 43 82 86 48 77 70 74 88 84 87 42
459,1500101889.0,8,300.0,1,1500101891.0,190.0,1500102081.0,2.0,192.0,1.0105263157894737,-1,66 32 67 31 30 29 68 65
292,1500094867.0,16,200.0,1,1500095302.0,123.0,1500095425.0,435.0,558.0,4.536585365853658,-1,18 19 35 34 27 24 33 28 26 36 23 25 17 20 21 22
498,1500103330.0,4,200.0,1,1500103862.0,94.0,1500103956.0,532.0,626.0,6.659574468085107,-1,69 70 71 72
448,1500101348.0,8,300.0,1,1500101349.0,194.0,1500101543.0,1.0,195.0,1.0051546391752577,-1,11 9 10 12 15 14 13 16
330,1500096147.0,16,200.0,1,1500096244.0,117.0,1500096361.0,97.0,214.0,1.829059829059829,-1,104 91 95 94 102 92 96 93 90 103 100 89 97 99 98 101
277,1500094202.0,4,200.0,1,1500094203.0,145.0,1500094348.0,1.0,146.0,1.006896551724138,-1,52 50 51 49
317,1500095771.0,8,300.0,1,1500095833.0,178.0,1500096011.0,62.0,240.0,1.348314606741573,-1,124 126 125 128 121 123 122 127
384,1500098658.0,8,300.0,1,1500099204.0,181.0,1500099385.0,546.0,727.0,4.016574585635359,-1,124 121 118 119 117 122 123 120
361,1500097562.0,4,200.0,1,1500097563.0,140.0,1500097703.0,1.0,141.0,1.0071428571428571,-1,22 21 24 23
253,1500093344.0,8,300.0,1,1500093346.0,202.0,1500093548.0,2.0,204.0,1.00990099009901,-1,18 13 16 19 20 14 15 17
343,1500096751.0,16,200.0,1,1500096975.0,121.0,1500097096.0,224.0,345.0,2.8512396694214877,-1,48 6 3 27 46 2 26 8 25 7 4 1 28 45 5 47
385,1500098667.0,8,300.0,1,1500099224.0,176.0,1500099400.0,557.0,733.0,4.1647727272727275,-1,32 31 67 65 66 30 68 29
462,1500101948.0,4,200.0,1,1500101949.0,142.0,1500102091.0,1.0,143.0,1.0070422535211268,-1,112 109 111 110
289,1500094699.0,64,200.0,1,1500094701.0,132.0,1500094833.0,2.0,134.0,1.0151515151515151,-1,72 56 52 46 45 60 48 13 66 69 22 34 39 27 75 54 47 40 33 30 71 65 35 76 67 31 43 21 16 57 17 19 62 41 49 28 74 55 53 23 37 26 38 29 70 64 14 36 44 15 25 68 32 58 42 50 59 20 51 61 18 24 63 73
443,1500101189.0,4,200.0,1,1500101191.0,150.0,1500101341.0,2.0,152.0,1.0133333333333334,-1,33 35 36 34
387,1500098725.0,4,200.0,1,1500099224.0,143.0,1500099367.0,499.0,642.0,4.489510489510489,-1,79 78 80 77
388,1500098731.0,8,300.0,1,1500099224.0,180.0,1500099404.0,493.0,673.0,3.738888888888889,-1,85 84 86 81 87 82 88 83
454,1500101671.0,8,300.0,1,1500101673.0,201.0,1500101874.0,2.0,203.0,1.0099502487562189,-1,66 31 65 29 68 67 32 30
473,1500102377.0,8,300.0,1,1500102409.0,186.0,1500102595.0,32.0,218.0,1.1720430107526882,-1,4 3 7 2 6 1 5 8
293,1500094894.0,8,300.0,1,1500095302.0,187.0,1500095489.0,408.0,595.0,3.1818181818181817,-1,43 39 41 40 37 44 42 38
284,1500094430.0,16,200.0,1,1500094431.0,115.0,1500094546.0,1.0,116.0,1.008695652173913,-1,24 1 28 17 26 22 20 3 4 25 19 18 27 2 21 23
273,1500094092.0,8,300.0,1,1500094093.0,212.0,1500094305.0,1.0,213.0,1.0047169811320755,-1,20 23 19 21 18 17 22 24
270,1500093803.0,16,200.0,1,1500093805.0,153.0,1500093958.0,2.0,155.0,1.0130718954248366,-1,43 41 51 45 46 52 55 54 47 44 49 53 42 48 50 56
260,1500093472.0,4,200.0,1,1500093473.0,146.0,1500093619.0,1.0,147.0,1.0068493150684932,-1,62 64 61 63
296,1500094986.0,4,200.0,1,1500095302.0,146.0,1500095448.0,316.0,462.0,3.164383561643836,-1,89 92 90 91
327,1500096091.0,8,300.0,1,1500096093.0,176.0,1500096269.0,2.0,178.0,1.0113636363636365,-1,112 107 111 106 109 110 108 105
371,1500098112.0,16,200.0,1,1500099075.0,123.0,1500099198.0,963.0,1086.0,8.829268292682928,-1,43 51 39 41 37 50 40 48 45 52 46 38 44 42 49 47
401,1500099358.0,8,300.0,1,1500099410.0,181.0,1500099591.0,52.0,233.0,1.287292817679558,-1,82 87 88 84 86 81 85 83
309,1500095514.0,32,2400.0,1,1500095656.0,1545.0,1500097201.0,142.0,1687.0,1.0919093851132686,-1,16 41 74 23 13 21 39 33 44 38 35 19 40 43 36 75 15 34 14 10 20 76 9 12 73 37 17 22 42 24 18 11
445,1500101203.0,8,300.0,1,1500101204.0,205.0,1500101409.0,1.0,206.0,1.0048780487804878,-1,63 62 64 61 65 66 67 68
311,1500095586.0,8,300.0,1,1500095656.0,188.0,1500095844.0,70.0,258.0,1.372340425531915,-1,80 82 78 84 83 79 81 77
319,1500095816.0,8,300.0,1,1500095876.0,183.0,1500096059.0,60.0,243.0,1.3278688524590163,-1,107 109 108 105 111 106 112 110
431,1500100661.0,16,200.0,1,1500100699.0,106.0,1500100805.0,38.0,144.0,1.3584905660377358,-1,57 59 54 56 117 118 55 124 60 123 122 120 53 58 121 119
458,1500101829.0,8,300.0,1,1500101830.0,191.0,1500102021.0,1.0,192.0,1.0052356020942408,-1,17 102 104 20 18 101 103 19
433,1500100713.0,16,200.0,1,1500100731.0,109.0,1500100840.0,18.0,127.0,1.165137614678899,-1,3 1 11 2 8 13 10 9 16 14 12 15 5 6 4 7
291,1500094769.0,16,200.0,1,1500095302.0,111.0,1500095413.0,533.0,644.0,5.801801801801802,-1,8 1 7 10 5 14 2 9 6 12 16 11 15 3 13 4
396,1500099242.0,8,300.0,1,1500099405.0,181.0,1500099586.0,163.0,344.0,1.9005524861878453,-1,72 74 71 75 69 73 70 76
453,1500101634.0,32,2400.0,1,1500101636.0,1564.0,1500103200.0,2.0,1566.0,1.0012787723785166,-1,54 59 36 25 23 61 39 57 22 34 51 52 56 50 33 24 27 38 35 21 63 58 37 60 55 28 49 26 64 53 62 40
303,1500095256.0,4,200.0,1,1500095430.0,140.0,1500095570.0,174.0,314.0,2.242857142857143,-1,26 28 25 27
429,1500100654.0,8,300.0,1,1500100656.0,186.0,1500100842.0,2.0,188.0,1.010752688172043,-1,98 94 97 100 99 95 93 96
464,1500102005.0,4,200.0,1,1500102006.0,140.0,1500102146.0,1.0,141.0,1.0071428571428571,-1,11 10 9 12
328,1500096098.0,8,300.0,1,1500096100.0,172.0,1500096272.0,2.0,174.0,1.0116279069767442,-1,114 116 113 119 117 118 120 115
351,1500097257.0,16,200.0,1,1500097259.0,109.0,1500097368.0,2.0,111.0,1.018348623853211,-1,39 34 26 35 24 23 21 33 36 22 27 28 37 40 38 25
258,1500093446.0,4,200.0,1,1500093448.0,143.0,1500093591.0,2.0,145.0,1.013986013986014,-1,2 3 4 1
286,1500094477.0,16,200.0,1,1500094478.0,133.0,1500094611.0,1.0,134.0,1.0075187969924813,-1,41 46 54 55 45 44 51 56 47 43 48 52 49 50 53 42
497,1500103316.0,8,300.0,1,1500103582.0,179.0,1500103761.0,266.0,445.0,2.4860335195530725,-1,122 124 121 126 127 123 128 125
340,1500096732.0,16,200.0,1,1500096755.0,104.0,1500096859.0,23.0,127.0,1.2211538461538463,-1,79 105 27 6 108 77 106 28 7 26 5 107 78 80 8 25
430,1500100658.0,16,200.0,1,1500100660.0,134.0,1500100794.0,2.0,136.0,1.0149253731343284,-1,113 114 107 112 109 115 102 103 110 101 105 108 116 111 106 104
481,1500102661.0,8,300.0,1,1500102798.0,185.0,1500102983.0,137.0,322.0,1.7405405405405405,-1,32 67 66 30 31 68 65 29
271,1500094038.0,8,300.0,1,1500094040.0,213.0,1500094253.0,2.0,215.0,1.0093896713615023,-1,4 6 3 8 7 5 2 1
489,1500103071.0,4,200.0,1,1500103330.0,145.0,1500103475.0,259.0,404.0,2.786206896551724,-1,49 52 51 50
457,1500101806.0,8,300.0,1,1500101807.0,188.0,1500101995.0,1.0,189.0,1.0053191489361701,-1,13 10 12 15 9 14 16 11
283,1500094405.0,4,200.0,1,1500094406.0,94.0,1500094500.0,1.0,95.0,1.0106382978723405,-1,37 40 39 38
463,1500101954.0,8,300.0,1,1500101955.0,184.0,1500102139.0,1.0,185.0,1.0054347826086956,-1,5 1 4 6 8 3 2 7
370,1500098075.0,4,200.0,1,1500098076.0,102.0,1500098178.0,1.0,103.0,1.0098039215686274,-1,5 6 7 8
358,1500097399.0,4,200.0,1,1500097401.0,93.0,1500097494.0,2.0,95.0,1.021505376344086,-1,8 5 7 6
373,1500098256.0,8,300.0,1,1500099075.0,186.0,1500099261.0,819.0,1005.0,5.403225806451613,-1,62 59 60 61 64 63 57 58
417,1500100011.0,4,200.0,1,1500100012.0,98.0,1500100110.0,1.0,99.0,1.010204081632653,-1,73 76 75 74
436,1500100853.0,16,200.0,1,1500100854.0,136.0,1500100990.0,1.0,137.0,1.0073529411764706,-1,13 5 8 14 11 15 2 16 10 1 6 7 4 12 9 3
360,1500097525.0,16,200.0,1,1500097526.0,146.0,1500097672.0,1.0,147.0,1.0068493150684932,-1,15 11 8 16 20 7 6 9 10 17 19 13 14 5 12 18
392,1500098849.0,16,200.0,1,1500099389.0,117.0,1500099506.0,540.0,657.0,5.615384615384615,-1,110 112 37 39 109 40 111 44 41 116 113 38 114 115 43 42
356,1500097338.0,8,300.0,1,1500097340.0,190.0,1500097530.0,2.0,192.0,1.0105263157894737,-1,71 72 73 76 75 70 74 69
314,1500095627.0,32,200.0,1,1500095876.0,140.0,1500096016.0,249.0,389.0,2.7785714285714285,-1,6 95 5 4 3 81 7 27 88 96 93 84 83 1 92 25 91 78 89 85 2 87 79 77 28 26 90 94 8 82 80 86
318,1500095791.0,8,300.0,1,1500095876.0,179.0,1500096055.0,85.0,264.0,1.4748603351955307,-1,98 103 102 97 99 104 100 101
354,1500097281.0,8,300.0,1,1500097282.0,184.0,1500097466.0,1.0,185.0,1.0054347826086956,-1,2 56 54 55 1 53 3 4
408,1500099625.0,8,300.0,1,1500099627.0,183.0,1500099810.0,2.0,185.0,1.010928961748634,-1,29 66 65 67 30 32 31 68
276,1500094160.0,4,200.0,1,1500094162.0,143.0,1500094305.0,2.0,145.0,1.013986013986014,-1,46 48 45 47
299,1500095124.0,16,200.0,1,1500095302.0,126.0,1500095428.0,178.0,304.0,2.4126984126984126,-1,111 113 110 117 115 116 109 118 112 105 119 107 120 108 114 106
257,1500093371.0,8,300.0,1,1500093372.0,218.0,1500093590.0,1.0,219.0,1.0045871559633028,-1,55 56 58 60 53 54 59 57
479,1500102639.0,16,200.0,1,1500102676.0,118.0,1500102794.0,37.0,155.0,1.3135593220338984,-1,99 109 111 68 66 100 112 65 97 32 110 29 30 31 67 98
353,1500097270.0,8,300.0,1,1500097271.0,183.0,1500097454.0,1.0,184.0,1.005464480874317,-1,45 52 48 49 46 50 51 47
422,1500100335.0,16,200.0,1,1500100336.0,142.0,1500100478.0,1.0,143.0,1.0070422535211268,-1,65 55 68 56 64 67 61 66 63 57 53 54 60 58 59 62
300,1500095142.0,8,300.0,1,1500095302.0,183.0,1500095485.0,160.0,343.0,1.8743169398907105,-1,121 128 122 126 127 123 125 124
338,1500096630.0,16,200.0,1,1500096632.0,118.0,1500096750.0,2.0,120.0,1.0169491525423728,-1,80 77 113 106 114 116 107 112 105 79 78 109 111 110 108 115
261,1500093478.0,8,300.0,1,1500093480.0,209.0,1500093689.0,2.0,211.0,1.0095693779904307,-1,65 32 68 30 67 31 66 29
485,1500102926.0,4,200.0,1,1500103205.0,144.0,1500103349.0,279.0,423.0,2.9375,-1,34 35 33 36
326,1500096063.0,8,300.0,1,1500096065.0,174.0,1500096239.0,2.0,176.0,1.0114942528735633,-1,104 97 98 99 102 101 103 100
490,1500103089.0,32,2400.0,1,1500103479.0,1604.0,1500105083.0,390.0,1994.0,1.243142144638404,-1,24 58 38 25 61 34 52 50 21 56 39 62 26 33 60 23 37 57 51 40 55 27 59 49 22 63 36 64 53 54 35 28
346,1500097006.0,128,600.0,1,1500098662.0,408.0,1500099070.0,1656.0,2064.0,5.0588235294117645,-1,48 36 31 26 87 59 67 113 91 17 53 96 16 123 109 98 124 8 128 73 115 6 125 13 5 120 108 79 104 60 78 110 94 34 75 64 70 102 28 111 42 25 51 33 71 80 20 122 55 118 39 68 119 88 114 57 44 103 12 105 1 116 61 89 112 18 90 86 49 27 41 32 62 85 3 29 82 83 45 66 69 126 84 106 72 77 19 47 4 43 2 40 127 97 101 63 52 117 81 95 74 121 76 11 56 54 38 46 10 24 14 35 30 15 99 7 93 100 50 22 37 107 92 9 23 21 58 65
409,1500099641.0,8,300.0,1,1500099642.0,194.0,1500099836.0,1.0,195.0,1.0051546391752577,-1,70 73 69 76 75 74 72 71
477,1500102613.0,8,300.0,1,1500102615.0,174.0,1500102789.0,2.0,176.0,1.0114942528735633,-1,1 8 3 7 6 4 5 2
404,1500099550.0,4,200.0,1,1500099551.0,92.0,1500099643.0,1.0,93.0,1.0108695652173914,-1,64 62 63 61
264,1500093578.0,4,200.0,1,1500093579.0,143.0,1500093722.0,1.0,144.0,1.006993006993007,-1,35 33 34 36
365,1500097821.0,4,200.0,1,1500097823.0,95.0,1500097918.0,2.0,97.0,1.0210526315789474,-1,6 8 7 5
278,1500094203.0,8,300.0,1,1500094205.0,201.0,1500094406.0,2.0,203.0,1.0099502487562189,-1,56 57 59 54 58 55 60 53
452,1500101587.0,4,200.0,1,1500101588.0,142.0,1500101730.0,1.0,143.0,1.0070422535211268,-1,20 18 19 17
379,1500098463.0,8,300.0,1,1500099203.0,180.0,1500099383.0,740.0,920.0,5.111111111111111,-1,40 42 37 43 44 41 39 38
420,1500100210.0,8,300.0,1,1500100212.0,208.0,1500100420.0,2.0,210.0,1.0096153846153846,-1,43 41 47 48 45 46 42 44
255,1500093363.0,16,200.0,1,1500093364.0,139.0,1500093503.0,1.0,140.0,1.0071942446043165,-1,27 42 44 39 34 43 38 25 35 40 37 28 33 26 36 41
470,1500102287.0,4,200.0,1,1500102289.0,144.0,1500102433.0,2.0,146.0,1.0138888888888888,-1,30 32 31 29
382,1500098593.0,8,300.0,1,1500099203.0,176.0,1500099379.0,610.0,786.0,4.465909090909091,-1,48 51 50 45 49 47 52 46
432,1500100663.0,8,300.0,1,1500100723.0,191.0,1500100914.0,60.0,251.0,1.3141361256544504,-1,37 128 38 127 125 126 39 40
308,1500095511.0,16,200.0,1,1500095607.0,121.0,1500095728.0,96.0,217.0,1.7933884297520661,-1,27 8 3 113 4 1 26 116 114 25 28 7 2 115 5 6
339,1500096716.0,4,200.0,1,1500096717.0,141.0,1500096858.0,1.0,142.0,1.0070921985815602,-1,4 1 2 3
359,1500097521.0,4,200.0,1,1500097522.0,141.0,1500097663.0,1.0,142.0,1.0070921985815602,-1,2 3 1 4
341,1500096739.0,4,200.0,1,1500096741.0,143.0,1500096884.0,2.0,145.0,1.013986013986014,-1,119 120 117 118
423,1500100403.0,4,200.0,1,1500100404.0,143.0,1500100547.0,1.0,144.0,1.006993006993007,-1,30 32 29 31
262,1500093519.0,8,300.0,1,1500093521.0,194.0,1500093715.0,2.0,196.0,1.0103092783505154,-1,22 28 26 21 27 25 23 24
344,1500096840.0,4,200.0,1,1500096975.0,141.0,1500097116.0,135.0,276.0,1.9574468085106382,-1,51 52 49 50
394,1500099115.0,8,300.0,1,1500099390.0,185.0,1500099575.0,275.0,460.0,2.4864864864864864,-1,117 118 123 124 122 121 119 120
282,1500094313.0,64,200.0,1,1500094320.0,89.0,1500094409.0,7.0,96.0,1.0786516853932584,-1,89 47 96 48 98 28 127 91 105 88 33 100 116 101 107 24 114 111 26 103 124 20 108 125 95 36 126 102 85 110 123 121 99 92 120 22 128 35 19 90 106 122 23 86 34 113 93 109 27 25 115 117 97 46 87 94 21 119 45 104 118 18 112 17
449,1500101363.0,16,200.0,1,1500101365.0,110.0,1500101475.0,2.0,112.0,1.018181818181818,-1,20 22 21 35 19 37 34 23 40 33 36 38 24 18 39 17
307,1500095502.0,4,200.0,1,1500095565.0,97.0,1500095662.0,63.0,160.0,1.6494845360824741,-1,110 112 109 111
306,1500095496.0,8,300.0,1,1500095498.0,186.0,1500095684.0,2.0,188.0,1.010752688172043,-1,124 123 122 127 121 125 128 126
279,1500094263.0,4,200.0,1,1500094264.0,141.0,1500094405.0,1.0,142.0,1.0070921985815602,-1,4 1 2 3
465,1500102023.0,32,2400.0,1,1500102072.0,1505.0,1500103577.0,49.0,1554.0,1.0325581395348837,-1,122 108 117 18 103 118 121 105 123 16 15 106 101 114 113 19 107 115 13 127 125 126 104 116 119 128 20 17 120 14 102 124
366,1500097935.0,64,200.0,1,1500097936.0,130.0,1500098066.0,1.0,131.0,1.0076923076923077,-1,13 62 42 22 32 8 38 51 15 67 20 63 14 46 5 19 66 44 50 40 45 28 29 58 12 16 57 34 11 52 43 9 18 47 48 25 30 65 10 33 23 35 36 17 27 55 7 21 56 61 39 59 60 26 53 64 68 49 41 6 24 54 31 37
386,1500098696.0,8,300.0,1,1500099224.0,176.0,1500099400.0,528.0,704.0,4.0,-1,73 71 70 75 74 69 72 76
410,1500099810.0,64,200.0,1,1500099811.0,87.0,1500099898.0,1.0,88.0,1.0114942528735633,-1,91 56 99 97 111 101 53 59 60 85 77 63 62 105 78 92 88 93 107 96 46 87 80 79 81 38 45 54 51 41 61 83 106 109 52 100 57 37 86 98 50 39 108 43 44 58 82 102 94 89 40 42 49 103 104 47 112 84 95 110 48 90 64 55
393,1500098860.0,4,200.0,1,1500099388.0,143.0,1500099531.0,528.0,671.0,4.6923076923076925,-1,78 80 79 77
268,1500093766.0,16,200.0,1,1500093767.0,108.0,1500093875.0,1.0,109.0,1.0092592592592593,-1,25 11 27 4 26 1 24 3 9 22 21 2 10 23 28 12
405,1500099555.0,4,200.0,1,1500099558.0,93.0,1500099651.0,3.0,96.0,1.032258064516129,-1,56 53 55 54
467,1500102032.0,8,300.0,1,1500102103.0,180.0,1500102283.0,71.0,251.0,1.3944444444444444,-1,96 94 98 95 100 93 97 99
256,1500093370.0,8,300.0,1,1500093372.0,210.0,1500093582.0,2.0,212.0,1.0095238095238095,-1,46 52 49 47 51 48 50 45
402,1500099477.0,8,300.0,1,1500099510.0,187.0,1500099697.0,33.0,220.0,1.1764705882352942,-1,41 44 38 40 37 43 39 42
380,1500098549.0,4,200.0,1,1500099075.0,147.0,1500099222.0,526.0,673.0,4.578231292517007,-1,125 127 126 128
434,1500100736.0,16,200.0,1,1500100737.0,107.0,1500100844.0,1.0,108.0,1.0093457943925233,-1,36 17 24 26 19 34 20 22 18 35 23 21 33 28 25 27
447,1500101332.0,8,300.0,1,1500101333.0,194.0,1500101527.0,1.0,195.0,1.0051546391752577,-1,5 3 1 4 7 6 8 2
315,1500095666.0,4,200.0,1,1500095688.0,93.0,1500095781.0,22.0,115.0,1.2365591397849462,-1,124 122 121 123
378,1500098432.0,16,200.0,1,1500099075.0,124.0,1500099199.0,643.0,767.0,6.185483870967742,-1,109 120 123 116 124 117 114 121 118 113 119 111 115 122 110 112
480,1500102655.0,8,300.0,1,1500102793.0,187.0,1500102980.0,138.0,325.0,1.7379679144385027,-1,5 7 4 1 3 6 2 8
295,1500094966.0,16,200.0,1,1500095302.0,126.0,1500095428.0,336.0,462.0,3.6666666666666665,-1,80 75 74 86 76 81 73 87 88 82 78 77 85 79 83 84
414,1500099878.0,8,300.0,1,1500099903.0,204.0,1500100107.0,25.0,229.0,1.1225490196078431,-1,44 43 38 42 39 37 41 40
329,1500096144.0,32,200.0,1,1500096205.0,138.0,1500096343.0,61.0,199.0,1.4420289855072463,-1,25 6 28 128 83 124 81 125 127 126 88 8 26 1 82 79 121 86 78 80 27 77 123 85 5 84 2 3 4 122 87 7
495,1500103304.0,64,200.0,1,1500103775.0,82.0,1500103857.0,471.0,553.0,6.7439024390243905,-1,117 73 114 103 108 15 41 42 88 105 14 71 20 47 121 82 123 89 128 13 84 107 106 104 83 127 77 76 72 122 78 116 86 119 91 16 120 44 70 125 74 115 90 17 102 124 92 48 85 80 79 113 75 87 118 45 69 19 18 126 81 46 43 101
400,1500099340.0,8,300.0,1,1500099408.0,186.0,1500099594.0,68.0,254.0,1.3655913978494623,-1,108 106 125 127 105 126 128 107
267,1500093720.0,4,200.0,1,1500093722.0,143.0,1500093865.0,2.0,145.0,1.013986013986014,-1,7 6 5 8
398,1500099332.0,16,200.0,1,1500099408.0,107.0,1500099515.0,76.0,183.0,1.7102803738317758,-1,58 62 59 89 61 64 100 92 63 57 60 97 98 91 99 90
437,1500100930.0,4,200.0,1,1500100932.0,139.0,1500101071.0,2.0,141.0,1.014388489208633,-1,18 20 17 19
259,1500093469.0,8,300.0,1,1500093470.0,206.0,1500093676.0,1.0,207.0,1.0048543689320388,-1,10 11 12 6 5 8 9 7
316,1500095680.0,4,200.0,1,1500095688.0,140.0,1500095828.0,8.0,148.0,1.0571428571428572,-1,126 128 127 125
418,1500100070.0,8,300.0,1,1500100072.0,203.0,1500100275.0,2.0,205.0,1.0098522167487685,-1,70 71 72 31 30 29 69 32
484,1500102871.0,8,300.0,1,1500103205.0,177.0,1500103382.0,334.0,511.0,2.8870056497175143,-1,25 21 28 27 23 22 24 26
471,1500102327.0,4,200.0,1,1500102329.0,140.0,1500102469.0,2.0,142.0,1.0142857142857142,-1,94 95 96 93
325,1500096011.0,8,300.0,1,1500096021.0,182.0,1500096203.0,10.0,192.0,1.054945054945055,-1,91 93 94 90 92 89 95 96
251,1500093264.0,4,200.0,1,1500093265.0,143.0,1500093408.0,1.0,144.0,1.006993006993007,-1,4 2 3 1
407,1500099622.0,4,200.0,1,1500099623.0,140.0,1500099763.0,1.0,141.0,1.0071428571428571,-1,50 51 49 52
444,1500101202.0,16,200.0,1,1500101204.0,138.0,1500101342.0,2.0,140.0,1.0144927536231885,-1,52 54 57 53 39 38 51 55 60 58 37 50 40 56 49 59
421,1500100335.0,8,300.0,1,1500100336.0,212.0,1500100548.0,1.0,213.0,1.0047169811320755,-1,37 49 38 40 52 39 50 51
324,1500096007.0,16,200.0,1,1500096021.0,105.0,1500096126.0,14.0,119.0,1.1333333333333333,-1,86 78 83 79 80 84 26 82 27 81 25 88 87 28 85 77
357,1500097384.0,32,2400.0,1,1500099075.0,1650.0,1500100725.0,1691.0,3341.0,2.024848484848485,-1,26 35 13 5 11 28 16 19 8 12 4 3 27 14 17 22 24 23 15 2 9 25 36 1 20 33 7 21 6 10 18 34
323,1500095996.0,4,200.0,1,1500095997.0,93.0,1500096090.0,1.0,94.0,1.010752688172043,-1,119 120 118 117
383,1500098596.0,8,300.0,1,1500099204.0,179.0,1500099383.0,608.0,787.0,4.396648044692737,-1,115 111 110 109 114 116 112 113
411,1500099817.0,4,200.0,1,1500099818.0,93.0,1500099911.0,1.0,94.0,1.010752688172043,-1,66 68 67 65
487,1500102938.0,4,200.0,1,1500103205.0,142.0,1500103347.0,267.0,409.0,2.880281690140845,-1,61 64 62 63
348,1500097041.0,16,200.0,1,1500097042.0,109.0,1500097151.0,1.0,110.0,1.0091743119266054,-1,31 32 105 108 70 72 79 107 30 106 78 77 71 29 80 69
389,1500098748.0,32,200.0,1,1500099265.0,138.0,1500099403.0,517.0,655.0,4.746376811594203,-1,57 102 105 99 89 92 59 103 63 61 60 98 91 107 90 127 108 97 54 56 128 58 64 106 101 62 53 125 55 104 126 100
252,1500093274.0,8,300.0,1,1500093275.0,190.0,1500093465.0,1.0,191.0,1.0052631578947369,-1,8 7 10 5 12 11 6 9
269,1500093785.0,16,200.0,1,1500093787.0,138.0,1500093925.0,2.0,140.0,1.0144927536231885,-1,40 13 35 34 16 33 14 17 15 18 38 39 20 37 19 36
460,1500101919.0,8,300.0,1,1500101921.0,177.0,1500102098.0,2.0,179.0,1.0112994350282485,-1,98 94 97 96 100 93 95 99
275,1500094139.0,8,300.0,1,1500094141.0,216.0,1500094357.0,2.0,218.0,1.0092592592592593,-1,44 38 41 43 37 40 42 39
321,1500095962.0,8,300.0,1,1500096015.0,177.0,1500096192.0,53.0,230.0,1.2994350282485876,-1,125 127 126 122 121 123 128 124
412,1500099846.0,8,300.0,1,1500099848.0,202.0,1500100050.0,2.0,204.0,1.00990099009901,-1,30 32 71 31 70 29 69 72
482,1500102847.0,4,200.0,1,1500102849.0,139.0,1500102988.0,2.0,141.0,1.014388489208633,-1,12 11 10 9
263,1500093574.0,8,300.0,1,1500093575.0,203.0,1500093778.0,1.0,204.0,1.0049261083743843,-1,16 14 19 13 15 20 18 17
363,1500097696.0,4,200.0,1,1500097698.0,93.0,1500097791.0,2.0,95.0,1.021505376344086,-1,4 3 1 2
375,1500098367.0,4,200.0,1,1500099075.0,101.0,1500099176.0,708.0,809.0,8.009900990099009,-1,93 94 95 96
336,1500096529.0,128,600.0,1,1500098241.0,416.0,1500098657.0,1712.0,2128.0,5.115384615384615,-1,76 47 19 35 60 107 36 38 75 104 105 110 63 88 5 67 45 116 40 95 80 50 65 66 61 33 106 21 7 12 37 15 108 20 34 57 121 39 103 24 18 58 30 3 96 82 74 69 55 97 23 84 123 22 72 64 59 48 27 46 81 10 98 79 78 120 91 4 113 115 99 89 52 51 6 117 71 68 93 8 9 56 77 43 11 14 53 112 62 16 17 2 49 41 28 31 44 85 70 13 1 83 25 109 94 114 127 29 86 119 111 101 124 125 87 128 54 126 122 26 118 42 102 32 100 92 73 90
397,1500099318.0,4,200.0,1,1500099408.0,142.0,1500099550.0,90.0,232.0,1.6338028169014085,-1,56 54 53 55
288,1500094665.0,8,300.0,1,1500094667.0,208.0,1500094875.0,2.0,210.0,1.0096153846153846,-1,5 12 6 8 10 9 7 11
492,1500103138.0,8,300.0,1,1500103582.0,183.0,1500103765.0,444.0,627.0,3.4262295081967213,-1,102 107 108 104 105 106 103 101
367,1500097973.0,8,300.0,1,1500097975.0,259.0,1500098234.0,2.0,261.0,1.0077220077220077,-1,71 69 70 1 4 3 2 72
290,1500094731.0,128,600.0,1,1500094882.0,415.0,1500095297.0,151.0,566.0,1.363855421686747,-1,43 30 15 125 70 3 60 57 89 41 101 106 77 25 16 123 56 27 31 100 113 97 126 79 59 5 47 86 13 12 11 92 64 37 61 28 32 55 18 69 108 71 114 66 80 98 107 119 58 99 39 7 19 48 78 62 53 17 102 112 46 124 6 109 103 120 111 91 14 40 96 104 85 10 54 20 22 33 127 122 2 110 115 63 21 50 75 29 105 72 94 1 44 68 76 87 51 74 118 90 52 83 65 49 45 93 88 67 26 34 23 95 116 117 4 128 42 121 9 35 38 36 24 82 84 8 81 73
298,1500095017.0,4,200.0,1,1500095302.0,147.0,1500095449.0,285.0,432.0,2.938775510204082,-1,104 102 103 101
469,1500102280.0,16,200.0,1,1500102281.0,123.0,1500102404.0,1.0,124.0,1.008130081300813,-1,8 12 68 2 4 5 10 67 3 9 7 65 6 66 11 1
362,1500097616.0,8,300.0,1,1500097617.0,197.0,1500097814.0,1.0,198.0,1.0050761421319796,-1,28 36 34 26 27 35 33 25
285,1500094460.0,16,200.0,1,1500094463.0,138.0,1500094601.0,3.0,141.0,1.0217391304347827,-1,14 15 5 6 35 16 12 11 7 36 34 8 10 9 13 33
419,1500100124.0,4,200.0,1,1500100126.0,144.0,1500100270.0,2.0,146.0,1.0138888888888888,-1,40 38 37 39
450,1500101392.0,16,200.0,1,1500101394.0,114.0,1500101508.0,2.0,116.0,1.0175438596491229,-1,56 53 58 30 51 60 29 59 54 32 52 55 31 57 50 49
368,1500097983.0,8,300.0,1,1500097984.0,242.0,1500098226.0,1.0,243.0,1.0041322314049588,-1,80 75 79 78 76 74 77 73
446,1500101256.0,4,200.0,1,1500101257.0,143.0,1500101400.0,1.0,144.0,1.006993006993007,-1,28 26 27 25
335,1500096460.0,8,300.0,1,1500096461.0,179.0,1500096640.0,1.0,180.0,1.005586592178771,-1,7 2 5 6 1 4 3 8
499,1500103332.0,32,200.0,1,1500103862.0,143.0,1500104005.0,530.0,673.0,4.706293706293707,-1,107 82 108 83 89 77 104 91 85 86 92 87 81 90 116 113 73 101 115 106 105 79 78 114 88 80 84 103 75 102 76 74
466,1500102029.0,8,300.0,1,1500102086.0,179.0,1500102265.0,57.0,236.0,1.318435754189944,-1,32 67 65 68 66 31 30 29
483,1500102861.0,32,2400.0,1,1500102993.0,1494.0,1500104487.0,132.0,1626.0,1.0883534136546185,-1,96 97 65 100 94 66 3 111 12 10 93 99 67 6 109 110 4 5 9 8 32 1 11 112 98 29 31 2 68 30 95 7
342,1500096748.0,64,200.0,1,1500096888.0,83.0,1500096971.0,140.0,223.0,2.6867469879518073,-1,59 119 31 71 3 117 26 54 116 105 67 68 69 115 48 5 50 57 107 63 29 65 28 30 79 114 111 6 60 112 32 113 49 120 110 27 58 77 8 55 70 51 62 118 53 7 52 47 45 64 61 106 78 80 109 56 1 46 2 72 66 25 4 108
381,1500098579.0,4,200.0,1,1500099180.0,141.0,1500099321.0,601.0,742.0,5.26241134751773,-1,94 95 93 96
372,1500098151.0,4,200.0,1,1500099075.0,145.0,1500099220.0,924.0,1069.0,7.372413793103449,-1,55 54 56 53
334,1500096445.0,16,200.0,1,1500096447.0,126.0,1500096573.0,2.0,128.0,1.0158730158730158,-1,116 111 105 117 119 115 114 110 106 107 120 112 109 113 118 108
427,1500100577.0,4,200.0,1,1500100579.0,139.0,1500100718.0,2.0,141.0,1.014388489208633,-1,40 38 39 37
491,1500103133.0,8,300.0,1,1500103582.0,178.0,1500103760.0,449.0,627.0,3.5224719101123596,-1,14 16 17 18 19 15 20 13
337,1500096564.0,4,200.0,1,1500096566.0,92.0,1500096658.0,2.0,94.0,1.0217391304347827,-1,26 27 25 28
305,1500095326.0,64,200.0,1,1500095565.0,86.0,1500095651.0,239.0,325.0,3.7790697674418605,-1,43 36 88 78 42 33 38 34 9 77 23 104 83 37 24 97 91 95 15 105 90 21 106 35 103 44 100 107 102 18 82 39 11 12 74 93 19 41 80 13 79 73 96 86 81 20 85 40 75 84 89 87 98 10 76 101 108 17 99 16 94 92 22 14
435,1500100776.0,4,200.0,1,1500100777.0,140.0,1500100917.0,1.0,141.0,1.0071428571428571,-1,63 62 61 64
355,1500097295.0,16,200.0,1,1500097296.0,143.0,1500097439.0,1.0,144.0,1.006993006993007,-1,63 65 67 59 64 30 66 58 29 61 60 68 31 32 57 62
272,1500094060.0,8,300.0,1,1500094062.0,217.0,1500094279.0,2.0,219.0,1.0092165898617511,-1,11 10 13 12 9 15 14 16
302,1500095198.0,16,200.0,1,1500095430.0,128.0,1500095558.0,232.0,360.0,2.8125,-1,17 11 23 12 22 13 14 18 20 10 24 19 15 16 9 21
280,1500094265.0,8,300.0,1,1500094266.0,189.0,1500094455.0,1.0,190.0,1.0052910052910053,-1,64 5 8 63 61 6 62 7
294,1500094896.0,32,2400.0,1,1500095302.0,1540.0,1500096842.0,406.0,1946.0,1.2636363636363637,-1,48 32 63 54 66 45 50 70 52 61 65 72 31 64 71 57 60 62 68 67 49 53 51 55 47 29 59 46 69 56 30 58
374,1500098366.0,32,200.0,1,1500099075.0,144.0,1500099219.0,709.0,853.0,5.923611111111111,-1,76 89 72 29 31 32 90 73 91 74 68 66 30 65 78 81 80 92 86 70 85 75 67 87 71 82 83 79 84 77 88 69
313,1500095617.0,32,200.0,1,1500095732.0,140.0,1500095872.0,115.0,255.0,1.8214285714285714,-1,117 6 113 102 28 3 114 107 111 5 118 108 4 1 2 110 26 120 112 106 7 101 27 109 104 116 119 103 8 115 25 105
312,1500095596.0,16,200.0,1,1500095656.0,106.0,1500095762.0,60.0,166.0,1.5660377358490567,-1,95 92 94 87 93 90 98 99 86 97 89 85 88 100 91 96
281,1500094285.0,32,200.0,1,1500094287.0,161.0,1500094448.0,2.0,163.0,1.0124223602484472,-1,30 78 82 81 75 13 11 12 15 79 71 84 31 73 77 83 69 9 76 16 68 32 72 74 66 14 10 29 67 65 80 70
391,1500098789.0,8,300.0,1,1500099384.0,180.0,1500099564.0,595.0,775.0,4.305555555555555,-1,47 46 51 45 52 49 50 48
425,1500100517.0,8,300.0,1,1500100518.0,177.0,1500100695.0,1.0,178.0,1.0056497175141244,-1,54 56 60 55 53 59 57 58
