jobID,submission_time,requested_number_of_processors,requested_time,success,starting_time,execution_time,finish_time,waiting_time,turnaround_time,stretch,consumed_energy,allocated_processors
2398,1500206805.0,128,600.0,1,1500207540.0,408.0,1500207948.0,735.0,1143.0,2.801470588235294,-1,42 104 95 64 115 60 25 22 53 63 127 96 7 102 87 106 114 28 1 37 83 122 101 18 65 110 15 82 5 45 79 59 78 12 9 72 92 123 3 74 4 34 19 125 8 2 75 32 50 86 48 71 11 73 113 33 35 38 128 99 116 61 31 89 62 6 20 36 97 16 81 27 80 93 85 88 118 40 51 100 30 46 103 44 58 21 56 117 84 66 43 49 94 76 41 69 124 13 55 108 54 29 112 17 119 47 68 26 90 111 120 126 98 105 121 57 91 23 10 67 77 107 109 14 70 24 39 52
2416,1500207460.0,8,300.0,1,1500207953.0,189.0,1500208142.0,493.0,682.0,3.6084656084656084,-1,3 4 6 2 8 1 7 5
2378,1500206343.0,64,200.0,1,1500206814.0,81.0,1500206895.0,471.0,552.0,6.814814814814815,-1,28 53 42 67 38 66 59 54 6 5 92 45 49 17 89 47 25 51 3 93 7 56 57 69 26 14 63 68 27 50 48 41 1 37 91 94 55 96 8 15 43 19 40 58 60 44 62 72 16 64 18 2 95 39 52 4 20 71 90 46 70 13 61 65
2411,1500207130.0,8,300.0,1,1500207131.0,192.0,1500207323.0,1.0,193.0,1.0052083333333333,-1,65 63 64 66 61 67 62 68
2387,1500206486.0,16,200.0,1,1500206679.0,124.0,1500206803.0,193.0,317.0,2.556451612903226,-1,17 7 19 5 2 8 6 15 4 20 3 13 14 16 18 1
2278,1500202153.0,8,300.0,1,1500202154.0,197.0,1500202351.0,1.0,198.0,1.0050761421319796,-1,53 54 60 58 55 59 56 57
2258,1500201202.0,16,200.0,1,1500201203.0,143.0,1500201346.0,1.0,144.0,1.006993006993007,-1,34 45 36 46 33 44 35 42 43 39 48 41 40 37 38 47
2436,1500208085.0,4,200.0,1,1500208154.0,141.0,1500208295.0,69.0,210.0,1.4893617021276595,-1,104 103 101 102
2265,1500201516.0,8,300.0,1,1500201517.0,200.0,1500201717.0,1.0,201.0,1.005,-1,33 35 40 37 36 39 34 38
2251,1500200816.0,16,200.0,1,1500200817.0,117.0,1500200934.0,1.0,118.0,1.0085470085470085,-1,13 7 6 5 9 3 16 1 12 14 10 2 8 4 11 15
2344,1500204879.0,8,300.0,1,1500205400.0,181.0,1500205581.0,521.0,702.0,3.8784530386740332,-1,86 79 80 87 88 85 78 77
2311,1500203701.0,4,200.0,1,1500203702.0,142.0,1500203844.0,1.0,143.0,1.0070422535211268,-1,104 101 102 103
2462,1500208860.0,4,200.0,1,1500208861.0,140.0,1500209001.0,1.0,141.0,1.0071428571428571,-1,10 12 11 9
2346,1500204935.0,4,200.0,1,1500205522.0,143.0,1500205665.0,587.0,730.0,5.104895104895105,-1,73 76 74 75
2450,1500208544.0,8,300.0,1,1500208545.0,194.0,1500208739.0,1.0,195.0,1.0051546391752577,-1,10 31 29 12 9 11 32 30
2286,1500202376.0,16,200.0,1,1500202378.0,150.0,1500202528.0,2.0,152.0,1.0133333333333334,-1,34 52 56 55 54 58 60 50 59 57 53 49 33 35 51 36
2294,1500202827.0,32,200.0,1,1500202829.0,194.0,1500203023.0,2.0,196.0,1.0103092783505154,-1,40 27 28 38 17 36 41 46 23 37 33 44 30 32 34 29 18 21 25 47 31 48 20 43 26 19 42 24 45 39 35 22
2381,1500206422.0,8,300.0,1,1500206508.0,175.0,1500206683.0,86.0,261.0,1.4914285714285713,-1,88 85 78 86 87 80 79 77
2382,1500206423.0,8,300.0,1,1500206546.0,175.0,1500206721.0,123.0,298.0,1.7028571428571428,-1,100 98 114 113 115 99 116 97
2375,1500206290.0,16,200.0,1,1500206362.0,117.0,1500206479.0,72.0,189.0,1.6153846153846154,-1,95 92 127 126 96 128 69 94 89 70 72 91 71 93 90 125
2449,1500208495.0,4,200.0,1,1500208497.0,141.0,1500208638.0,2.0,143.0,1.0141843971631206,-1,28 25 26 27
2320,1500204054.0,8,300.0,1,1500204999.0,186.0,1500205185.0,945.0,1131.0,6.080645161290323,-1,83 86 84 81 88 85 82 87
2496,1500210203.0,32,2400.0,1,1500210694.0,1627.0,1500212321.0,491.0,2118.0,1.301782421634911,-1,50 52 48 42 41 49 22 39 40 34 46 3 6 1 21 4 38 35 8 23 37 24 36 51 33 47 7 2 45 5 43 44
2472,1500209298.0,4,200.0,1,1500209300.0,143.0,1500209443.0,2.0,145.0,1.013986013986014,-1,60 59 58 57
2252,1500200850.0,8,300.0,1,1500200851.0,222.0,1500201073.0,1.0,223.0,1.0045045045045045,-1,22 18 23 24 21 17 19 20
2380,1500206391.0,4,200.0,1,1500206484.0,141.0,1500206625.0,93.0,234.0,1.6595744680851063,-1,128 127 125 126
2445,1500208347.0,8,300.0,1,1500208349.0,193.0,1500208542.0,2.0,195.0,1.0103626943005182,-1,6 2 1 7 5 8 3 4
2288,1500202546.0,4,200.0,1,1500202548.0,155.0,1500202703.0,2.0,157.0,1.0129032258064516,-1,36 35 33 34
2408,1500207047.0,4,200.0,1,1500207049.0,141.0,1500207190.0,2.0,143.0,1.0141843971631206,-1,49 52 51 50
2261,1500201365.0,8,300.0,1,1500201367.0,193.0,1500201560.0,2.0,195.0,1.0103626943005182,-1,23 10 24 21 22 9 12 11
2349,1500205174.0,4,200.0,1,1500205536.0,144.0,1500205680.0,362.0,506.0,3.513888888888889,-1,122 123 124 121
2460,1500208823.0,8,300.0,1,1500208824.0,194.0,1500209018.0,1.0,195.0,1.0051546391752577,-1,96 95 92 94 91 93 90 89
2491,1500210010.0,32,200.0,1,1500210427.0,139.0,1500210566.0,417.0,556.0,4.0,-1,24 6 49 39 8 40 23 35 7 51 38 48 37 36 34 42 43 22 45 3 33 44 47 46 2 41 4 50 52 5 21 1
2351,1500205226.0,16,200.0,1,1500205586.0,105.0,1500205691.0,360.0,465.0,4.428571428571429,-1,95 89 90 78 92 85 94 86 79 80 87 93 91 88 77 96
2312,1500203717.0,4,200.0,1,1500203718.0,95.0,1500203813.0,1.0,96.0,1.0105263157894737,-1,108 106 107 105
2306,1500203492.0,4,200.0,1,1500203494.0,139.0,1500203633.0,2.0,141.0,1.014388489208633,-1,11 12 9 10
2497,1500210237.0,16,200.0,1,1500210883.0,123.0,1500211006.0,646.0,769.0,6.252032520325203,-1,71 84 69 74 76 75 80 70 82 72 79 78 83 77 73 81
2274,1500202055.0,8,300.0,1,1500202057.0,194.0,1500202251.0,2.0,196.0,1.0103092783505154,-1,23 24 17 21 19 18 20 22
2432,1500208022.0,8,300.0,1,1500208147.0,179.0,1500208326.0,125.0,304.0,1.6983240223463687,-1,3 8 1 4 5 7 6 2
2464,1500208985.0,4,200.0,1,1500208986.0,140.0,1500209126.0,1.0,141.0,1.0071428571428571,-1,27 25 26 28
2393,1500206665.0,8,300.0,1,1500206900.0,183.0,1500207083.0,235.0,418.0,2.2841530054644807,-1,1 7 4 3 2 8 5 6
2406,1500207026.0,8,300.0,1,1500207027.0,190.0,1500207217.0,1.0,191.0,1.0052631578947369,-1,13 15 18 16 20 14 19 17
2426,1500207840.0,4,200.0,1,1500207953.0,152.0,1500208105.0,113.0,265.0,1.743421052631579,-1,69 71 72 70
2395,1500206702.0,4,200.0,1,1500206900.0,145.0,1500207045.0,198.0,343.0,2.3655172413793104,-1,44 43 41 42
2435,1500208067.0,16,200.0,1,1500208154.0,109.0,1500208263.0,87.0,196.0,1.798165137614679,-1,77 43 39 37 38 79 41 73 75 42 40 76 78 44 80 74
2412,1500207183.0,8,300.0,1,1500207185.0,195.0,1500207380.0,2.0,197.0,1.0102564102564102,-1,30 33 29 36 32 34 31 35
2304,1500203423.0,32,2400.0,1,1500203424.0,1491.0,1500204915.0,1.0,1492.0,1.000670690811536,-1,46 45 39 26 43 36 50 31 49 44 47 48 35 29 52 27 37 55 32 42 30 25 34 38 33 28 51 56 41 40 53 54
2360,1500205533.0,8,300.0,1,1500205787.0,174.0,1500205961.0,254.0,428.0,2.4597701149425286,-1,72 71 99 100 70 98 97 69
2271,1500201878.0,4,200.0,1,1500201879.0,144.0,1500202023.0,1.0,145.0,1.0069444444444444,-1,24 23 22 21
2421,1500207582.0,8,300.0,1,1500207953.0,188.0,1500208141.0,371.0,559.0,2.973404255319149,-1,33 29 31 35 34 32 36 30
2328,1500204320.0,4,200.0,1,1500204974.0,97.0,1500205071.0,654.0,751.0,7.742268041237113,-1,76 73 74 75
2355,1500205454.0,8,300.0,1,1500205657.0,177.0,1500205834.0,203.0,380.0,2.146892655367232,-1,108 110 109 105 106 107 111 112
2327,1500204301.0,8,300.0,1,1500205194.0,177.0,1500205371.0,893.0,1070.0,6.045197740112994,-1,70 75 71 76 69 74 72 73
2425,1500207761.0,16,200.0,1,1500207953.0,141.0,1500208094.0,192.0,333.0,2.3617021276595747,-1,66 63 55 59 60 64 68 61 67 58 65 56 53 57 54 62
2440,1500208196.0,4,200.0,1,1500208206.0,96.0,1500208302.0,10.0,106.0,1.1041666666666667,-1,9 11 12 10
2457,1500208765.0,16,200.0,1,1500208767.0,133.0,1500208900.0,2.0,135.0,1.0150375939849625,-1,53 58 59 64 60 29 30 63 54 31 32 56 62 57 55 61
2313,1500203734.0,4,200.0,1,1500203736.0,145.0,1500203881.0,2.0,147.0,1.013793103448276,-1,111 109 112 110
2333,1500204500.0,8,300.0,1,1500205348.0,182.0,1500205530.0,848.0,1030.0,5.65934065934066,-1,102 10 12 11 9 103 104 101
2423,1500207726.0,4,200.0,1,1500207953.0,150.0,1500208103.0,227.0,377.0,2.513333333333333,-1,48 46 47 45
2430,1500207963.0,64,200.0,1,1500208111.0,91.0,1500208202.0,148.0,239.0,2.6263736263736264,-1,109 27 45 94 108 50 91 112 96 49 58 62 67 61 95 71 90 106 107 21 10 12 86 60 93 22 72 11 48 82 25 70 51 28 57 92 26 110 69 83 9 55 23 54 111 53 59 88 68 64 85 65 84 63 105 89 52 47 56 24 87 81 46 66
2316,1500203859.0,8,300.0,1,1500204921.0,181.0,1500205102.0,1062.0,1243.0,6.867403314917127,-1,30 29 36 35 32 34 31 33
2492,1500210029.0,4,200.0,1,1500210238.0,143.0,1500210381.0,209.0,352.0,2.4615384615384617,-1,40 38 37 39
2254,1500200999.0,8,300.0,1,1500201001.0,210.0,1500201211.0,2.0,212.0,1.0095238095238095,-1,3 8 5 1 6 7 4 2
2439,1500208185.0,16,200.0,1,1500208187.0,109.0,1500208296.0,2.0,111.0,1.018348623853211,-1,17 16 123 18 121 20 13 19 126 127 15 122 125 128 14 124
2334,1500204524.0,4,200.0,1,1500204999.0,144.0,1500205143.0,475.0,619.0,4.298611111111111,-1,97 98 99 100
2345,1500204890.0,16,200.0,1,1500205496.0,104.0,1500205600.0,606.0,710.0,6.826923076923077,-1,100 116 120 119 70 99 114 117 72 71 98 113 115 69 118 97
2364,1500205686.0,4,200.0,1,1500205866.0,139.0,1500206005.0,180.0,319.0,2.2949640287769784,-1,127 128 125 126
2448,1500208424.0,4,200.0,1,1500208426.0,144.0,1500208570.0,2.0,146.0,1.0138888888888888,-1,23 22 21 24
2384,1500206457.0,4,200.0,1,1500206666.0,140.0,1500206806.0,209.0,349.0,2.492857142857143,-1,90 91 92 89
2385,1500206476.0,8,300.0,1,1500206726.0,176.0,1500206902.0,250.0,426.0,2.4204545454545454,-1,100 99 97 114 98 113 116 115
2260,1500201246.0,4,200.0,1,1500201247.0,143.0,1500201390.0,1.0,144.0,1.006993006993007,-1,50 51 52 49
2498,1500210297.0,8,300.0,1,1500210883.0,188.0,1500211071.0,586.0,774.0,4.117021276595745,-1,89 85 91 87 90 86 88 92
2331,1500204459.0,4,200.0,1,1500204974.0,96.0,1500205070.0,515.0,611.0,6.364583333333333,-1,80 77 78 79
2433,1500208027.0,4,200.0,1,1500208147.0,141.0,1500208288.0,120.0,261.0,1.851063829787234,-1,31 30 32 29
2477,1500209477.0,32,2400.0,1,1500209479.0,1504.0,1500210983.0,2.0,1506.0,1.0013297872340425,-1,112 28 113 119 26 111 104 101 30 110 102 116 109 60 103 27 59 115 118 117 120 57 108 106 25 107 105 32 31 114 29 58
2336,1500204593.0,8,300.0,1,1500205348.0,181.0,1500205529.0,755.0,936.0,5.171270718232044,-1,112 105 106 111 109 108 107 110
2404,1500206986.0,4,200.0,1,1500206987.0,140.0,1500207127.0,1.0,141.0,1.0071428571428571,-1,78 80 77 79
2284,1500202342.0,4,200.0,1,1500202343.0,143.0,1500202486.0,1.0,144.0,1.006993006993007,-1,39 37 40 38
2453,1500208614.0,16,200.0,1,1500208615.0,114.0,1500208729.0,1.0,115.0,1.0087719298245614,-1,80 75 71 72 83 82 76 74 73 79 78 84 70 77 81 69
2361,1500205556.0,16,200.0,1,1500205804.0,118.0,1500205922.0,248.0,366.0,3.1016949152542375,-1,89 86 96 85 88 95 78 79 92 87 90 80 93 94 77 91
2481,1500209722.0,8,300.0,1,1500209724.0,173.0,1500209897.0,2.0,175.0,1.0115606936416186,-1,65 61 62 64 67 63 66 68
2262,1500201427.0,4,200.0,1,1500201428.0,97.0,1500201525.0,1.0,98.0,1.0103092783505154,-1,4 1 2 3
2285,1500202359.0,8,300.0,1,1500202360.0,195.0,1500202555.0,1.0,196.0,1.005128205128205,-1,41 44 46 47 43 45 48 42
2300,1500203204.0,4,200.0,1,1500203206.0,104.0,1500203310.0,2.0,106.0,1.0192307692307692,-1,79 80 77 78
2446,1500208364.0,4,200.0,1,1500208366.0,140.0,1500208506.0,2.0,142.0,1.0142857142857142,-1,9 11 12 10
2303,1500203279.0,8,300.0,1,1500203281.0,212.0,1500203493.0,2.0,214.0,1.009433962264151,-1,24 23 17 22 19 21 18 20
2422,1500207660.0,8,300.0,1,1500207953.0,191.0,1500208144.0,293.0,484.0,2.5340314136125652,-1,41 42 39 40 37 38 43 44
2275,1500202081.0,8,300.0,1,1500202083.0,210.0,1500202293.0,2.0,212.0,1.0095238095238095,-1,26 30 32 29 25 28 31 27
2459,1500208806.0,4,200.0,1,1500208807.0,141.0,1500208948.0,1.0,142.0,1.0070921985815602,-1,84 82 83 81
2330,1500204419.0,8,300.0,1,1500205194.0,173.0,1500205367.0,775.0,948.0,5.479768786127168,-1,95 89 96 90 91 94 92 93
2358,1500205488.0,16,200.0,1,1500205696.0,104.0,1500205800.0,208.0,312.0,3.0,-1,85 91 86 92 96 79 94 78 93 95 90 89 80 87 77 88
2403,1500206976.0,4,200.0,1,1500206977.0,140.0,1500207117.0,1.0,141.0,1.0071428571428571,-1,22 23 21 24
2469,1500209255.0,4,200.0,1,1500209257.0,96.0,1500209353.0,2.0,98.0,1.0208333333333333,-1,19 18 20 17
2298,1500203105.0,8,300.0,1,1500203107.0,226.0,1500203333.0,2.0,228.0,1.008849557522124,-1,54 55 56 53 49 50 51 52
2363,1500205618.0,32,2400.0,1,1500205866.0,1559.0,1500207425.0,248.0,1807.0,1.1590763309813983,-1,74 124 106 107 122 82 123 81 84 105 75 10 118 110 73 83 112 111 103 101 104 121 102 109 76 12 108 11 120 9 119 117
2463,1500208957.0,8,300.0,1,1500208958.0,186.0,1500209144.0,1.0,187.0,1.0053763440860215,-1,20 13 17 16 19 14 18 15
2371,1500206003.0,4,200.0,1,1500206215.0,143.0,1500206358.0,212.0,355.0,2.4825174825174825,-1,100 98 99 97
2324,1500204242.0,8,300.0,1,1500204999.0,186.0,1500205185.0,757.0,943.0,5.06989247311828,-1,96 90 91 92 95 94 93 89
2442,1500208255.0,4,200.0,1,1500208257.0,94.0,1500208351.0,2.0,96.0,1.0212765957446808,-1,55 53 56 54
2263,1500201451.0,4,200.0,1,1500201453.0,148.0,1500201601.0,2.0,150.0,1.0135135135135136,-1,5 8 7 6
2374,1500206171.0,8,300.0,1,1500206326.0,177.0,1500206503.0,155.0,332.0,1.8757062146892656,-1,77 87 79 80 78 86 85 88
2437,1500208109.0,4,200.0,1,1500208154.0,95.0,1500208249.0,45.0,140.0,1.4736842105263157,-1,115 114 116 113
2489,1500209923.0,8,300.0,1,1500210238.0,185.0,1500210423.0,315.0,500.0,2.7027027027027026,-1,21 23 24 22 35 34 36 33
2257,1500201188.0,16,200.0,1,1500201189.0,153.0,1500201342.0,1.0,154.0,1.0065359477124183,-1,29 23 22 21 26 24 32 10 31 27 30 25 11 9 12 28
2434,1500208034.0,8,300.0,1,1500208148.0,188.0,1500208336.0,114.0,302.0,1.6063829787234043,-1,99 34 36 33 100 35 98 97
2468,1500209242.0,8,300.0,1,1500209244.0,204.0,1500209448.0,2.0,206.0,1.0098039215686274,-1,10 13 9 11 14 15 16 12
2354,1500205342.0,8,300.0,1,1500205657.0,179.0,1500205836.0,315.0,494.0,2.7597765363128492,-1,104 103 11 12 9 101 10 102
2317,1500203885.0,64,200.0,1,1500205107.0,82.0,1500205189.0,1222.0,1304.0,15.902439024390244,-1,23 43 42 6 21 24 51 49 74 63 22 45 17 18 48 62 38 75 57 34 5 2 54 39 50 7 31 25 58 32 73 41 3 33 44 56 28 14 29 61 4 55 76 47 60 20 19 53 37 64 15 35 52 30 46 40 36 26 8 13 27 59 1 16
2409,1500207123.0,8,300.0,1,1500207125.0,212.0,1500207337.0,2.0,214.0,1.009433962264151,-1,5 1 4 3 7 6 8 2
2264,1500201456.0,16,200.0,1,1500201458.0,145.0,1500201603.0,2.0,147.0,1.013793103448276,-1,31 32 14 19 30 28 25 29 26 17 27 15 18 13 20 16
2427,1500207841.0,8,300.0,1,1500207953.0,195.0,1500208148.0,112.0,307.0,1.5743589743589743,-1,75 78 73 80 74 79 76 77
2321,1500204142.0,4,200.0,1,1500204921.0,97.0,1500205018.0,779.0,876.0,9.030927835051546,-1,54 56 55 53
2482,1500209735.0,8,300.0,1,1500209737.0,170.0,1500209907.0,2.0,172.0,1.011764705882353,-1,126 122 123 125 124 127 128 121
2338,1500204637.0,4,200.0,1,1500205348.0,143.0,1500205491.0,711.0,854.0,5.972027972027972,-1,120 119 118 117
2357,1500205486.0,8,300.0,1,1500205681.0,180.0,1500205861.0,195.0,375.0,2.0833333333333335,-1,83 84 127 128 81 126 125 82
2475,1500209362.0,4,200.0,1,1500209363.0,95.0,1500209458.0,1.0,96.0,1.0105263157894737,-1,17 18 20 19
2280,1500202199.0,16,200.0,1,1500202200.0,121.0,1500202321.0,1.0,122.0,1.0082644628099173,-1,78 69 83 70 77 80 71 76 84 72 74 73 82 75 79 81
2413,1500207272.0,4,200.0,1,1500207273.0,143.0,1500207416.0,1.0,144.0,1.006993006993007,-1,16 14 15 13
2315,1500203823.0,4,200.0,1,1500204921.0,142.0,1500205063.0,1098.0,1240.0,8.732394366197184,-1,27 28 26 25
2400,1500206881.0,4,200.0,1,1500206900.0,145.0,1500207045.0,19.0,164.0,1.1310344827586207,-1,71 72 69 70
2337,1500204620.0,4,200.0,1,1500205348.0,95.0,1500205443.0,728.0,823.0,8.663157894736843,-1,114 115 116 113
2490,1500209997.0,4,200.0,1,1500209998.0,94.0,1500210092.0,1.0,95.0,1.0106382978723405,-1,10 11 12 9
2255,1500201030.0,4,200.0,1,1500201032.0,143.0,1500201175.0,2.0,145.0,1.013986013986014,-1,10 9 11 12
2332,1500204471.0,8,300.0,1,1500205219.0,177.0,1500205396.0,748.0,925.0,5.2259887005649714,-1,79 98 80 99 78 97 100 77
2487,1500209817.0,32,2400.0,1,1500210097.0,1547.0,1500211644.0,280.0,1827.0,1.1809954751131222,-1,19 55 65 9 15 62 10 127 56 122 11 121 123 66 12 68 124 18 20 17 61 125 67 16 53 13 54 64 126 14 128 63
2441,1500208220.0,16,200.0,1,1500208222.0,130.0,1500208352.0,2.0,132.0,1.0153846153846153,-1,50 22 23 21 45 27 26 24 47 25 48 52 28 49 51 46
2500,1500210361.0,4,200.0,1,1500210988.0,93.0,1500211081.0,627.0,720.0,7.741935483870968,-1,26 28 25 27
2270,1500201875.0,4,200.0,1,1500201877.0,98.0,1500201975.0,2.0,100.0,1.0204081632653061,-1,20 19 18 17
2310,1500203671.0,4,200.0,1,1500203673.0,143.0,1500203816.0,2.0,145.0,1.013986013986014,-1,11 9 10 12
2366,1500205756.0,32,200.0,1,1500206072.0,139.0,1500206211.0,316.0,455.0,3.273381294964029,-1,127 98 99 86 96 114 115 88 69 71 116 128 126 70 90 97 91 92 79 78 80 100 95 113 72 77 87 125 89 85 93 94
2454,1500208652.0,8,300.0,1,1500208653.0,221.0,1500208874.0,1.0,222.0,1.004524886877828,-1,20 15 14 17 19 18 16 13
2410,1500207124.0,16,200.0,1,1500207125.0,136.0,1500207261.0,1.0,137.0,1.0073529411764706,-1,56 22 53 41 23 54 55 42 43 60 57 21 24 58 44 59
2365,1500205712.0,4,200.0,1,1500205926.0,141.0,1500206067.0,214.0,355.0,2.517730496453901,-1,80 77 78 79
2368,1500205844.0,4,200.0,1,1500205926.0,140.0,1500206066.0,82.0,222.0,1.5857142857142856,-1,92 91 90 89
2302,1500203257.0,8,300.0,1,1500203258.0,226.0,1500203484.0,1.0,227.0,1.0044247787610618,-1,12 9 11 13 10 16 14 15
2456,1500208753.0,4,200.0,1,1500208755.0,95.0,1500208850.0,2.0,97.0,1.0210526315789474,-1,9 11 10 12
2388,1500206578.0,4,200.0,1,1500206679.0,141.0,1500206820.0,101.0,242.0,1.7163120567375887,-1,23 22 24 21
2417,1500207474.0,4,200.0,1,1500207953.0,150.0,1500208103.0,479.0,629.0,4.193333333333333,-1,10 12 9 11
2452,1500208613.0,16,200.0,1,1500208614.0,130.0,1500208744.0,1.0,131.0,1.0076923076923077,-1,65 53 54 64 67 55 59 66 58 60 68 61 56 57 62 63
2414,1500207278.0,8,300.0,1,1500207279.0,196.0,1500207475.0,1.0,197.0,1.0051020408163265,-1,19 21 24 17 18 20 23 22
2488,1500209865.0,8,300.0,1,1500210238.0,180.0,1500210418.0,373.0,553.0,3.0722222222222224,-1,4 1 5 3 7 6 8 2
2356,1500205458.0,8,300.0,1,1500205669.0,181.0,1500205850.0,211.0,392.0,2.165745856353591,-1,76 120 75 119 118 74 73 117
2289,1500202575.0,4,200.0,1,1500202577.0,109.0,1500202686.0,2.0,111.0,1.018348623853211,-1,38 40 39 37
2484,1500209781.0,8,300.0,1,1500209840.0,174.0,1500210014.0,59.0,233.0,1.339080459770115,-1,20 54 19 53 17 55 18 56
2394,1500206698.0,16,200.0,1,1500206900.0,110.0,1500207010.0,202.0,312.0,2.8363636363636364,-1,40 26 25 20 13 17 28 39 38 16 37 18 14 27 15 19
2494,1500210129.0,16,200.0,1,1500210571.0,117.0,1500210688.0,442.0,559.0,4.777777777777778,-1,52 46 37 47 51 41 49 39 50 45 44 42 40 48 38 43
2467,1500209117.0,4,200.0,1,1500209118.0,140.0,1500209258.0,1.0,141.0,1.0071428571428571,-1,66 65 67 68
2370,1500205936.0,16,200.0,1,1500206215.0,106.0,1500206321.0,279.0,385.0,3.6320754716981134,-1,88 93 87 85 89 96 90 86 77 92 94 95 80 91 78 79
2267,1500201565.0,4,200.0,1,1500201567.0,96.0,1500201663.0,2.0,98.0,1.0208333333333333,-1,12 10 11 9
2483,1500209756.0,8,300.0,1,1500209819.0,173.0,1500209992.0,63.0,236.0,1.3641618497109826,-1,10 9 12 16 11 13 15 14
2342,1500204766.0,4,200.0,1,1500205376.0,141.0,1500205517.0,610.0,751.0,5.326241134751773,-1,73 74 76 75
2369,1500205935.0,4,200.0,1,1500206215.0,141.0,1500206356.0,280.0,421.0,2.9858156028368796,-1,70 69 72 71
2301,1500203238.0,8,300.0,1,1500203239.0,211.0,1500203450.0,1.0,212.0,1.004739336492891,-1,2 8 1 3 7 5 6 4
2307,1500203499.0,32,2400.0,1,1500203500.0,1494.0,1500204994.0,1.0,1495.0,1.000669344042838,-1,82 16 90 100 23 21 84 91 87 17 92 97 14 22 99 81 86 98 15 88 20 94 85 89 93 13 19 83 95 24 18 96
2474,1500209331.0,32,2400.0,1,1500209332.0,1546.0,1500210878.0,1.0,1547.0,1.000646830530401,-1,81 70 88 74 69 75 76 92 95 91 89 80 86 94 84 87 79 100 98 99 90 73 96 72 71 97 85 77 82 78 83 93
2458,1500208790.0,16,200.0,1,1500208792.0,131.0,1500208923.0,2.0,133.0,1.015267175572519,-1,72 73 76 67 69 77 71 68 65 66 70 78 74 80 79 75
2428,1500207940.0,16,200.0,1,1500207953.0,145.0,1500208098.0,13.0,158.0,1.089655172413793,-1,83 81 94 91 96 88 92 89 84 95 86 82 87 90 93 85
2359,1500205496.0,4,200.0,1,1500205685.0,142.0,1500205827.0,189.0,331.0,2.3309859154929575,-1,123 121 122 124
2279,1500202155.0,8,300.0,1,1500202157.0,207.0,1500202364.0,2.0,209.0,1.0096618357487923,-1,64 61 67 66 62 68 65 63
2319,1500203958.0,16,200.0,1,1500204974.0,125.0,1500205099.0,1016.0,1141.0,9.128,-1,57 7 4 60 1 5 6 63 2 59 61 58 64 62 8 3
2266,1500201534.0,4,200.0,1,1500201535.0,93.0,1500201628.0,1.0,94.0,1.010752688172043,-1,2 1 4 3
2391,1500206622.0,8,300.0,1,1500206824.0,174.0,1500206998.0,202.0,376.0,2.160919540229885,-1,34 30 33 35 29 31 32 36
2402,1500206912.0,8,300.0,1,1500206913.0,176.0,1500207089.0,1.0,177.0,1.0056818181818181,-1,98 113 100 99 116 115 114 97
2282,1500202293.0,16,200.0,1,1500202295.0,120.0,1500202415.0,2.0,122.0,1.0166666666666666,-1,14 7 3 4 12 11 9 1 15 5 10 13 6 16 2 8
2293,1500202826.0,16,200.0,1,1500202827.0,166.0,1500202993.0,1.0,167.0,1.0060240963855422,-1,12 7 14 2 1 4 10 6 3 8 11 15 16 5 13 9
2269,1500201859.0,16,200.0,1,1500201860.0,146.0,1500202006.0,1.0,147.0,1.0068493150684932,-1,15 1 2 12 5 8 14 9 6 10 3 4 11 13 7 16
2253,1500200856.0,8,300.0,1,1500200857.0,208.0,1500201065.0,1.0,209.0,1.0048076923076923,-1,28 30 32 29 25 26 27 31
2305,1500203477.0,32,2400.0,1,1500203478.0,1490.0,1500204968.0,1.0,1491.0,1.0006711409395974,-1,6 7 5 4 8 63 59 74 67 71 76 78 72 79 70 73 3 2 62 64 57 75 68 69 65 80 1 58 77 61 60 66
2299,1500203174.0,4,200.0,1,1500203175.0,149.0,1500203324.0,1.0,150.0,1.0067114093959733,-1,60 59 57 58
2476,1500209470.0,16,200.0,1,1500209471.0,131.0,1500209602.0,1.0,132.0,1.0076335877862594,-1,15 10 54 11 13 56 12 9 17 16 18 19 55 53 20 14
2407,1500207041.0,8,300.0,1,1500207043.0,190.0,1500207233.0,2.0,192.0,1.0105263157894737,-1,28 38 25 27 40 26 39 37
2466,1500209042.0,4,200.0,1,1500209044.0,139.0,1500209183.0,2.0,141.0,1.014388489208633,-1,64 61 63 62
2471,1500209284.0,4,200.0,1,1500209285.0,142.0,1500209427.0,1.0,143.0,1.0070422535211268,-1,53 54 56 55
2390,1500206621.0,16,200.0,1,1500206687.0,132.0,1500206819.0,66.0,198.0,1.5,-1,88 77 36 34 30 80 31 35 85 86 33 87 32 78 29 79
2347,1500205046.0,4,200.0,1,1500205528.0,143.0,1500205671.0,482.0,625.0,4.370629370629371,-1,81 84 82 83
2377,1500206330.0,4,200.0,1,1500206484.0,140.0,1500206624.0,154.0,294.0,2.1,-1,70 69 71 72
2499,1500210350.0,8,300.0,1,1500210883.0,189.0,1500211072.0,533.0,722.0,3.82010582010582,-1,100 96 94 98 93 97 95 99
2353,1500205342.0,8,300.0,1,1500205605.0,178.0,1500205783.0,263.0,441.0,2.4775280898876404,-1,99 100 97 113 98 116 115 114
2339,1500204656.0,8,300.0,1,1500205348.0,183.0,1500205531.0,692.0,875.0,4.781420765027322,-1,126 123 121 122 124 128 125 127
2326,1500204298.0,4,200.0,1,1500204974.0,146.0,1500205120.0,676.0,822.0,5.63013698630137,-1,70 72 69 71
2429,1500207959.0,8,300.0,1,1500207963.0,180.0,1500208143.0,4.0,184.0,1.0222222222222221,-1,102 98 101 100 103 104 99 97
2323,1500204194.0,32,2400.0,1,1500205194.0,1492.0,1500206686.0,1000.0,2492.0,1.6702412868632708,-1,46 45 61 43 56 59 48 39 54 37 67 64 63 60 44 51 38 57 53 68 40 66 55 52 49 62 42 65 47 41 50 58
2343,1500204854.0,4,200.0,1,1500205379.0,145.0,1500205524.0,525.0,670.0,4.620689655172414,-1,83 84 82 81
2292,1500202654.0,8,300.0,1,1500202655.0,226.0,1500202881.0,1.0,227.0,1.0044247787610618,-1,76 80 78 75 74 77 73 79
2295,1500202863.0,8,300.0,1,1500202864.0,224.0,1500203088.0,1.0,225.0,1.0044642857142858,-1,55 49 53 56 54 50 51 52
2397,1500206779.0,16,200.0,1,1500206900.0,125.0,1500207025.0,121.0,246.0,1.968,-1,58 52 62 61 51 64 49 55 54 59 63 53 60 50 56 57
2495,1500210153.0,4,200.0,1,1500210238.0,95.0,1500210333.0,85.0,180.0,1.894736842105263,-1,43 42 41 44
2297,1500203074.0,64,200.0,1,1500203075.0,126.0,1500203201.0,1.0,127.0,1.007936507936508,-1,62 38 6 7 29 26 14 72 69 2 20 35 15 13 45 10 39 65 18 24 32 5 36 63 73 11 12 42 3 17 33 61 70 1 40 76 9 67 25 37 47 41 4 23 34 16 66 43 68 74 44 31 46 19 48 21 30 28 64 75 27 71 22 8
2401,1500206901.0,8,300.0,1,1500206901.0,180.0,1500207081.0,0.0,180.0,1.0,-1,90 95 93 89 91 92 96 94
2386,1500206482.0,4,200.0,1,1500206666.0,140.0,1500206806.0,184.0,324.0,2.3142857142857145,-1,95 93 96 94
2455,1500208702.0,8,300.0,1,1500208704.0,204.0,1500208908.0,2.0,206.0,1.0098039215686274,-1,27 25 26 85 86 87 88 28
2405,1500207012.0,16,200.0,1,1500207014.0,132.0,1500207146.0,2.0,134.0,1.0151515151515151,-1,29 47 33 35 30 31 85 48 86 32 45 36 46 87 34 88
2259,1500201220.0,8,300.0,1,1500201221.0,202.0,1500201423.0,1.0,203.0,1.004950495049505,-1,5 3 8 6 2 7 1 4
2268,1500201630.0,4,200.0,1,1500201631.0,148.0,1500201779.0,1.0,149.0,1.0067567567567568,-1,8 6 5 7
2379,1500206366.0,8,300.0,1,1500206484.0,178.0,1500206662.0,118.0,296.0,1.6629213483146068,-1,91 96 92 95 94 93 89 90
2291,1500202644.0,16,200.0,1,1500202645.0,163.0,1500202808.0,1.0,164.0,1.0061349693251533,-1,58 70 66 64 71 61 59 68 62 72 65 67 69 60 63 57
2373,1500206031.0,4,200.0,1,1500206215.0,142.0,1500206357.0,184.0,326.0,2.295774647887324,-1,126 127 125 128
2341,1500204722.0,4,200.0,1,1500205376.0,95.0,1500205471.0,654.0,749.0,7.88421052631579,-1,72 69 70 71
2451,1500208580.0,32,2400.0,1,1500208581.0,1651.0,1500210232.0,1.0,1652.0,1.0006056935190792,-1,7 50 39 47 48 44 43 46 5 8 49 52 37 41 22 2 51 33 4 45 40 24 35 1 3 34 21 38 6 23 42 36
2281,1500202243.0,16,200.0,1,1500202244.0,118.0,1500202362.0,1.0,119.0,1.0084745762711864,-1,35 34 36 91 85 87 89 90 86 88 96 95 33 92 94 93
2335,1500204567.0,4,200.0,1,1500205074.0,140.0,1500205214.0,507.0,647.0,4.621428571428571,-1,78 77 79 80
2424,1500207759.0,4,200.0,1,1500207953.0,149.0,1500208102.0,194.0,343.0,2.302013422818792,-1,51 49 50 52
2447,1500208398.0,8,300.0,1,1500208399.0,235.0,1500208634.0,1.0,236.0,1.004255319148936,-1,20 14 16 19 18 13 17 15
2308,1500203559.0,16,200.0,1,1500203561.0,136.0,1500203697.0,2.0,138.0,1.0147058823529411,-1,107 111 110 115 112 106 114 102 109 108 113 104 103 101 105 116
2277,1500202126.0,16,200.0,1,1500202127.0,172.0,1500202299.0,1.0,173.0,1.005813953488372,-1,38 47 48 43 51 52 46 50 42 37 39 44 41 49 45 40
2362,1500205585.0,4,200.0,1,1500205787.0,142.0,1500205929.0,202.0,344.0,2.4225352112676055,-1,114 113 116 115
2283,1500202328.0,16,200.0,1,1500202330.0,157.0,1500202487.0,2.0,159.0,1.0127388535031847,-1,20 26 30 28 21 22 17 27 32 18 31 23 29 19 24 25
2318,1500203910.0,16,200.0,1,1500204921.0,122.0,1500205043.0,1011.0,1133.0,9.28688524590164,-1,42 48 51 38 40 43 37 39 44 50 46 49 45 52 41 47
2276,1500202086.0,4,200.0,1,1500202087.0,149.0,1500202236.0,1.0,150.0,1.0067114093959733,-1,36 35 34 33
2486,1500209813.0,4,200.0,1,1500209912.0,92.0,1500210004.0,99.0,191.0,2.0760869565217392,-1,122 124 121 123
2415,1500207394.0,4,200.0,1,1500207395.0,141.0,1500207536.0,1.0,142.0,1.0070921985815602,-1,3 1 4 2
2273,1500202041.0,8,300.0,1,1500202043.0,200.0,1500202243.0,2.0,202.0,1.01,-1,15 16 10 12 9 14 13 11
2352,1500205229.0,4,200.0,1,1500205605.0,139.0,1500205744.0,376.0,515.0,3.7050359712230216,-1,69 72 71 70
2322,1500204177.0,32,2400.0,1,1500205194.0,1480.0,1500206674.0,1017.0,2497.0,1.6871621621621622,-1,17 22 2 5 19 23 14 29 36 21 20 18 27 16 28 24 3 7 15 30 1 4 6 13 31 35 26 33 32 8 25 34
2470,1500209263.0,8,300.0,1,1500209265.0,203.0,1500209468.0,2.0,205.0,1.0098522167487685,-1,26 29 30 32 28 27 25 31
2350,1500205208.0,4,200.0,1,1500205536.0,141.0,1500205677.0,328.0,469.0,3.326241134751773,-1,128 127 126 125
2290,1500202635.0,16,200.0,1,1500202636.0,130.0,1500202766.0,1.0,131.0,1.0076923076923077,-1,46 53 50 52 51 42 48 56 49 44 47 55 43 41 54 45
2348,1500205122.0,16,200.0,1,1500205535.0,118.0,1500205653.0,413.0,531.0,4.5,-1,105 109 112 104 103 102 111 106 110 107 10 12 11 101 108 9
2480,1500209645.0,8,300.0,1,1500209646.0,190.0,1500209836.0,1.0,191.0,1.0052631578947369,-1,54 55 18 19 56 20 17 53
2296,1500202940.0,4,200.0,1,1500202942.0,152.0,1500203094.0,2.0,154.0,1.013157894736842,-1,57 58 59 60
2485,1500209788.0,8,300.0,1,1500209901.0,178.0,1500210079.0,113.0,291.0,1.6348314606741574,-1,63 65 66 62 61 67 64 68
2473,1500209306.0,8,300.0,1,1500209307.0,186.0,1500209493.0,1.0,187.0,1.0053763440860215,-1,63 62 65 68 61 66 64 67
2461,1500208852.0,4,200.0,1,1500208854.0,93.0,1500208947.0,2.0,95.0,1.021505376344086,-1,98 97 100 99
2329,1500204321.0,8,300.0,1,1500205194.0,180.0,1500205374.0,873.0,1053.0,5.85,-1,84 81 83 87 88 86 85 82
2396,1500206723.0,4,200.0,1,1500206900.0,97.0,1500206997.0,177.0,274.0,2.8247422680412373,-1,46 48 45 47
2392,1500206642.0,16,200.0,1,1500206826.0,104.0,1500206930.0,184.0,288.0,2.769230769230769,-1,87 78 85 77 125 23 127 88 126 22 79 80 86 21 24 128
2493,1500210085.0,16,200.0,1,1500210571.0,117.0,1500210688.0,486.0,603.0,5.153846153846154,-1,21 3 35 23 36 1 33 4 24 2 5 6 22 8 7 34
2389,1500206617.0,4,200.0,1,1500206679.0,95.0,1500206774.0,62.0,157.0,1.6526315789473685,-1,25 28 27 26
2314,1500203736.0,32,2400.0,1,1500203885.0,1457.0,1500205342.0,149.0,1606.0,1.1022649279341112,-1,126 111 10 125 9 11 117 127 121 128 114 113 103 124 105 118 110 101 102 112 123 107 106 122 119 115 108 12 109 104 116 120
2309,1500203620.0,8,300.0,1,1500203622.0,182.0,1500203804.0,2.0,184.0,1.010989010989011,-1,117 121 123 119 122 124 120 118
2438,1500208135.0,4,200.0,1,1500208154.0,143.0,1500208297.0,19.0,162.0,1.132867132867133,-1,120 119 118 117
2372,1500206018.0,4,200.0,1,1500206215.0,144.0,1500206359.0,197.0,341.0,2.3680555555555554,-1,113 114 116 115
2431,1500208016.0,16,200.0,1,1500208017.0,131.0,1500208148.0,1.0,132.0,1.0076335877862594,-1,127 120 124 117 119 113 114 122 128 115 125 116 123 121 118 126
2419,1500207537.0,4,200.0,1,1500207953.0,149.0,1500208102.0,416.0,565.0,3.791946308724832,-1,24 21 22 23
2465,1500209028.0,16,200.0,1,1500209030.0,127.0,1500209157.0,2.0,129.0,1.015748031496063,-1,59 32 58 56 30 11 54 53 9 57 55 60 29 10 31 12
2420,1500207550.0,4,200.0,1,1500207953.0,148.0,1500208101.0,403.0,551.0,3.722972972972973,-1,28 27 26 25
2479,1500209625.0,8,300.0,1,1500209627.0,187.0,1500209814.0,2.0,189.0,1.0106951871657754,-1,10 11 9 16 14 15 12 13
2367,1500205758.0,4,200.0,1,1500205926.0,141.0,1500206067.0,168.0,309.0,2.1914893617021276,-1,87 86 85 88
2325,1500204292.0,4,200.0,1,1500204974.0,144.0,1500205118.0,682.0,826.0,5.736111111111111,-1,66 65 67 68
2418,1500207508.0,8,300.0,1,1500207953.0,208.0,1500208161.0,445.0,653.0,3.139423076923077,-1,19 20 14 18 13 15 16 17
2444,1500208279.0,4,200.0,1,1500208281.0,95.0,1500208376.0,2.0,97.0,1.0210526315789474,-1,59 60 58 57
2383,1500206443.0,8,300.0,1,1500206630.0,179.0,1500206809.0,187.0,366.0,2.0446927374301676,-1,69 125 70 128 72 71 127 126
2478,1500209481.0,4,200.0,1,1500209482.0,140.0,1500209622.0,1.0,141.0,1.0071428571428571,-1,123 121 122 124
2340,1500204721.0,8,300.0,1,1500205371.0,179.0,1500205550.0,650.0,829.0,4.631284916201118,-1,94 90 92 91 89 93 95 96
2272,1500202037.0,8,300.0,1,1500202038.0,209.0,1500202247.0,1.0,210.0,1.0047846889952152,-1,3 5 1 6 2 7 4 8
2256,1500201166.0,8,300.0,1,1500201168.0,196.0,1500201364.0,2.0,198.0,1.010204081632653,-1,20 19 14 16 17 15 13 18
2287,1500202533.0,32,200.0,1,1500202535.0,196.0,1500202731.0,2.0,198.0,1.010204081632653,-1,16 29 26 5 32 30 4 18 24 31 7 1 25 15 23 14 6 20 19 2 27 11 17 28 21 12 3 10 22 9 13 8
2376,1500206295.0,8,300.0,1,1500206365.0,176.0,1500206541.0,70.0,246.0,1.3977272727272727,-1,99 116 113 98 100 97 114 115
2399,1500206825.0,4,200.0,1,1500206900.0,145.0,1500207045.0,75.0,220.0,1.5172413793103448,-1,66 65 67 68
2443,1500208270.0,8,300.0,1,1500208271.0,212.0,1500208483.0,1.0,213.0,1.0047169811320755,-1,40 41 39 43 38 42 37 44
