batsim_id,oar_id
0,501
1,502
2,503
3,504
4,505
5,506
6,507
7,508
8,509
9,510
10,511
11,512
12,513
13,514
14,515
15,516
16,517
17,518
18,519
19,520
20,521
21,522
22,523
23,524
24,525
25,526
26,527
27,528
28,529
29,530
30,531
31,532
32,533
33,534
34,535
35,536
36,537
37,538
38,539
39,540
40,541
41,542
42,543
43,544
44,545
45,546
46,547
47,548
48,549
49,550
50,551
51,552
52,553
53,554
54,555
55,556
56,557
57,558
58,559
59,560
60,561
61,562
62,563
63,564
64,565
65,566
66,567
67,568
68,569
69,570
70,571
71,572
72,573
73,574
74,575
75,576
76,577
77,578
78,579
79,580
80,581
81,582
82,583
83,584
84,585
85,586
86,587
87,588
88,589
89,590
90,591
91,592
92,593
93,594
94,595
95,596
96,597
97,598
98,599
99,600
100,601
101,602
102,603
103,604
104,605
105,606
106,607
107,608
108,609
109,610
110,611
111,612
112,613
113,614
114,615
115,616
116,617
117,618
118,619
119,620
120,621
121,622
122,623
123,624
124,625
125,626
126,627
127,628
128,629
129,630
130,631
131,632
132,633
133,634
134,635
135,636
136,637
137,638
138,639
139,640
140,641
141,642
142,643
143,644
144,645
145,646
146,647
147,648
148,649
149,650
150,651
151,652
152,653
153,654
154,655
155,656
156,657
157,658
158,659
159,660
160,661
161,662
162,663
163,664
164,665
165,666
166,667
167,668
168,669
169,670
170,671
171,672
172,673
173,674
174,675
175,676
176,677
177,678
178,679
179,680
180,681
181,682
182,683
183,684
184,685
185,686
186,687
187,688
188,689
189,690
190,691
191,692
192,693
193,694
194,695
195,696
196,697
197,698
198,699
199,700
200,701
201,702
202,703
203,704
204,705
205,706
206,707
207,708
208,709
209,710
210,711
211,712
212,713
213,714
214,715
215,716
216,717
217,718
218,719
219,720
220,721
221,722
222,723
223,724
224,725
225,726
226,727
227,728
228,729
229,730
230,731
231,732
232,733
233,734
234,735
235,736
236,737
237,738
238,739
239,740
240,741
241,742
242,743
243,744
244,745
245,746
246,747
247,748
248,749
249,750
