batsim_id,oar_id
0,251
1,252
2,253
3,254
4,255
5,256
6,257
7,258
8,259
9,260
10,261
11,262
12,263
13,264
14,265
15,266
16,267
17,268
18,269
19,270
20,271
21,272
22,273
23,274
24,275
25,276
26,277
27,278
28,279
29,280
30,281
31,282
32,283
33,284
34,285
35,286
36,287
37,288
38,289
39,290
40,291
41,292
42,293
43,294
44,295
45,296
46,297
47,298
48,299
49,300
50,301
51,302
52,303
53,304
54,305
55,306
56,307
57,308
58,309
59,310
60,311
61,312
62,313
63,314
64,315
65,316
66,317
67,318
68,319
69,320
70,321
71,322
72,323
73,324
74,325
75,326
76,327
77,328
78,329
79,330
80,331
81,332
82,333
83,334
84,335
85,336
86,337
87,338
88,339
89,340
90,341
91,342
92,343
93,344
94,345
95,346
96,347
97,348
98,349
99,350
100,351
101,352
102,353
103,354
104,355
105,356
106,357
107,358
108,359
109,360
110,361
111,362
112,363
113,364
114,365
115,366
116,367
117,368
118,369
119,370
120,371
121,372
122,373
123,374
124,375
125,376
126,377
127,378
128,379
129,380
130,381
131,382
132,383
133,384
134,385
135,386
136,387
137,388
138,389
139,390
140,391
141,392
142,393
143,394
144,395
145,396
146,397
147,398
148,399
149,400
150,401
151,402
152,403
153,404
154,405
155,406
156,407
157,408
158,409
159,410
160,411
161,412
162,413
163,414
164,415
165,416
166,417
167,418
168,419
169,420
170,421
171,422
172,423
173,424
174,425
175,426
176,427
177,428
178,429
179,430
180,431
181,432
182,433
183,434
184,435
185,436
186,437
187,438
188,439
189,440
190,441
191,442
192,443
193,444
194,445
195,446
196,447
197,448
198,449
199,450
200,451
201,452
202,453
203,454
204,455
205,456
206,457
207,458
208,459
209,460
210,461
211,462
212,463
213,464
214,465
215,466
216,467
217,468
218,469
219,470
220,471
221,472
222,473
223,474
224,475
225,476
226,477
227,478
228,479
229,480
230,481
231,482
232,483
233,484
234,485
235,486
236,487
237,488
238,489
239,490
240,491
241,492
242,493
243,494
244,495
245,496
246,497
247,498
248,499
249,500
