{
    "description": "Run rjms job prologue/epilogue overhead experiment",
    "grid5000_site": "Nancy",
    "resources": "{cluster='grisou'}/nodes=9",
    "walltime": "02:45:00",
    "kadeploy_master_env": "bebida-master",
    "kadeploy_slave_env": "bebida-slave",
    "experiments": {
        "running_jobs": [0, 1, 2],
        "data_size_GB": [32],
        "nb_nodes": [1, 2, 4, 8]
    }
}
