{
  "description": "This experiment is running workloads under a fixed switch (sgraphene1) for bebida",
  "grid5000_site": "Nancy",
  "resources": "{cluster='graphene'}/switch=1/nodes=32",
  "walltime": "05:00:00",
  "parameters": {
    "nb_procs": ["4", "8", "16", "32", "64", "128"],
    "size": ["A", "B", "C", "D", "E"],
    "bench": ["is", "ft", "lu"]
  }
}
