--------------------------------------------------------------------------
mpirun noticed that process rank 1 with PID 5239 on node graphene-11.nancy.grid5000.fr exited on signal 9 (Killed).
--------------------------------------------------------------------------
