--------------------------------------------------------------------------
mpirun was unable to launch the specified application as it could not access
or execute an executable:

Executable: /home/mmercier/bebida/experiments/run_hpc_workload/bin/is.D.16
Node: graphene-11.nancy.grid5000.fr

while attempting to start process rank 0.
--------------------------------------------------------------------------
