{
    "date": "2018-12-04",
    "description": "manualy taylored to run one time each profile",
    "jobs": [
        {
            "id": 5,
            "profile": "WordCount_tiny",
            "res": 4,
            "subtime": 10
        },
        {
            "id": 0,
            "profile": "WordCount_small",
            "res": 8,
            "subtime": 200
        },
        {
            "id": 1,
            "profile": "WordCount_medium",
            "res": 16,
            "subtime": 400
        },
        {
            "id": 2,
            "profile": "Grep_tiny",
            "res": 4,
            "subtime": 600
        },
        {
            "id": 8,
            "profile": "Grep_small",
            "res": 8,
            "subtime": 1000
        },
        {
            "id": 12,
            "profile": "Grep_medium",
            "res": 16,
            "subtime": 2000
        },
        {
            "id": 15,
            "profile": "Kmeans_tiny",
            "res": 4,
            "subtime": 3000
        },
        {
            "id": 3,
            "profile": "Kmeans_small",
            "res": 8,
            "subtime": 4500
        },
        {
            "id": 3,
            "profile": "Kmeans_medium",
            "res": 16,
            "subtime": 6000
        }
    ],
    "nb_res": 32,
    "profiles": {
        "Grep_medium": {
            "application_name": "Grep",
            "application_parameters": "word result{job_id}",
            "application_type": "MicroBenchmarks",
            "data_size": 128,
            "framework_type": "Spark",
            "nb_executor": 16,
            "user": "mmercier"
        },
        "Grep_small": {
            "application_name": "Grep",
            "application_parameters": "word result{job_id}",
            "application_type": "MicroBenchmarks",
            "data_size": 64,
            "framework_type": "Spark",
            "nb_executor": 8,
            "user": "mmercier"
        },
        "Grep_tiny": {
            "application_name": "Grep",
            "application_parameters": "word result{job_id}",
            "application_type": "MicroBenchmarks",
            "data_size": 32,
            "framework_type": "Spark",
            "nb_executor": 4,
            "user": "mmercier"
        },
        "Kmeans_medium": {
            "application_name": "KMeans",
            "application_parameters": "4 3",
            "application_type": "SNS-Kmeans",
            "data_size": 128,
            "framework_type": "Spark",
            "nb_executor": 16,
            "user": "mmercier"
        },
        "Kmeans_small": {
            "application_name": "KMeans",
            "application_parameters": "4 3",
            "application_type": "SNS-Kmeans",
            "data_size": 64,
            "framework_type": "Spark",
            "nb_executor": 8,
            "user": "mmercier"
        },
        "Kmeans_tiny": {
            "application_name": "KMeans",
            "application_parameters": "4 3",
            "application_type": "SNS-Kmeans",
            "data_size": 32,
            "framework_type": "Spark",
            "nb_executor": 4,
            "user": "mmercier"
        },
        "WordCount_medium": {
            "application_name": "WordCount",
            "application_parameters": "result{job_id}",
            "application_type": "MicroBenchmarks",
            "data_size": 128,
            "framework_type": "Spark",
            "nb_executor": 16,
            "user": "mmercier"
        },
        "WordCount_small": {
            "application_name": "WordCount",
            "application_parameters": "result{job_id}",
            "application_type": "MicroBenchmarks",
            "data_size": 64,
            "framework_type": "Spark",
            "nb_executor": 8,
            "user": "mmercier"
        },
        "WordCount_tiny": {
            "application_name": "WordCount",
            "application_parameters": "result{job_id}",
            "application_type": "MicroBenchmarks",
            "data_size": 32,
            "framework_type": "Spark",
            "nb_executor": 4,
            "user": "mmercier"
        }
    }
}
