{
    "command": "./json_workload_generator.py ./spark_bdb_profiles.json workloads/workload_bigdata_seed1_jobs25.json 32 --indent 4 --random_seed 1 --job_number 25 --job_log_size_sigma 3 --job_iarrival_lambda 50 --job_iarrival_k 1 --maximum_power_of_two 4 --minimum_power_of_two 2",
    "date": "2017-06-22 17:52:28.685896",
    "description": "Namespace(indent=4, inputJSON=<_io.TextIOWrapper name='./spark_bdb_profiles.json' mode='r' encoding='UTF-8'>, job_iarrival_k=1.0, job_iarrival_lambda=50.0, job_log_size_mu=1, job_log_size_sigma=3.0, job_number=25, maximum_job_length=None, maximum_power_of_two=4, minimum_power_of_two=2, outputJSON=<_io.TextIOWrapper name='workloads/workload_bigdata_seed1_jobs25.json' mode='w' encoding='UTF-8'>, random_seed=1, resourcesNumber=32, serial_job_probability=0.25)",
    "jobs": [
        {
            "id": 0,
            "profile": "WordCount_small",
            "res": 8,
            "subtime": 23.870769294892334
        },
        {
            "id": 1,
            "profile": "WordCount_medium",
            "res": 16,
            "subtime": 36.215759620539174
        },
        {
            "id": 2,
            "profile": "Grep_tiny",
            "res": 4,
            "subtime": 63.12388252934228
        },
        {
            "id": 3,
            "profile": "Kmeans_small",
            "res": 8,
            "subtime": 107.58226044813306
        },
        {
            "id": 4,
            "profile": "WordCount_small",
            "res": 8,
            "subtime": 199.19619232820764
        },
        {
            "id": 5,
            "profile": "WordCount_tiny",
            "res": 4,
            "subtime": 244.16587340111562
        },
        {
            "id": 6,
            "profile": "WordCount_medium",
            "res": 16,
            "subtime": 270.836483161802
        },
        {
            "id": 7,
            "profile": "Grep_tiny",
            "res": 4,
            "subtime": 300.3361044228041
        },
        {
            "id": 8,
            "profile": "Grep_small",
            "res": 8,
            "subtime": 488.89734975763065
        },
        {
            "id": 9,
            "profile": "Grep_tiny",
            "res": 4,
            "subtime": 514.0152625782548
        },
        {
            "id": 10,
            "profile": "Grep_tiny",
            "res": 4,
            "subtime": 555.1458704522307
        },
        {
            "id": 11,
            "profile": "WordCount_small",
            "res": 8,
            "subtime": 657.7844907049925
        },
        {
            "id": 12,
            "profile": "Grep_medium",
            "res": 16,
            "subtime": 809.869352099939
        },
        {
            "id": 13,
            "profile": "Kmeans_small",
            "res": 8,
            "subtime": 815.5687155705868
        },
        {
            "id": 14,
            "profile": "Grep_small",
            "res": 8,
            "subtime": 890.4208466887653
        },
        {
            "id": 15,
            "profile": "Kmeans_tiny",
            "res": 4,
            "subtime": 899.8288312694004
        },
        {
            "id": 16,
            "profile": "Kmeans_tiny",
            "res": 4,
            "subtime": 1086.968167431537
        },
        {
            "id": 17,
            "profile": "Kmeans_tiny",
            "res": 4,
            "subtime": 1121.7155694439998
        },
        {
            "id": 18,
            "profile": "Kmeans_tiny",
            "res": 4,
            "subtime": 1142.2609262794588
        },
        {
            "id": 19,
            "profile": "WordCount_medium",
            "res": 16,
            "subtime": 1208.9304865914387
        },
        {
            "id": 20,
            "profile": "Kmeans_medium",
            "res": 16,
            "subtime": 1236.7524058138083
        },
        {
            "id": 21,
            "profile": "Kmeans_small",
            "res": 8,
            "subtime": 1286.2557959428018
        },
        {
            "id": 22,
            "profile": "WordCount_tiny",
            "res": 4,
            "subtime": 1467.0214119681525
        },
        {
            "id": 23,
            "profile": "Kmeans_medium",
            "res": 16,
            "subtime": 1491.1159642648433
        },
        {
            "id": 24,
            "profile": "Grep_tiny",
            "res": 4,
            "subtime": 1522.587285350865
        }
    ],
    "nb_res": 32,
    "profiles": {
        "Grep_medium": {
            "application_name": "Grep",
            "application_parameters": "word result{job_id}",
            "application_type": "MicroBenchmarks",
            "data_size": 128,
            "framework_type": "Spark",
            "nb_executor": 16,
            "user": "mmercier"
        },
        "Grep_small": {
            "application_name": "Grep",
            "application_parameters": "word result{job_id}",
            "application_type": "MicroBenchmarks",
            "data_size": 64,
            "framework_type": "Spark",
            "nb_executor": 8,
            "user": "mmercier"
        },
        "Grep_tiny": {
            "application_name": "Grep",
            "application_parameters": "word result{job_id}",
            "application_type": "MicroBenchmarks",
            "data_size": 32,
            "framework_type": "Spark",
            "nb_executor": 4,
            "user": "mmercier"
        },
        "Kmeans_medium": {
            "application_name": "KMeans",
            "application_parameters": "4 3",
            "application_type": "SNS-Kmeans",
            "data_size": 128,
            "framework_type": "Spark",
            "nb_executor": 16,
            "user": "mmercier"
        },
        "Kmeans_small": {
            "application_name": "KMeans",
            "application_parameters": "4 3",
            "application_type": "SNS-Kmeans",
            "data_size": 64,
            "framework_type": "Spark",
            "nb_executor": 8,
            "user": "mmercier"
        },
        "Kmeans_tiny": {
            "application_name": "KMeans",
            "application_parameters": "4 3",
            "application_type": "SNS-Kmeans",
            "data_size": 32,
            "framework_type": "Spark",
            "nb_executor": 4,
            "user": "mmercier"
        },
        "WordCount_medium": {
            "application_name": "WordCount",
            "application_parameters": "result{job_id}",
            "application_type": "MicroBenchmarks",
            "data_size": 128,
            "framework_type": "Spark",
            "nb_executor": 16,
            "user": "mmercier"
        },
        "WordCount_small": {
            "application_name": "WordCount",
            "application_parameters": "result{job_id}",
            "application_type": "MicroBenchmarks",
            "data_size": 64,
            "framework_type": "Spark",
            "nb_executor": 8,
            "user": "mmercier"
        },
        "WordCount_tiny": {
            "application_name": "WordCount",
            "application_parameters": "result{job_id}",
            "application_type": "MicroBenchmarks",
            "data_size": 32,
            "framework_type": "Spark",
            "nb_executor": 4,
            "user": "mmercier"
        }
    }
}