batsim_id,spark_app_id
workload_bigdata_one_time_each#5,application_1543954727058_0001
workload_bigdata_one_time_each#0,application_1543954727058_0002
workload_bigdata_one_time_each#1,application_1543954727058_0003
workload_bigdata_one_time_each#2,application_1543954727058_0004
workload_bigdata_one_time_each#8,application_1543954727058_0005
workload_bigdata_one_time_each#12,application_1543954727058_0006
workload_bigdata_one_time_each#15,application_1543954727058_0007
workload_bigdata_one_time_each#3,application_1543954727058_0008
