{
  "description": "This experiment is running workloads under a fixed switch (sgraphene1) for bebida",
  "grid5000_site": "Nancy",
  "resources": "{cluster='graphene'}/nodes=9",
  "walltime": "08:00:00",
  "required_resource_nb": 33,
  "kadeploy_master_env": "bebida-master",
  "kadeploy_slave_env": "bebida-slave",
  "data_dir": "/data/mmercier_1729973",
  "workloads": [
    "/home/mmercier/bebida/experiments/run_big_data_workload/workloads/workload_bigdata_one_time_each.json"
  ]
}
