2018-12-04 22:04:53,248 -    INFO - Start the replay for workload: workload_bigdata_one_time_each
2018-12-04 22:04:53,263 -    INFO - /opt/spark/bin/spark-submit --master yarn --deploy-mode client --num-executors 4 --class cn.ac.ict.bigdatabench.WordCount /opt/BigDataBench_V3.2.5_Spark/JAR_FILE/bigdatabench-spark_1.3.0-hadoop_1.0.4.jar /user/mmercier/data-MicroBenchmarks-32 resultworkload_bigdata_one_time_each#5
2018-12-04 22:04:53,265 -    INFO - Started Spark submit process for job:workload_bigdata_one_time_each#5
2018-12-04 22:05:11,383 -    INFO - Application id: application_1543954727058_0001
2018-12-04 22:06:33,345 -    INFO - /opt/spark/bin/spark-submit --master yarn --deploy-mode client --num-executors 8 --class cn.ac.ict.bigdatabench.WordCount /opt/BigDataBench_V3.2.5_Spark/JAR_FILE/bigdatabench-spark_1.3.0-hadoop_1.0.4.jar /user/mmercier/data-MicroBenchmarks-64 resultworkload_bigdata_one_time_each#0
2018-12-04 22:06:33,350 -    INFO - Started Spark submit process for job:workload_bigdata_one_time_each#0
2018-12-04 22:06:46,560 -    INFO - Application id: application_1543954727058_0002
2018-12-04 22:08:13,349 -    INFO - /opt/spark/bin/spark-submit --master yarn --deploy-mode client --num-executors 16 --class cn.ac.ict.bigdatabench.WordCount /opt/BigDataBench_V3.2.5_Spark/JAR_FILE/bigdatabench-spark_1.3.0-hadoop_1.0.4.jar /user/mmercier/data-MicroBenchmarks-128 resultworkload_bigdata_one_time_each#1
2018-12-04 22:08:13,353 -    INFO - Started Spark submit process for job:workload_bigdata_one_time_each#1
2018-12-04 22:08:26,015 -    INFO - Application id: application_1543954727058_0003
2018-12-04 22:09:09,898 -    INFO - Process is finished for Application: application_1543954727058_0001
2018-12-04 22:09:09,898 -    INFO - Waiting completion for Application id: application_1543954727058_0001
2018-12-04 22:09:18,662 -    INFO - Gathering information for Application id: application_1543954727058_0001
2018-12-04 22:09:21,401 -    INFO - Info gathering is finished for Application: application_1543954727058_0001 
2018-12-04 22:09:46,064 -    INFO - Process is finished for Application: application_1543954727058_0002
2018-12-04 22:09:46,064 -    INFO - Waiting completion for Application id: application_1543954727058_0002
2018-12-04 22:09:49,083 -    INFO - Gathering information for Application id: application_1543954727058_0002
2018-12-04 22:09:51,719 -    INFO - Info gathering is finished for Application: application_1543954727058_0002 
2018-12-04 22:09:53,265 -    INFO - /opt/spark/bin/spark-submit --master yarn --deploy-mode client --num-executors 4 --class cn.ac.ict.bigdatabench.Grep /opt/BigDataBench_V3.2.5_Spark/JAR_FILE/bigdatabench-spark_1.3.0-hadoop_1.0.4.jar /user/mmercier/data-MicroBenchmarks-32 word resultworkload_bigdata_one_time_each#2
2018-12-04 22:09:53,268 -    INFO - Started Spark submit process for job:workload_bigdata_one_time_each#2
2018-12-04 22:10:05,894 -    INFO - Application id: application_1543954727058_0004
2018-12-04 22:11:33,351 -    INFO - /opt/spark/bin/spark-submit --master yarn --deploy-mode client --num-executors 8 --class cn.ac.ict.bigdatabench.Grep /opt/BigDataBench_V3.2.5_Spark/JAR_FILE/bigdatabench-spark_1.3.0-hadoop_1.0.4.jar /user/mmercier/data-MicroBenchmarks-64 word resultworkload_bigdata_one_time_each#8
2018-12-04 22:11:33,356 -    INFO - Started Spark submit process for job:workload_bigdata_one_time_each#8
2018-12-04 22:11:48,304 -    INFO - Application id: application_1543954727058_0005
2018-12-04 22:13:13,346 -    INFO - /opt/spark/bin/spark-submit --master yarn --deploy-mode client --num-executors 16 --class cn.ac.ict.bigdatabench.Grep /opt/BigDataBench_V3.2.5_Spark/JAR_FILE/bigdatabench-spark_1.3.0-hadoop_1.0.4.jar /user/mmercier/data-MicroBenchmarks-128 word resultworkload_bigdata_one_time_each#12
2018-12-04 22:13:13,351 -    INFO - Started Spark submit process for job:workload_bigdata_one_time_each#12
2018-12-04 22:13:28,693 -    INFO - Application id: application_1543954727058_0006
2018-12-04 22:14:53,318 -    INFO - /opt/spark/bin/spark-submit --master yarn --deploy-mode client --num-executors 4 --class cn.ac.ict.bigdatabench.KMeans /opt/BigDataBench_V3.2.5_Spark/JAR_FILE/bigdatabench-spark_1.3.0-hadoop_1.0.4.jar /user/mmercier/data-SNS-Kmeans-32 4 3
2018-12-04 22:14:53,323 -    INFO - Started Spark submit process for job:workload_bigdata_one_time_each#15
2018-12-04 22:15:45,596 -    INFO - Application id: application_1543954727058_0007
2018-12-04 22:16:33,307 -    INFO - /opt/spark/bin/spark-submit --master yarn --deploy-mode client --num-executors 8 --class cn.ac.ict.bigdatabench.KMeans /opt/BigDataBench_V3.2.5_Spark/JAR_FILE/bigdatabench-spark_1.3.0-hadoop_1.0.4.jar /user/mmercier/data-SNS-Kmeans-64 4 3
2018-12-04 22:16:33,312 -    INFO - Started Spark submit process for job:workload_bigdata_one_time_each#3
2018-12-04 22:16:54,819 -    INFO - Application id: application_1543954727058_0008
2018-12-04 22:17:55,943 -    INFO - Process is finished for Application: application_1543954727058_0003
2018-12-04 22:17:55,943 -    INFO - Waiting completion for Application id: application_1543954727058_0003
2018-12-04 22:18:02,993 -    INFO - Gathering information for Application id: application_1543954727058_0003
2018-12-04 22:18:05,708 -    INFO - Info gathering is finished for Application: application_1543954727058_0003 
2018-12-04 22:18:13,271 -    INFO - /opt/spark/bin/spark-submit --master yarn --deploy-mode client --num-executors 16 --class cn.ac.ict.bigdatabench.KMeans /opt/BigDataBench_V3.2.5_Spark/JAR_FILE/bigdatabench-spark_1.3.0-hadoop_1.0.4.jar /user/mmercier/data-SNS-Kmeans-128 4 3
2018-12-04 22:18:13,275 -    INFO - Started Spark submit process for job:workload_bigdata_one_time_each#3
2018-12-04 22:18:26,164 -    INFO - Process is finished for Application: application_1543954727058_0004
2018-12-04 22:18:26,164 -    INFO - Waiting completion for Application id: application_1543954727058_0004
2018-12-04 22:18:34,218 -    INFO - Gathering information for Application id: application_1543954727058_0004
2018-12-04 22:18:36,816 -    INFO - Info gathering is finished for Application: application_1543954727058_0004 
2018-12-04 22:26:19,111 -    INFO - Process is finished for Application: application_1543954727058_0005
2018-12-04 22:26:19,112 -    INFO - Waiting completion for Application id: application_1543954727058_0005
2018-12-04 22:26:27,161 -    INFO - Gathering information for Application id: application_1543954727058_0005
2018-12-04 22:26:29,769 -    INFO - Info gathering is finished for Application: application_1543954727058_0005 
2018-12-04 22:28:01,320 -    INFO - Process is finished for Application: application_1543954727058_0006
2018-12-04 22:28:01,320 -    INFO - Waiting completion for Application id: application_1543954727058_0006
2018-12-04 22:28:07,356 -    INFO - Gathering information for Application id: application_1543954727058_0006
2018-12-04 22:28:09,958 -    INFO - Info gathering is finished for Application: application_1543954727058_0006 
2018-12-04 22:43:03,024 - WARNING - Shutdown called in Spark application workload_bigdata_one_time_each#3
2018-12-04 23:07:02,207 -    INFO - Process is finished for Application: application_1543954727058_0007
2018-12-04 23:07:02,207 -    INFO - Waiting completion for Application id: application_1543954727058_0007
2018-12-04 23:07:06,229 -    INFO - Gathering information for Application id: application_1543954727058_0007
2018-12-04 23:07:09,421 -    INFO - Info gathering is finished for Application: application_1543954727058_0007 
2018-12-04 23:19:08,169 -    INFO - Process is finished for Application: application_1543954727058_0008
2018-12-04 23:19:08,169 -    INFO - Waiting completion for Application id: application_1543954727058_0008
2018-12-04 23:19:10,180 -    INFO - Gathering information for Application id: application_1543954727058_0008
2018-12-04 23:19:14,420 -    INFO - Info gathering is finished for Application: application_1543954727058_0008 
2018-12-04 23:19:14,421 -    INFO - End of the replay for workload: workload_bigdata_one_time_each
